0000000 -15.000195197615126 -0.9785240867473561
0000001 0.529064800846672 0.8163372749589498
0000002 0.8358308195839269 0.211172663679856
0000010 0.6937953320149699 0.5399761297649092
0000011 0.921959966654898 0.20576674423683572
0000012 0.9530637076539641 0.5231992266077125
0000020 0.4276128802680542 0.9827536693329055
0000021 0.9341898646482771 0.9850254991617988
0000022 0.577178890485119 0.741028351751522
0000100 0.04292232426403908 0.968158611919255
0000101 0.3379925582428186 0.4408774371253663
0000102 0.25814766100445796 0.03260455277429519
0000110 0.20695415075296975 0.842060484689442
0000111 0.4442069679485505 0.2503888768902367
0000112 0.5026092867242019 0.8422421744474202
0000120 0.4277559713373924 0.5134369670649167
0000121 0.7124756147859672 0.46158289965055954
0000122 0.7151629707025158 0.8977950845246933
0000200 0.7173486916211866 0.07378383319084492
0000201 0.7553630274729227 0.6150301204651688
0000202 0.24034863483765767 0.1331535900721712
0000210 0.5314244861033232 0.9214744036215239
0000211 0.6830431820883073 0.44388975529889274
0000212 0.17835301349907873 0.7203112819818401
0000220 0.5848010806938786 0.4050778130983299
0000221 0.31572306092288127 0.7340291593738023
0000222 0.796594069462005 0.5783519894996381
0001000 0.3159836410583333 0.47923534334415085
0001001 0.13728381495763342 0.9966201707928384
0001002 0.601058394507321 0.3082258123293363
0001010 0.31405830427558223 0.8162371970448445
0001011 0.9289804572624987 0.5619953549784763
0001012 0.3643427162406708 0.4246291137945518
0001020 0.31176464349140887 0.7195079380300667
0001021 0.4278199858022782 0.33099614047894044
0001022 0.18243164963974512 0.5101024702136903
0001100 0.18662849440218698 0.6761111378650854
0001101 0.4582364355443551 0.7306352576323861
0001102 0.6241336278495271 0.1069144957145477
0001110 0.7744202863338849 0.6982837722661495
0001111 0.20330418559802588 0.41275087060839966
0001112 0.6665799945312406 0.7575138421237663
0001120 0.42649220061907556 0.13005427266346659
0001121 0.4945515819615597 0.2854201396465781
0001122 0.6834260110292684 0.36831548053314633
0001200 0.3799508748215328 0.7343807020114771
0001201 0.6205839397221629 0.33990883708069053
0001202 0.37103630588265957 0.37231867532535634
0001210 0.512590613011225 0.7061322989653541
0001211 0.1183522866175728 0.39848868378801794
0001212 0.7489799803126241 0.07613766452340154
0001220 0.6040936362249663 0.0795707914913445
0001221 0.33579938956521593 0.9292166014193773
0001222 0.06700104345379032 0.8757781441805279
0002000 0.3337079599674463 0.11412738631623509
0002001 0.1061803736695831 0.7381494347634148
0002002 0.8543570395773179 0.9083676669636185
0002010 0.7457168747291735 0.5490547099273008
0002011 0.09897094432606723 0.7534212905389225
0002012 0.2774031052711937 0.27069966215953756
0002020 0.4614711857362319 0.48463083195015877
0002021 0.4044676376728362 0.7322597019278069
0002022 0.45452590886742406 0.8292380489976895
0002100 0.6480415630333812 0.3717515489088574
0002101 0.9142115484732577 0.6795571904109491
0002102 0.09856627846855825 0.4107084936760903
0002110 0.5743467512968978 0.8159609664713836
0002111 0.03774896310072273 0.8867047840850318
0002112 0.5176835295049111 0.2336275088225217
0002120 0.08695486073058789 0.31732902685998166
0002121 0.39355323554690635 0.773087046294199
0002122 0.05267207329306267 0.41954076341769764
0002200 0.28628177037280955 0.4818612571596136
0002201 0.939668756998255 0.2536635892076038
0002202 0.03221123869268594 0.4837093728003471
0002210 0.47468550504137563 0.6071939508453139
0002211 0.07847630313862941 0.1988921796210129
0002212 0.99492355851826 0.5592522286662515
0002220 0.6781806891574353 0.9256795103306394
0002221 0.4231160276247503 0.34429111929873857
0002222 0.8396136157222762 0.43516515183597526
0010000 0.08027339507126441 0.008375033322397751
0010001 0.6051012622600276 0.6623451035903758
0010002 0.8838844123877679 0.7262170725325101
0010010 0.4880918094309836 0.23354072725784003
0010011 0.4520069906210299 0.6875735552200778
0010012 0.8562013322665457 0.38385962776058546
0010020 0.5480611791182924 0.9863747342464716
0010021 0.7068931943227783 0.8549576800431553
0010022 0.2444521184613081 0.3727515351690932
0010100 0.0835054274834901 0.5630059483286574
0010101 0.07061134860034379 0.896025061441153
0010102 0.1970644901041556 0.2102895932160589
0010110 0.12523783684510503 0.33709155916255074
0010111 0.24033268574726496 0.4243067524993883
0010112 0.28629219569438324 0.2354704886376754
0010120 0.20581993002215448 0.16221910363663206
0010121 0.5171289875299164 0.31612426467562094
0010122 0.9030745570320406 0.33520714861612
0010200 0.06329217001447607 0.9858814743535708
0010201 0.6513912423051508 0.8785392796865171
0010202 0.5920199401157492 0.30692132781510695
0010210 0.3866958906149429 0.7310517642248604
0010211 0.9721355338973799 0.6116905182799464
0010212 0.9330266887597249 0.1304034616411689
0010220 0.6562280801575053 0.5889941696769301
0010221 0.2380691101929986 0.6378027428201226
0010222 0.7136249207852648 0.1036453378709511
0011000 0.812204788181115 0.1947253492654738
0011001 0.505596099243839 0.7279892121222256
0011002 0.8943425580492302 0.23783449980001747
0011010 0.790003089025338 0.18341302429052875
0011011 0.6988123890024982 0.6179408244319107
0011012 0.425028573342479 0.6396940885246173
0011020 0.8044677833855084 0.8356051417655668
0011021 0.3500918368125714 0.6059899279533465
0011022 0.025306814749531448 0.31456905309591565
0011100 0.32824567446889596 0.6961344160633789
0011101 0.93247472162444 0.9375444321901677
0011102 0.6469266653206823 0.47282042645074385
0011110 0.7177875207520324 0.7857261003072933
0011111 0.4580287753708462 0.6416323228620794
0011112 0.7425785519232001 0.3716651678922418
0011120 0.1605384923171802 0.6527631607141967
0011121 0.6249515910593701 0.3585822142254679
0011122 0.22858079037182333 0.44323287504326836
0011200 0.3378129829150762 0.9874680787031779
0011201 0.2767952859792786 0.17153276525082062
0011202 0.852010045587187 0.5320504986454663
0011210 0.9311599414498575 0.856101128335547
0011211 0.4136696214501674 0.8022546658617317
0011212 0.8570329685146237 0.20106020151499504
0011220 0.5097658178961543 0.07392658587251333
0011221 0.6183990850021812 0.9894831850371171
0011222 0.011357521197128406 0.9214018805282235
0012000 0.5070116424009 0.26913905155371065
0012001 0.2123678309053738 0.6855800968756226
0012002 0.9176401003958045 0.3217085071750523
0012010 0.3817012352106912 0.1319861443334539
0012011 0.03838071204338811 0.1903445680388517
0012012 0.23403719836862868 0.854213284247721
0012020 0.6593176004868542 0.10185448672809516
0012021 0.7115439216355899 0.6588644481861442
0012022 0.06619075144373876 0.26497914817012636
0012100 0.24100515632928432 0.9473954925133288
0012101 0.8908500137532052 0.954200403743655
0012102 0.3854228910422044 0.2368219877694525
0012110 0.08236469210396491 0.6203113154581659
0012111 0.7866467251560328 0.9609794772186594
0012112 0.4446173629232988 0.15960455923995454
0012120 0.027472953170491365 0.24429180033070097
0012121 0.23298130994242727 0.4489347390377375
0012122 0.2601647300893958 0.2577905082973775
0012200 0.48379406345447107 0.3995458572541549
0012201 0.18712771870232425 0.08942405080042426
0012202 0.7313797345894079 0.40917961599232866
0012210 0.3883465433632384 0.7765521714003967
0012211 0.4825434933642774 0.09615479929715731
0012212 0.7518984875326867 0.4918141495950522
0012220 0.46271908841707343 0.8615266320783729
0012221 0.8771677859430377 0.4230837301599375
0012222 0.984957316908351 0.4082086767590971
0020000 0.15023395133647144 0.2122371410549173
0020001 0.919283850489648 0.8032710068988582
0020002 0.45117063407722746 0.40500579729481734
0020010 0.923112561170607 0.5208539881925195
0020011 0.842413248510039 0.5454013156086372
0020012 0.602505613548441 0.5526241358309684
0020020 0.15511894200301057 0.7278443073690517
0020021 0.7427464692441584 0.7125051205000792
0020022 0.07336912255630357 0.5629113783989272
0020100 0.6262772248226931 0.04848405034599457
0020101 0.12830817346676882 0.008646286850671925
0020102 0.4803889520587634 0.9767841010426291
0020110 0.679435341006655 0.2698619147103253
0020111 0.5145034627815147 0.9900857812875956
0020112 0.9194544220611244 0.08404733015115229
0020120 0.371924803948807 0.6433019840239522
0020121 0.21989284970865286 0.07072892861948998
0020122 0.18709332826621272 0.10064418969493483
0020200 0.16131789686231846 0.0864588594397363
0020201 0.937042993250114 0.02452436629453303
0020202 0.6147821451967567 0.4123874957728416
0020210 0.14454140688303163 0.7502868254127301
0020211 0.6652713643166758 0.4768795497286573
0020212 0.7325497235585017 0.143606382328745
0020220 0.26430047531191436 0.984527436196616
0020221 0.4795814108322005 0.5125912985880586
0020222 0.31640597656919245 0.30628565129376195
0021000 0.09749184698272151 0.03633674767912576
0021001 0.16538844032505717 0.6373709397371897
0021002 0.5725366108611648 0.7649179357562811
0021010 0.7278775880156294 0.9625067367724198
0021011 0.5054004934269157 0.7084294400488458
0021012 0.9913236281664216 0.676379162807776
0021020 0.8959969501832135 0.5345242695681459
0021021 0.6303627222378743 0.8489313776597792
0021022 0.6329744898182685 0.6603064000228701
0021100 0.03916246596878248 0.9370202610762675
0021101 0.8167538678436222 0.08189924186610675
0021102 0.704402305931818 0.8095941652759315
0021110 0.6343257345357304 0.30188800844433883
0021111 0.07047531417905073 0.7339467471960445
0021112 0.9655923019831941 0.5270931711183757
0021120 0.14410362382983066 0.7563625541236739
0021121 0.7325438742079825 0.4532907868368363
0021122 0.919993892090159 0.12485624207452029
0021200 0.6009868113469676 0.013692730531571828
0021201 0.5559658291960028 0.35086200008044677
0021202 0.3691793626453159 0.9784340530438478
0021210 0.7969417544711817 0.020466863445375294
0021211 0.6337033196384037 0.21861508430888832
0021212 0.3546133854447766 0.42174833711021587
0021220 0.7387976527874726 0.30255772188730046
0021221 0.5236637657164704 0.28856224174577827
0021222 0.8973600283822695 0.06719843022794947
0022000 0.12874737247818768 0.3765946982338273
0022001 0.681914268232261 0.9482827263973133
0022002 0.9552293411446555 0.9122769167539089
0022010 0.1829113559489326 0.8973806519195331
0022011 0.9216488883442421 0.5608023625065572
0022012 0.44552654357927024 0.8757111625606577
0022020 0.38054520052542706 0.09774164547601738
0022021 0.14970412846529768 0.05453542919177368
0022022 0.7670777793155253 0.4303523206505161
0022100 0.6449084378367063 0.7450939192562623
0022101 0.5186992963521889 0.027714257504590778
0022102 0.24256997113199297 0.9831339741755162
0022110 0.10913026600487608 0.7607263618024903
0022111 0.36014374477744016 0.30290653933892564
0022112 0.59554087921291 0.22122168417577848
0022120 0.62140390686093 0.6927455023573158
0022121 0.08840102712785758 0.10510113769191831
0022122 0.5043239892971395 0.32935486453297724
0022200 0.26366112291886656 0.6470812370058695
0022201 0.6152656054431195 0.43000589801911915
0022202 0.3067615801435859 0.25963667721725014
0022210 0.7919359197787726 0.4713803297616882
0022211 0.03336194089575406 0.6058441186723851
0022212 0.5438241857049794 0.7911111834834776
0022220 0.07989429194366227 0.29712418171373034
0022221 0.21983132136501915 0.2936690034293443
0022222 0.7646426887824073 0.7151805614428532
0100000 0.7509285106695436 0.08408558910396147
0100001 0.3967230792602692 0.6489835985896445
0100002 0.775204322221271 0.42011129103208456
0100010 0.11337200892012744 0.9723914102562795
0100011 0.12012722717205637 0.5536649009104871
0100012 0.9437620370778848 0.7795634971956799
0100020 0.9707717340991355 0.590335253623291
0100021 0.22851304378294912 0.04208715557350673
0100022 0.150119099406975 0.2809864323811252
0100100 0.2617431432853482 0.5597557404105051
0100101 0.09791857558955641 0.6856984674299363
0100102 0.625380693952216 0.4594540199680771
0100110 0.3191246992103607 0.22609548939589041
0100111 0.6524656541287439 0.8888495752779042
0100112 0.06703599596158794 0.8418313178947788
0100120 0.8834400222892942 0.12064912087679791
0100121 0.04205720568846949 0.9013359561443034
0100122 0.23979181355478207 0.5980444191477576
0100200 0.0870631317630638 0.14536415007755588
0100201 0.8617936552351925 0.6437296018834048
0100202 0.9894880486167356 0.44806242516553885
0100210 0.4687971575853944 0.8816438246703484
0100211 0.30155582901991707 0.5203767301749029
0100212 0.7726221287477292 0.5011317613634275
0100220 0.2014540451868555 0.4811095768725554
0100221 0.3050125781934272 0.04636732928679377
0100222 0.13226972614181232 0.03693131240550873
0101000 0.5120756131576308 0.6670586273684228
0101001 0.35013097228576584 0.5037825331892039
0101002 0.2809097405381714 0.7553826077628525
0101010 0.7874831584462268 0.7173955576848391
0101011 0.48454485122605695 0.14188975979743823
0101012 0.7820790634701245 0.09296984601580516
0101020 0.0677555518793701 0.21644975461738547
0101021 0.45794136335373103 0.5863543635553311
0101022 0.33494781170562793 0.3415518115147015
0101100 0.4502658213194418 0.2713422916640861
0101101 0.35851471486064823 0.12193999213087137
0101102 0.5843687564148207 0.49912833335659224
0101110 0.2557879544093665 0.0969329424419948
0101111 0.567548035910963 0.5836253280667221
0101112 0.2943392980204693 0.47717680265453
0101120 0.6713978709142345 0.9351764733712079
0101121 0.012694449176711808 0.9580548232731317
0101122 0.44908846238223366 0.13216072604521112
0101200 0.8113182716174859 0.3241863042822002
0101201 0.7231165459220676 0.5798831984701674
0101202 0.05646352514056696 0.82417060747093
0101210 0.3052090305735057 0.5723315909662354
0101211 0.9509055768342293 0.9978431346550878
0101212 0.742234305060313 0.5646725241002675
0101220 0.4563108263579011 0.3319195141416823
0101221 0.22397986512067325 0.0847352270256092
0101222 0.38692638899059495 0.02263674999029186
0102000 0.4654581430684409 0.28008723679755554
0102001 0.11597884150819471 0.5093334435889955
0102002 0.15612488140218816 0.5419490004273594
0102010 0.3012832117666211 0.5647358266034938
0102011 0.774175079270858 0.5613057184186715
0102012 0.689825263234928 0.4666088565263311
0102020 0.49385088467174065 0.9454628108455163
0102021 0.9463651484825095 0.24416101157978942
0102022 0.7179070624135525 0.8142985732435466
0102100 0.39766046895108176 0.4370280462911933
0102101 0.6460487428421544 0.14744477603036565
0102102 0.1827509615967028 0.8624494291802617
0102110 0.8357518292368099 0.5446006534253256
0102111 0.5266252230042578 0.8453634985339092
0102112 0.18632892901451725 0.071888380865059
0102120 0.7703814936622001 0.699061047842066
0102121 0.3435683311711394 0.8314046216270493
0102122 0.8184319206064862 0.035724007132871494
0102200 0.9423383983057794 0.8115536485657997
0102201 0.013374867268937107 0.809512967850183
0102202 0.5476190252752379 0.7746703063859068
0102210 0.9728859729633192 0.5546681253446083
0102211 0.03828340731060553 0.14924848782511335
0102212 0.007809410508820891 0.4134524701030272
0102220 0.2397661647080631 0.773962079833706
0102221 0.11545334926581441 0.7277468024463533
0102222 0.878036822616882 0.01662090375585057
0110000 0.672862242577517 0.13535213580278882
0110001 0.5223506743842181 0.4056694560122195
0110002 0.6165205582346684 0.525516776087246
0110010 0.08794116477645986 0.8939801916366327
0110011 0.21774933338902458 0.39075466464494346
0110012 0.33757908719609 0.13397989347550365
0110020 0.12703016379205434 0.10051078731638152
0110021 0.5827038203859687 0.9069769548115437
0110022 0.973440634000279 0.9852290359665604
0110100 0.6805318212780457 0.15028650589528592
0110101 0.28526239443750734 0.8987778173949966
0110102 0.8978206348230785 0.5515282966706536
0110110 0.2140444678580884 0.45734442509686113
0110111 0.7038836192108004 0.23390153709889705
0110112 0.18218483812311081 0.7070189042313344
0110120 0.4327704917290879 0.5057521643634698
0110121 0.8479297518608087 0.2667384092301097
0110122 0.323561785149179 0.10129451636352693
0110200 0.6259703707134692 0.8554712250903757
0110201 0.9107599707793335 0.38293607711179434
0110202 0.6048968844712038 0.6683220483218147
0110210 0.452336809126782 0.6394683254995959
0110211 0.918466073527181 0.7333501892761067
0110212 0.016942271289349775 0.9324311606924766
0110220 0.354161944011139 0.5651193140200688
0110221 0.7532748212641641 0.24518156413612957
0110222 0.5703064052612529 0.5694328693553606
0111000 0.9464785916329149 0.23319279831223727
0111001 0.9016616552145965 0.7512614473717709
0111002 0.3014103797871608 0.533105950728284
0111010 0.5062246380130585 0.29391393547356126
0111011 0.3111487663193011 0.41140652648390175
0111012 0.9932887017503829 0.547272774275811
0111020 0.8265465238674254 0.15530105765420243
0111021 0.03319378502159298 0.5328409846277284
0111022 0.489848037234372 0.9703410673775839
0111100 0.7414967552278009 0.2912444192181928
0111101 0.746619320698633 0.9020987424461713
0111102 0.6884245534342642 0.2743740966555541
0111110 0.47445531090931603 0.886471521282145
0111111 0.7273081477013117 0.891791712819619
0111112 0.7581137396837817 0.4080526770230676
0111120 0.7607141440757653 0.287414662587296
0111121 0.5969688867097982 0.872755480620177
0111122 0.22005689899974645 0.0841206996168089
0111200 0.12779341431733238 0.598506253078787
0111201 0.9473554436672348 0.6809198503503376
0111202 0.7264392899299946 0.4602537991929675
0111210 0.6358265690561569 0.5733788248722015
0111211 0.26730850936367556 0.24843263705910956
0111212 0.3893271371642124 0.7630329880656167
0111220 0.6652324419633259 0.9274239465091115
0111221 0.09879776413821428 0.6684822995380598
0111222 0.6008650158947804 0.6598121406888748
0112000 0.2813778655253819 0.6171317130294502
0112001 0.07101610610221165 0.7091710662377344
0112002 0.4185648746840094 0.15648836760095164
0112010 0.4215457799995894 0.099269769257057
0112011 0.19838544203079045 0.3741969051411085
0112012 0.05002240294190874 0.3895933593655244
0112020 0.5492062994048228 0.701729255130354
0112021 0.27668523632808184 0.12444326705516517
0112022 0.25475921945326296 0.5271806624606278
0112100 0.9241361666068091 0.07366375683404103
0112101 0.3441977671537443 0.7999088500222274
0112102 0.7390588843947624 0.1058042245011489
0112110 0.9102804537547284 0.8514308214643305
0112111 0.5038536429315164 0.39624490946477064
0112112 0.8115978853499053 0.1103359936932714
0112120 0.9831069380427495 0.5421189582848057
0112121 0.9277462842528896 0.8060059732210036
0112122 0.9779656714023847 0.47506187323565763
0112200 0.9641178230453301 0.3112152718449557
0112201 0.6962599759368586 0.3940673203977261
0112202 0.3144834855837846 0.713239078253694
0112210 0.7007019813867325 0.8262656581557598
0112211 0.7617970473441428 0.5811119971035352
0112212 0.00867394094533791 0.5414654602389896
0112220 0.09065384685587408 0.7501492017557376
0112221 0.223917363587407 0.05133876702016671
0112222 0.596068395122841 0.19550069476055632
0120000 0.8950914266569008 0.7878384303649795
0120001 0.15121616327954446 0.14157046192999034
0120002 0.47134003553056303 0.14765099173608565
0120010 0.8612950272380699 0.8450119163124555
0120011 0.28022434064170954 0.6313406291131177
0120012 0.9620393356415203 0.6256307629830814
0120020 0.8131838046379595 0.11643208689149809
0120021 0.3501686794484833 0.628735942926231
0120022 0.2809236922846787 0.7845566649481155
0120100 0.8877377051221359 0.20482444033592528
0120101 0.8986034270926665 0.13398997580213046
0120102 0.22501269249167344 0.8724065060979389
0120110 0.7815607785101214 0.7428656614214026
0120111 0.17660594007443087 0.7305718590723166
0120112 0.5160636224029915 0.4654264516987222
0120120 0.6117599843133411 0.2096015174637893
0120121 0.02399230764257898 0.17701689602877035
0120122 0.9734204022308136 0.38515924736591767
0120200 0.6247658255049938 0.6229500781004497
0120201 0.3033450268668 0.9656303053590319
0120202 0.008063273776304114 0.32024693529193715
0120210 0.9519636109351118 0.9022648596928503
0120211 0.23452908447529697 0.7919005895925
0120212 0.1714789676492715 0.036771161460236845
0120220 0.08988410193696716 0.8754043605685027
0120221 0.4127186246771317 0.5519939795097173
0120222 0.2109577885910796 0.37238697578491387
0121000 0.05057999883608444 0.1678617512922168
0121001 0.4674245078854514 0.9094475103901422
0121002 0.04479785562520844 0.3996172927829691
0121010 0.15084851012116673 0.3347581601159364
0121011 0.44623020797093615 0.7345479062222224
0121012 0.870830555126983 0.31443010258812454
0121020 0.0697268462323758 0.4628675709299881
0121021 0.6997095735396446 0.5914538499941987
0121022 0.13638124749566238 0.6784081909206835
0121100 0.023892146350071863 0.48907419699216237
0121101 0.4025812522687926 0.8931053457618677
0121102 0.739979990054992 0.6780760867980293
0121110 0.901978849304578 0.9119006639041725
0121111 0.930007969803196 0.7075825474901581
0121112 0.2223428347496571 0.9935785323916428
0121120 0.004751678960184802 0.6911608760382026
0121121 0.8310868427841084 0.5427833424036509
0121122 0.6698326795602877 0.7208052199693239
0121200 0.954175015521518 0.5311642292137321
0121201 0.11357785583264668 0.40672437578092113
0121202 0.22387311087853268 0.24998133895261432
0121210 0.626917052824371 0.6332590447576438
0121211 0.557808099317098 0.8342348978713636
0121212 0.08280703949933776 0.5001555192033716
0121220 0.3505508157035522 0.5182139398031332
0121221 0.9012781696742413 0.06973905002779446
0121222 0.4055794729458374 0.9304773988495947
0122000 0.968873668228153 0.607497798486065
0122001 0.5834915660022578 0.12332216620500047
0122002 0.0672351665132348 0.8541244221174795
0122010 0.8653616333285276 0.12381903791146087
0122011 0.34510349928050355 0.724774538149934
0122012 0.6269631357410318 0.41221608618085737
0122020 0.5386476952785413 0.6513857089531123
0122021 0.5769145593297429 0.49493448531122153
0122022 0.8512506402279169 0.9155125652013916
0122100 0.3509774765751056 0.5995215262439699
0122101 0.05566170035365292 0.18933572512657937
0122102 0.07838618474551462 0.8233293630949483
0122110 0.3200472429224691 0.5416582148310719
0122111 0.02257880401296264 0.4343479437253166
0122112 0.6108170107295742 0.73458638076739
0122120 0.5575872312857959 0.9779686160856551
0122121 0.8695749516317672 0.06808600246055119
0122122 0.31364301446713283 0.8338550513752253
0122200 0.933593447702728 0.7884522245671692
0122201 0.7682254550638451 0.32075089589002204
0122202 0.23281640777532897 0.9247258037354592
0122210 0.058667544415214046 0.5272796785590271
0122211 0.05406771183379633 0.33258359140153726
0122212 0.37794170934013027 0.5545093093383461
0122220 0.4294526067757626 0.9230054166124552
0122221 0.27653909164453083 0.8329163264002343
0122222 0.19102248687395895 0.5455067627195999
1000000 0.386953959330011 0.9705119804082298
1000001 0.3176705803312462 0.9455644717883591
1000002 0.40177538531697043 0.8308294944661442
1000010 0.7451006047834503 0.5758337499495852
1000011 0.5721390564948023 0.008745295165284328
1000012 0.2157970669553414 0.8558133201042112
1000020 0.5909962074516028 0.2324575518781341
1000021 0.7884778331882528 0.34878546569890423
1000022 0.3784296578281242 0.11645600754970198
1000100 0.897276581708265 0.5343480172649511
1000101 0.1939148299362431 0.9614435223534064
1000102 0.7831424932637151 0.3750950740047977
1000110 0.6138290576033736 0.057954853640955095
1000111 0.5146777474892441 0.8115310144344804
1000112 0.15135589585875697 0.4138620202255813
1000120 0.16284001359093614 0.9909558835495439
1000121 0.10251374005323022 0.32439686631553055
1000122 0.780275385680697 0.4049008060698205
1000200 0.2945188685963708 0.19771380235039893
1000201 0.7431184332128457 0.9189324507171194
1000202 0.20018635917907968 0.8936840920486779
1000210 0.5725653899161927 0.08798872234380795
1000211 0.03347619572698801 0.17437326635340256
1000212 0.28388375132844945 0.7198794709848424
1000220 0.04188139713357342 0.17141092050250917
1000221 0.2568823908077842 0.9594497426557125
1000222 0.017991150821885404 0.2621584137893219
1001000 0.4139012769447029 0.7240195554414756
1001001 0.6902798010526454 0.46397274650724873
1001002 0.15099188814161846 0.7314301801995262
1001010 0.44896444597961127 0.44568634830745335
1001011 0.6456647109803463 0.05877962954725391
1001012 0.34507348217615763 0.5195340570354523
1001020 0.33631332556346627 0.9539605176818672
1001021 0.433295352893006 0.5616974190405908
1001022 0.88329200096103 0.11125432538092661
1001100 0.13832475089720475 0.45367128101080056
1001101 0.17171686739385372 0.18048757598132104
1001102 0.6878796066941156 0.010498052293824833
1001110 0.9215704403739057 0.1918908910105417
1001111 0.11141877087377494 0.7162624254903232
1001112 0.7027447115225139 0.12419193055914923
1001120 0.2629801731248398 0.5048428786933535
1001121 0.14191835651690987 0.760634500323061
1001122 0.9278132954378048 0.9609351339258543
1001200 0.9984601460576831 0.3716927117290588
1001201 0.28115096600339584 0.9817796621634927
1001202 0.07906434403243201 0.9055877678878932
1001210 0.5802674508369603 0.4023294798295951
1001211 0.5739075587877264 0.44161804002090366
1001212 0.9124729214050241 0.1894407477733565
1001220 0.7585936810114781 0.0003052734545533342
1001221 0.05089401232363444 0.49732535831575464
1001222 0.28690738785916914 0.32028143085305527
1002000 0.8648024093867198 0.33934077126649587
1002001 0.7780135944608206 0.14110326797630557
1002002 0.1048077982785548 0.9286771319773602
1002010 0.23283518560282135 0.8083312874971842
1002011 0.4321538568386626 0.7235358753465366
1002012 0.8509026231546268 0.14015683881890384
1002020 0.12626254083928157 0.674694406869951
1002021 0.2684829844814214 0.04128915604303518
1002022 0.8247421181368179 0.5706510697081824
1002100 0.988636771120638 0.7267737670877126
1002101 0.24142841271798665 0.3173431913632374
1002102 0.042499021905128775 0.8869670334126419
1002110 0.24871291605805268 0.6093916617338175
1002111 0.36610138507993395 0.8795758163496887
1002112 0.29718083566809694 0.8614902328973192
1002120 0.44781160965753475 0.5246867149037515
1002121 0.6231903918967038 0.8148572484261231
1002122 0.2873242165433735 0.42670126633534855
1002200 0.04697203359215929 0.22498122926666853
1002201 0.386408714200579 0.9163217202290168
1002202 0.4449273173532915 0.7449242634841394
1002210 0.3389969658257016 0.14381463154989027
1002211 0.5895389262959235 0.24757522754636807
1002212 0.8639237135234827 0.5929830408757608
1002220 0.7752264498079059 0.9221727684214117
1002221 0.6897473206126515 0.812574695062223
1002222 0.7678345758200337 0.3512819430935936
1010000 0.38342504805278355 0.8751394645096571
1010001 0.7951664607093213 0.49387045295266496
1010002 0.3710716821632688 0.5925795988445434
1010010 0.7995810920257554 0.8881405306680801
1010011 0.3209042900044191 0.04145415300755373
1010012 0.7065780143661095 0.6883412857284957
1010020 0.15811031129889774 0.08390251070115085
1010021 0.21364349187010423 0.14462436443867122
1010022 0.5127094291645662 0.8369229159830681
1010100 0.0121424857078557 0.22046304900425695
1010101 0.9747738153866413 0.821304582614675
1010102 0.09912310416344039 0.9926578859385918
1010110 0.3172173952872618 0.5247878415227157
1010111 0.17516571355179966 0.9261030586191499
1010112 0.31194638443342027 0.09507739737333376
1010120 0.3092126422342353 0.47984874816777423
1010121 0.37741326502946504 0.8520856081240312
1010122 0.03986726998783874 0.13249700029669575
1010200 0.9319268800252468 0.3028666547790587
1010201 0.4687812230408921 0.6340195659249869
1010202 0.722346291228178 0.24168765230417244
1010210 0.008244093179425316 0.9443294483628345
1010211 0.7835108431838192 0.5056131399787885
1010212 0.41367066230019267 0.1907940672090459
1010220 0.4489064153874136 0.5211873213974676
1010221 0.701951980158919 0.3113950022422797
1010222 0.38023874618199793 0.19775189912455715
1011000 0.2811089184326646 0.9512928902715417
1011001 0.7012641116698606 0.23923814259573506
1011002 0.272933712623447 0.46140875891471334
1011010 0.7047188780744486 0.7505188073807377
1011011 0.22241504241330667 0.6211578371868873
1011012 0.5883987236539411 0.7008582699457703
1011020 0.9680067372333948 0.8491130449689792
1011021 0.3177064298649531 0.9795057994290554
1011022 0.9907914477037125 0.41339560752382065
1011100 0.4858306787479858 0.8951884636514297
1011101 0.2614148295968277 0.8060015851682439
1011102 0.3469950860169775 0.3754743440371482
1011110 0.3952701212140509 0.45885403446486617
1011111 0.9398757364694907 0.8668217961191471
1011112 0.5956358377690568 0.27799238552272265
1011120 0.09778729647293927 0.12438688288740773
1011121 0.5525362150637113 0.9977208751175096
1011122 0.30006287047021696 0.6573350371903598
1011200 0.49893209897654534 0.25548558344873395
1011201 0.48498107511509536 0.3361130812004848
1011202 0.18363780140257024 0.20910911553520195
1011210 0.48192391379295574 0.3963384372678055
1011211 0.917123425469714 0.8653652464858065
1011212 0.48869233647829335 0.9919537776393491
1011220 0.8336828704114942 0.27193446724596815
1011221 0.024406035704875095 0.9100788165513822
1011222 0.27171397401810127 0.6655619261018023
1012000 0.19943278070419201 0.6896281103064544
1012001 0.6521664095932448 0.857351338663008
1012002 0.45386742336110775 0.3165141008290736
1012010 0.6456421517208529 0.3035357900601361
1012011 0.8207589177202754 0.0170162324152644
1012012 0.5553227266546716 0.01800016287776318
1012020 0.07048560025086259 0.420432524520605
1012021 0.7607617003156086 0.33071594597498744
1012022 0.38347813572200584 0.9687228037022357
1012100 0.9902925956511895 0.1538670350321213
1012101 0.7357449943380409 0.5733869637539755
1012102 0.5602402556626092 0.7159325208567996
1012110 0.41715455512939004 0.570293427404785
1012111 0.7682153024167239 0.41345307733692105
1012112 0.873876395862332 0.5587770119930096
1012120 0.6322844224760599 0.48620699718199356
1012121 0.9826539438125015 0.4185257346017941
1012122 0.04016880170618875 0.5222828528974126
1012200 0.01725275314496333 0.22361686786004742
1012201 0.7058093869109794 0.9507365271570525
1012202 0.27006783883237684 0.3695095936748939
1012210 0.3783929454147724 0.6991102911842981
1012211 0.6619734031287546 0.7165165157010156
1012212 0.9668411347433257 0.25484775740755905
1012220 0.2937394589323611 0.41079243136798027
1012221 0.12320870296357156 0.748845542424557
1012222 0.4117966429532228 0.551858128939609
1020000 0.23707933525036018 0.620245515081113
1020001 0.5745275494572217 0.7492134788071672
1020002 0.12427127206661359 0.48581711829614016
1020010 0.6671794361512557 0.230187405875099
1020011 0.6290425432564406 0.028975057309611585
1020012 0.4249255801430063 0.27344465507280125
1020020 0.06124208091066152 0.36724451622088394
1020021 0.49399349350480726 0.5280186715897032
1020022 0.6114853162532898 0.5358314510085062
1020100 0.26079919896284 0.3070919905281525
1020101 0.5701260841835841 0.39911618912790314
1020102 0.9318026633292079 0.2552510257030858
1020110 0.10244930278282927 0.1177087384136204
1020111 0.6311881068147117 0.2661875467128302
1020112 0.43275881614533906 0.22218192837978812
1020120 0.09847431396921025 0.8994476178237383
1020121 0.40563280617632036 0.2771321490754919
1020122 0.7385048078286616 0.4845748235754185
1020200 0.4103060400197951 0.2646607633597512
1020201 0.005687367435317281 0.804235683683442
1020202 0.3357263018583281 0.42134754304435396
1020210 0.8098791068193646 0.3988229516384181
1020211 0.9962032590921824 0.10230528642756564
1020212 0.9736502636263124 0.9478925559688313
1020220 0.6806336885906632 0.5503426356925768
1020221 0.4107141530568982 0.24571080864055317
1020222 0.2516271561952048 0.2188597904653904
1021000 0.7784554197428402 0.6022474618390246
1021001 0.6083826549680433 0.18334622230368458
1021002 0.9765999009026888 0.05917924076649517
1021010 0.9585358471139855 0.8688109864126201
1021011 0.5713006558103615 0.20802320486004755
1021012 0.025820026274926966 0.22766309882079927
1021020 0.012709620108728337 0.07270845793404279
1021021 0.3656494725000252 0.2853769070591884
1021022 0.31094702504076466 0.36098948736269254
1021100 0.7223182373967297 0.07775981783819674
1021101 0.4175982225396204 0.6938234606472545
1021102 0.05128525484685165 0.5901068710327764
1021110 0.017766278067613772 0.24094750192303815
1021111 0.9318166758930759 0.12707624643032112
1021112 0.07167290587224773 0.7466947146317453
1021120 0.20663236397522 0.11477852526415555
1021121 0.12066136400217164 0.7681962525562284
1021122 0.8285214920166173 0.17651980674954193
1021200 0.860866933707437 0.48341617133663883
1021201 0.9778037289118772 0.8433236888839097
1021202 0.27919280151441694 0.42299943825562003
1021210 0.45457667571455207 0.3753029016199545
1021211 0.21369268138304576 0.574370401847406
1021212 0.12091491355718953 0.3275212768609014
1021220 0.7253296355253058 0.701995718884242
1021221 0.6873734736038816 0.3442365229646128
1021222 0.3689736125697223 0.24696871994952685
1022000 0.5686193071870989 0.03558199605552026
1022001 0.26344504333804886 0.1453205415663562
1022002 0.1008270785504537 0.4322530802748129
1022010 0.8937586212871946 0.9970014917642623
1022011 0.7082163741595824 0.7366154288850141
1022012 0.19645553066469834 0.7924725259737354
1022020 0.8533648294763658 0.8111699777838218
1022021 0.5425980686449785 0.8939811086929453
1022022 0.7269778769294967 0.5266596157066029
1022100 0.09564897099912928 0.4705146151516999
1022101 0.8038488610001009 0.44062711277471456
1022102 0.9857593725439322 0.1543571983826627
1022110 0.908547061442011 0.025937859771355543
1022111 0.9958005223674059 0.9707287058884617
1022112 0.364349954892354 0.9775607472773178
1022120 0.9430947258825201 0.019470410361867363
1022121 0.1419387930572238 0.37313993299594694
1022122 0.711447917227982 0.18071053119639746
1022200 0.587188411964786 0.8822987869626195
1022201 0.785444834386786 0.4284425065797407
1022202 0.08432555441316669 0.6522034954400586
1022210 0.8081006907580084 0.01328734600543291
1022211 0.06450115267821854 0.5099214027040235
1022212 0.3477152438800988 0.8861708715448989
1022220 0.03869036073243204 0.8293181134560644
1022221 0.17447302057923608 0.14618574236613624
1022222 0.5623451945038438 0.2860583500810392
1100000 0.8341119037155055 0.8228085101241958
1100001 0.9270044547631131 0.5336479507166408
1100002 0.6376417627347024 0.10291294068516355
1100010 0.9435247609735821 0.10463971331618249
1100011 0.7310987075753166 0.34977350885423975
1100012 0.8937742273717607 0.3365477715717631
1100020 0.4406647107934729 0.877261561279538
1100021 0.2999868933571562 0.958748992490288
1100022 0.6664545947887208 0.5306574904393202
1100100 0.5296110269438598 0.7249202645295498
1100101 0.6792978112493595 0.05005790804616139
1100102 0.13718173360193242 0.5859763401823629
1100110 0.5172101034872136 0.9816509777747117
1100111 0.6950258931916128 0.7843425758039357
1100112 0.6931627036988584 0.14977798911509654
1100120 0.9919292323045461 0.31541296392111307
1100121 0.6792836487419538 0.9331519001916765
1100122 0.34873566601013883 0.827169295007289
1100200 0.4558122672600642 0.6277771233497411
1100201 0.3697474839486211 0.2779169409999249
1100202 0.538295838979083 0.18176860067074663
1100210 0.4746567663928434 0.4624488528713928
1100211 0.38867054939752355 0.8554658183941886
1100212 0.7794742413321392 0.9463749589663673
1100220 0.08250471058396247 0.9111862375806241
1100221 0.8083230701778386 0.28391090449444245
1100222 0.9766821636650388 0.01568351839896709
1101000 0.7352357305036805 0.8570072593070576
1101001 0.23098006649953284 0.5126104485781299
1101002 0.06844903779232747 0.7914536874130847
1101010 0.7400577318714009 0.9519296622226777
1101011 0.8154624196358666 0.9714773774076314
1101012 0.04471714534773907 0.8206317732120897
1101020 0.8037980087501403 0.9062370597445799
1101021 0.7046148072271785 0.29355670161925096
1101022 0.9249586358430866 0.8122963956617077
1101100 0.2658550307212184 0.7506762829226332
1101101 0.1315448313181099 0.5901627130127223
1101102 0.33848914168711863 0.9239588832347974
1101110 0.3908733678141808 0.9772554101494454
1101111 0.9075832715875467 0.5303964080984557
1101112 0.34857887220092687 0.568653326480728
1101120 0.511745835849161 0.2674834821434873
1101121 0.6369409858168777 0.5047003120057515
1101122 0.011125470734033471 0.10149182070593576
1101200 0.06063569876968333 0.3329562181879242
1101201 0.3644630223858003 0.27295962184772204
1101202 0.35044890351160896 0.6244469150486825
1101210 0.1342524823484469 0.3250192663461625
1101211 0.004396569409415352 0.353266907792784
1101212 0.9960689688156309 0.5144582202471089
1101220 0.6896268317139294 0.42874981282067215
1101221 0.7086787252890662 0.745351094850235
1101222 0.7874977503973541 0.6843585519098748
1102000 0.5461154900824337 0.5503932944751091
1102001 0.5668568585306117 0.5120904528667428
1102002 0.24081949450988005 0.6571888791004374
1102010 0.9695068874795175 0.6369664858850327
1102011 0.1846373300104981 0.2268914684079324
1102012 0.6139865993593876 0.3895417392394911
1102020 0.2777101818966482 0.45509469806038516
1102021 0.557652568622709 0.20375257206458752
1102022 0.1939505316156036 0.8952048562414243
1102100 0.9697273888194754 0.652429070242866
1102101 0.13443532069741237 0.18059174322986749
1102102 0.0926274773538237 0.9511441095019112
1102110 0.3956577161411654 0.788860754514535
1102111 0.2577471534622089 0.7177607925718138
1102112 0.9366797138191945 0.21733336868157915
1102120 0.03129630333320299 0.00810690177567519
1102121 0.8884249518365314 0.09501983929932278
1102122 0.2233588769013859 0.7881592918271886
1102200 0.4869282204475285 0.4609265550598063
1102201 0.4513901566631129 0.006351408121772373
1102202 0.620639825010242 0.10671501163386998
1102210 0.5250975006929925 0.9549847326555886
1102211 0.43395128423264795 0.7656950235433527
1102212 0.7603771441318118 0.34518220824209533
1102220 0.8797892010460879 0.7098506877133945
1102221 0.19214228499788022 0.20144111773058604
1102222 0.49505101500606397 0.10259692476267979
1110000 0.8197691918454739 0.9446451717040371
1110001 0.18401353540826915 0.20843694104471833
1110002 0.9566403045513119 0.908062632234011
1110010 0.9793548445674789 0.21343028543688736
1110011 0.1935470760651099 0.902381843345755
1110012 0.380229244243079 0.851697978340067
1110020 0.5658967464841962 0.6776813127489036
1110021 0.041395376672905604 0.34516637237530867
1110022 0.5685820842133656 0.977922640269711
1110100 0.06850878837036478 0.4768666331108813
1110101 0.8973714970352834 0.9419613913303395
1110102 0.6167664330492173 0.14860285669836104
1110110 0.8685489343025481 0.9093779850439139
1110111 0.02789087884660335 0.5728564493761489
1110112 0.6724286889917617 0.5488592499591294
1110120 0.9732629950488803 0.38435701268305145
1110121 0.9190253880853831 0.6226114045342547
1110122 0.11037435341051138 0.5557677831363332
1110200 0.0066524094369526665 0.4587096266077426
1110201 0.43828691126949115 0.9313736083521423
1110202 0.2504396871010489 0.5167405142892438
1110210 0.3469374746438725 0.6117574514649192
1110211 0.32935065403642916 0.7872998449560835
1110212 0.6661374525436655 0.27101965664004957
1110220 0.9683944341675987 0.906269604518956
1110221 0.843296569052617 0.013724012251580042
1110222 0.5957184120154089 0.4956604681263146
1111000 0.3117328566595936 0.1896762588491775
1111001 0.5310448088883393 0.011791709510294623
1111002 0.03572283095463491 0.9826593267160331
1111010 0.786883384852118 0.988041571328386
1111011 0.5598935988104414 0.6823479426630024
1111012 0.8197607224070196 0.34771633594242846
1111020 0.1909481441874752 0.8282403828756474
1111021 0.16471041265867736 0.013036814339690617
1111022 0.07224641748027694 0.5618712959811722
1111100 0.8002742580833581 0.43570053701424505
1111101 0.5041090178956253 0.8225532253567001
1111102 0.8324253212943304 0.7923327558341178
1111110 0.6283785992988447 0.10114919541685796
1111111 0.39454076862777965 0.30201767072948915
1111112 0.3097718071109711 0.6690241748414748
1111120 0.7706347523892852 0.181757903613327
1111121 0.7974998151157765 0.32420315886566586
1111122 0.3246631615467621 0.16868753466858377
1111200 0.4564117409961266 0.1459452231234577
1111201 0.03214876521960708 0.5101911980488557
1111202 0.34656167370355173 0.8031220300564375
1111210 0.16482620692481076 0.2906441305834523
1111211 0.7020223473551467 0.6724321977844826
1111212 0.24102375664966724 0.5675679236676838
1111220 0.9260554764497843 0.07932465404283695
1111221 0.37087043826345634 0.4210346164671499
1111222 0.47925544717583557 0.9532527698445654
1112000 0.11022574297574916 0.014599069399077402
1112001 0.86046919490831 0.07235221873898057
1112002 0.42863737790380574 0.10448826465040484
1112010 0.7060378454844031 0.02433721909858555
1112011 0.6883622461981238 0.7780885118646496
1112012 0.4031460629039806 0.8204116098156164
1112020 0.45915561960912077 0.8441825861154234
1112021 0.6600552705604122 0.47564012395225863
1112022 0.1414201460992025 0.46193974058102494
1112100 0.7425302438161288 0.7184887869825582
1112101 0.9103991921698352 0.12104175778892357
1112102 0.08097346114351811 0.4127317403212398
1112110 0.1552769455849219 0.46514958018756203
1112111 0.0027790105199562154 0.7231474412299981
1112112 0.1431414994838096 0.1546451326378505
1112120 0.37414918182995527 0.8840082995164984
1112121 0.5890449437103112 0.958238796182864
1112122 0.8944744415665522 0.15082944413209098
1112200 0.264717913141702 0.03696377380346727
1112201 0.8684761836038569 0.38121626179862544
1112202 0.6195578635346887 0.744337795821959
1112210 0.388663634824325 0.31536698138739194
1112211 0.6137053961939589 0.10611634393233271
1112212 0.7318044090814805 0.6059806242725903
1112220 0.2914775348899078 0.1702772148745696
1112221 0.4148048642121721 0.1688962863476965
1112222 0.4505540585541904 0.21923967339884465
1120000 0.5327539280170189 0.4830095397273897
1120001 0.972088333691924 0.34458487979005314
1120002 0.1418543961453661 0.8537843780404382
1120010 0.8785232046631994 0.10068227738805102
1120011 0.9986737501968828 0.41010996441449576
1120012 0.4657859617431205 0.34561148372617445
1120020 0.6438847357198858 0.28602796624990234
1120021 0.25016732532232433 0.1348951521503503
1120022 0.5822809881579122 0.007049187143490787
1120100 0.19884709235104447 0.5101597225232
1120101 0.562680672881774 0.9964096144285126
1120102 0.3311456109333035 0.27709431040132393
1120110 0.2740807328093683 0.8748339629895182
1120111 0.42853683501475803 0.6467366021084369
1120112 0.36493557376495234 0.30964356498070333
1120120 0.20246546014562483 0.2636190037613011
1120121 0.5007525578647749 0.0223509625502486
1120122 0.36954014897861787 0.903151658990764
1120200 0.8893521728315922 0.35341130757520645
1120201 0.13600963709413583 0.9055213495010312
1120202 0.9087985800865425 0.4419180382894947
1120210 0.44912752579697246 0.30446550444959297
1120211 0.7596965621554358 0.2026845705407304
1120212 0.525989924851912 0.9045395243376201
1120220 0.3873872972345588 0.8872558313165922
1120221 0.17800126286457252 0.8949470123425683
1120222 0.3978371651069581 0.156295715369274
1121000 0.3985270051340043 0.2059823249451218
1121001 0.8208813280958449 0.040798948559670034
1121002 0.00543498637098716 0.6264251877347867
1121010 0.24026556105671004 0.7251212774762071
1121011 0.3719300674078925 0.8355856271102178
1121012 0.6460677815819131 0.4904834137069547
1121020 0.815329223132702 0.4308003807860894
1121021 0.580391595226944 0.13405926905366206
1121022 0.952042644828853 0.23011196960884983
1121100 0.8270023642562739 0.08689068892715279
1121101 0.8829056525517652 0.8059984210036976
1121102 0.9474953224170208 0.14673928489378962
1121110 0.6919602900542091 0.2282852792790011
1121111 0.4816341484126305 0.0030652606309048425
1121112 0.1822548159002908 0.3886314127123759
1121120 0.7551399008650723 0.366207622141948
1121121 0.32045052020116394 0.10240041974994374
1121122 0.7598905142940395 0.9692920547754114
1121200 0.8186920278334798 0.501638700329091
1121201 0.3485236959121316 0.7834266842267256
1121202 0.8012832077699706 0.8143809344958342
1121210 0.08346159257736252 0.0057190234967089415
1121211 0.21710069564137002 0.8694646047732444
1121212 0.32774243236187073 0.634307096567989
1121220 0.22332532645216507 0.8999571841347119
1121221 0.19571649695378468 0.7664160605328822
1121222 0.9417625997859498 0.7345237629370523
1122000 0.5521975294484972 0.30927260669233125
1122001 0.186959456472523 0.8629176343749336
1122002 0.21701989525595844 0.12772883726527373
1122010 0.6900329679554494 0.8687176522368227
1122011 0.07353014478352882 0.014011685383853112
1122012 0.8662752440169944 0.6753906709668156
1122020 0.5756434563039028 0.4109311176799453
1122021 0.12027773422987775 0.8010066510770124
1122022 0.3890936777508114 0.8322822396777211
1122100 0.5313025540330992 0.3510742285124311
1122101 0.9915715361174553 0.8469716964189442
1122102 0.8889345809797436 0.8596799764664833
1122110 0.4156620175601884 0.12014451325263875
1122111 0.8418894847042631 0.7478927422808457
1122112 0.062344530063752956 0.5568321830450125
1122120 0.24242412390517754 0.5097893026767525
1122121 0.8887266493647438 0.46611380143437975
1122122 0.6972529734295104 0.7760726194665463
1122200 0.8180421728258419 0.6893387235700669
1122201 0.2341684127642959 0.6770044667685972
1122202 0.6149585032296487 0.2778821447031613
1122210 0.26005609251298356 0.6122392255328035
1122211 0.6428689859533382 0.6472966620657484
1122212 0.6816431551668489 0.266522924978429
1122220 0.5061832513223503 0.48610046808382323
1122221 0.4353065654392927 0.7828387739616579
1122222 0.6669264105425479 0.13580042896623545
