0000000 -15.000022221512912 -10.606549334815782
0000001 0.38292502709491893 0.8845677631478985
0000002 0.7280537656652507 0.2941116975132817
0000010 0.3626937033145834 0.4863624128145756
0000011 0.6446637736440175 0.8764314059356186
0000012 0.08712466067459812 0.9414013644012574
0000020 0.5734612921120347 0.022987541942574685
0000021 0.1734096778673574 0.8901887914587704
0000022 0.5040178516016011 0.2736278675876127
0000100 0.5072611856180995 0.7784190755195797
0000101 0.013984736860848113 0.45438620054706425
0000102 0.9743534713873961 0.2894013653759383
0000110 0.7988769070086438 0.5764686143762537
0000111 0.6019314856560276 0.09771740724567146
0000112 0.2398011116108777 0.7925492644437306
0000120 0.08669576143596969 0.11647329163099573
0000121 0.16584782824977173 0.8186748182154664
0000122 0.7692066979936605 0.08284741425794084
0000200 0.06902804608428836 0.9346835329486411
0000201 0.12053389986951724 0.8802513183669319
0000202 0.06790854666483848 0.8597350172927987
0000210 0.07346419047547559 0.6544988784011281
0000211 0.9870937909842049 0.2713680911158384
0000212 0.025837604696605676 0.3499803889160571
0000220 0.29138640269022753 0.614462705984318
0000221 0.7805473897304679 0.606157339812859
0000222 0.3764988795515979 0.10151915933797329
0001000 0.5187620360341981 0.12589734095871696
0001001 0.35110438107205555 0.8484679075982797
0001002 0.6824609380315718 0.3913559869810308
0001010 0.9085864731725116 0.1408076210643524
0001011 0.31246342819019535 0.8117623128921895
0001012 0.6927018849438911 0.12611788441871263
0001020 0.3669558747268833 0.5924438738240633
0001021 0.4158192530447665 0.008822916775369727
0001022 0.8643274899181453 0.8024628321945082
0001100 0.7632182301429974 0.602206015244034
0001101 0.647908681486248 0.6915092496413319
0001102 0.2627471799511909 0.044002493467672044
0001110 0.7876101220104879 0.6685140809342811
0001111 0.041535189768390435 0.03788061704990109
0001112 0.7362271568680402 0.07505905248357447
0001120 0.12838594721846064 0.9070979474907858
0001121 0.06259322934189737 0.4074406494248134
0001122 0.8839686058547835 0.49855306701880464
0001200 0.00905415833884593 0.814043185548497
0001201 0.8616066055268548 0.7108748257269195
0001202 0.8873451042201848 0.08564331232105282
0001210 0.6708283757309864 0.41340902672972424
0001211 0.01693958388272898 0.1941238490265308
0001212 0.8201738983725791 0.008366060626361693
0001220 0.7452529075541001 0.1806926028495296
0001221 0.7527216648108392 0.9151552284426961
0001222 0.4733399447580233 0.7152074979476344
0002000 0.1473692674204281 0.7871359259116479
0002001 0.9367680145624998 0.1475424746116034
0002002 0.3042838655443474 0.19638908315205672
0002010 0.5621071385561179 0.10521569013433696
0002011 0.9292324782343033 0.2540528152474776
0002012 0.7408988935704016 0.39340230501937967
0002020 0.8702083086110017 0.8585394594394772
0002021 0.6009751363385192 0.2418163971069499
0002022 0.7943123914028024 0.24187136716418156
0002100 0.3918921225966996 0.7902769406400015
0002101 0.7247836187929889 0.7313082119865763
0002102 0.09730173754185933 0.0012362960026491843
0002110 0.19772461450192658 0.7851063266445708
0002111 0.8672454815042331 0.5844545232548165
0002112 0.15346453910243918 0.21616288846468923
0002120 0.374545491364072 0.5188202983023535
0002121 0.47761941117530804 0.18238364132406026
0002122 0.656417842416191 0.7759991160053601
0002200 0.10268476450816155 0.9542543642579843
0002201 0.33071472345300157 0.8525984373449697
0002202 0.7703690901519471 0.8937391395236675
0002210 0.22116312033549856 0.9959790505054358
0002211 0.6130822502169148 0.12945396024218314
0002212 0.33285178762897516 0.4612512788847758
0002220 0.849755962638131 0.30398938846785994
0002221 0.505434887351593 0.02991553651085499
0002222 0.7119552402608509 0.2332566382461848
0010000 0.7449084239219221 0.1861211899394698
0010001 0.6209966675925135 0.1858559231295117
0010002 0.43737572969487226 0.9329666403299842
0010010 0.007589750330240785 0.7791053407020481
0010011 0.3154862861463398 0.6011338299467527
0010012 0.3092381277015901 0.33136741930717184
0010020 0.6459380779156516 0.4950127696749125
0010021 0.6607821736187408 0.04658966798965225
0010022 0.4702150713320731 0.07063988676773347
0010100 0.04845794565914352 0.13930952190305745
0010101 0.06125703380560643 0.570564685773763
0010102 0.6269851697566117 0.24981115871909276
0010110 0.2854745534279651 0.41164771266796385
0010111 0.03471720597563288 0.5180540231087247
0010112 0.8434480249777291 0.8296403050801162
0010120 0.7031040113646303 0.6052492016635068
0010121 0.349520499520805 0.32541732841593296
0010122 0.1457391708814183 0.93664930219563
0010200 0.8967186068480797 0.8307990787096469
0010201 0.7798355035159011 0.6898390515763324
0010202 0.14890799671724575 0.5574106562502426
0010210 0.9893062984216515 0.21097906281268153
0010211 0.997461733906265 0.9025080453344195
0010212 0.31053001361917965 0.7992368952040301
0010220 0.2876878307410522 0.5027267197248163
0010221 0.1603798932234154 0.5646791532508219
0010222 0.934214881143714 0.9540417104211875
0011000 0.05101194577717649 0.8126977278139377
0011001 0.13694416794262032 0.9469817835438891
0011002 0.41308710618220645 0.4260084792696671
0011010 0.9256192146735779 0.4854054499274878
0011011 0.4835048224528179 0.00932866959698253
0011012 0.13401529403419365 0.7808833954052848
0011020 0.25556669814096933 0.1791132149546234
0011021 0.5455296621004282 0.49186521064406485
0011022 0.5402055462908092 0.41859437286889944
0011100 0.06332840535474726 0.4918767301703919
0011101 0.15104847920790343 0.11451863226434544
0011102 0.20697764477777014 0.059467592860424134
0011110 0.25201208811588527 0.2816901444918958
0011111 0.689527843094351 0.3955689713016084
0011112 0.10723182306488177 0.17386213277574158
0011120 0.8773652718228686 0.48641766674991327
0011121 0.6398282627784174 0.05982596816761332
0011122 0.31544098890619887 0.7979602704884221
0011200 0.7127657649817035 0.40743823994727146
0011201 0.6986395699489709 0.24472878337994575
0011202 0.07406631727040025 0.7252622009092661
0011210 0.5379862831993836 0.03249116998897361
0011211 0.7192861118658177 0.7851610766710203
0011212 0.8621759927290878 0.49836049106958524
0011220 0.18046842809411545 0.3992658065920658
0011221 0.6938344367499383 0.3120790277939831
0011222 0.353872508878332 0.8554836261229684
0012000 0.6481239048833326 0.09146758812598066
0012001 0.3162255619847155 0.2909778892302046
0012002 0.9665151430539377 0.8696473819596696
0012010 0.7804618270276491 0.9249260302144646
0012011 0.39968024962738213 0.3138003931085449
0012012 0.08634041585877539 0.11064158927019196
0012020 0.9170397193050202 0.9943665194969273
0012021 0.36173901839214484 0.2096085689018603
0012022 0.38466877967813495 0.6457356681250385
0012100 0.26600929639694626 0.505571475846594
0012101 0.9124827529946667 0.7153279625557741
0012102 0.09694612874827324 0.8746958620464952
0012110 0.4696866030405912 0.10853554874880156
0012111 0.16185264844804814 0.03387421184451034
0012112 0.04417100991681899 0.7538686450738686
0012120 0.048874138857318505 0.19803211465552528
0012121 0.05065089795842048 0.9636692103127804
0012122 0.41805696780038115 0.11316134611149131
0012200 0.0928243257368544 0.01561162871816868
0012201 0.14785360972501704 0.37302327889183406
0012202 0.5027241562196892 0.47950539741274356
0012210 0.642465805303035 0.040200924944393535
0012211 0.15017364923025733 0.4479347573865826
0012212 0.9925022968913415 0.8728083844650928
0012220 0.4702204163779061 0.7474569690814248
0012221 0.46352155492119773 0.4356067284759242
0012222 0.6270569627694008 0.4258265374844008
0020000 0.44612550102780535 0.020772801906792426
0020001 0.9336712810616273 0.6563228427827354
0020002 0.1255124488584396 0.269473928989301
0020010 0.8899643043395598 0.9559129748277687
0020011 0.32579306799481633 0.4379257865880041
0020012 0.9693499241226079 0.34274785501299754
0020020 0.014429893779485337 0.36557427396813313
0020021 0.7700433487897931 0.8260135960025714
0020022 0.7470465588642627 0.9005870150667894
0020100 0.7971939659622426 0.6789341327042095
0020101 0.8345292347766724 0.4370792844271132
0020102 0.02468408790073373 0.5640623211103674
0020110 0.3451909681979044 0.24508445490090713
0020111 0.8061180554390373 0.03400471957279372
0020112 0.03341861601974838 0.12667873764559956
0020120 0.9916166237087853 0.49824049961727634
0020121 0.3080203605991141 0.20819901589422873
0020122 0.1704592820672335 0.6934579096155431
0020200 0.7239286792640348 0.823200205295333
0020201 0.5981682170688986 0.2765213538202621
0020202 0.589962354246213 0.2634664337328707
0020210 0.4126374110650757 0.18982429155155245
0020211 0.42764896197328506 0.2752800155805626
0020212 0.9337855058977482 0.1101216560963888
0020220 0.4238510457092318 0.5645883603668493
0020221 0.0508097543957271 0.30629125493571163
0020222 0.21515857277767203 0.3103355350040785
0021000 0.7477965329004395 0.895353165391283
0021001 0.7404629422708062 0.3648289117531448
0021002 0.46031659132525693 0.46744420169707623
0021010 0.8507259265026437 0.14323427225879537
0021011 0.09425754307776113 0.23419659764144818
0021012 0.09541132528243923 0.3039324996976145
0021020 0.6227423956753105 0.965969598483365
0021021 0.2626311068442089 0.7865391572768966
0021022 0.5800548645937852 0.3831460127977563
0021100 0.491124082565212 0.13882704141029212
0021101 0.631772986224232 0.12044770969129326
0021102 0.13181025828794524 0.5044762464293612
0021110 0.5032631461087121 0.5001114998757273
0021111 0.33862891732131806 0.6888712975894571
0021112 0.1136802571913853 0.25443809514379023
0021120 0.8418652887878284 0.20379483360281636
0021121 0.4007033514675098 0.03071113308901663
0021122 0.4170963234382631 0.7230628392269987
0021200 0.5135491680115998 0.8439363255969038
0021201 0.2495047548769379 0.8123899659600902
0021202 0.5175468422043271 0.9629814275435896
0021210 0.26405693574809685 0.9023091524888174
0021211 0.1832859769753148 0.4649974450052382
0021212 0.84403801993082 0.7021696383899312
0021220 0.9191825644316918 0.22567774475745772
0021221 0.7779940182367734 0.8545608940638489
0021222 0.70958169287729 0.2363752329676827
0022000 0.9358840257987615 0.14925474416250228
0022001 0.6491751039701313 0.9875257523432135
0022002 0.56958428480699 0.3071653800695595
0022010 0.2823353246495166 0.7267563453518923
0022011 0.15813008228008552 0.08078309965630948
0022012 0.2419215412640049 0.6265232788798991
0022020 0.9333619273365663 0.5641444440559086
0022021 0.31016998511296856 0.6564737564207515
0022022 0.09779724800053113 0.6420086239188489
0022100 0.6474183147773068 0.8523105433914933
0022101 0.659225845260274 0.5665450227065051
0022102 0.6435647327931191 0.5849143699223588
0022110 0.12463243598341134 0.8342427138139741
0022111 0.23418443332918415 0.8898739426527489
0022112 0.11042427972072566 0.21309533085264765
0022120 0.7942549400255468 0.517908789668655
0022121 0.9757836231376814 0.19114728138464676
0022122 0.18127857045896822 0.8307168875443227
0022200 0.6804165567900493 0.06861044536793548
0022201 0.9656462550501543 0.9656730799802182
0022202 0.946430280077231 0.19760321440847606
0022210 0.8771309971485658 0.990389890351654
0022211 0.33740832001123344 0.3014328218556729
0022212 0.36960934382298927 0.16840983713316604
0022220 0.35183622875586196 0.937663142278446
0022221 0.7222209944649054 0.7068027153596913
0022222 0.30049446396679913 0.9271399839721189
0100000 0.15147963484057558 0.7447094187243867
0100001 0.9608847335189933 0.11965663063995247
0100002 0.13500982054865485 0.8825628259571209
0100010 0.7183435986842844 0.6216024492837391
0100011 0.40259859013169663 0.7906643662784283
0100012 0.38464528340925785 0.16519547365638765
0100020 0.10552133007878062 0.6524602657101745
0100021 0.8612763908020733 0.668772949466539
0100022 0.6758780974054976 0.9958668967202573
0100100 0.010564819810250037 0.15703472036441557
0100101 0.9182603542670653 0.9820334650265852
0100102 0.4169693437627576 0.9608040152542293
0100110 0.016246135154528885 0.6891950402537224
0100111 0.8986401482011154 0.43338802564745615
0100112 0.4087880831629894 0.3617464670284537
0100120 0.6159099977097654 0.2571702160780597
0100121 0.40720917218639796 0.9736632207612456
0100122 0.15139017536582933 0.8509306089726338
0100200 0.7990782312043152 0.4730067237530733
0100201 0.7574891974549981 0.3628210184291656
0100202 0.8580070151574918 0.5987027986310729
0100210 0.1473813053363512 0.46289535879573307
0100211 0.9729638202792197 0.8371097173865789
0100212 0.29397689011048067 0.6891218705343725
0100220 0.503664438172902 0.47371022314135847
0100221 0.4503507783166404 0.8488932275227079
0100222 0.6352276002773727 0.22299685930050017
0101000 0.9354343999408289 0.7256049951768794
0101001 0.5114271369723864 0.28320654460764194
0101002 0.5692642803593025 0.9960024317922683
0101010 0.28421777172182494 0.4203371841482033
0101011 0.6310943928201862 0.31362140692386564
0101012 0.950844112439721 0.5223199437721523
0101020 0.0493802800090235 0.4758223803494298
0101021 0.16225446281196965 0.8362352723652295
0101022 0.6945650293860499 0.7435008196051139
0101100 0.20473570050961487 0.016393378963873606
0101101 0.5466104377446962 0.08016744557719502
0101102 0.7407204304061102 0.5144706246162575
0101110 0.9887711480178505 0.31578707239419723
0101111 0.007415411622063939 0.8731042744454238
0101112 0.030145533128172586 0.2888632585883688
0101120 0.9688740356132032 0.45007004904529835
0101121 0.5376905255457252 0.6815197432536501
0101122 0.08306143790478748 0.9721495835118591
0101200 0.7553585190213518 0.7924454814154331
0101201 0.33018039318048553 0.2385024893445361
0101202 0.6545554230844038 0.9481618197436246
0101210 0.8301677295120767 0.9305646506229844
0101211 0.21003480114411888 0.2171783947975826
0101212 0.7635030219690068 0.6683501984298332
0101220 0.557488211858646 0.5068433722062883
0101221 0.3548931619495843 0.6219360231630495
0101222 0.344179330896461 0.1663199734183307
0102000 0.274947195160828 0.3931028593706083
0102001 0.4029646300206233 0.9041787548441442
0102002 0.2729682042551992 0.6635050887373176
0102010 0.7200822859272641 0.371116611033536
0102011 0.7146954551069451 0.16822116751310123
0102012 0.4718720316504219 0.561148741111009
0102020 0.18994833876262507 0.8144052790916109
0102021 0.07468279600174943 0.08434223507009575
0102022 0.22557086714644137 0.7486260496860669
0102100 0.6453155533559081 0.4961386131550195
0102101 0.056695296474948864 0.719160941185428
0102102 0.850955888523428 0.19310033462069343
0102110 0.5362690569528854 0.4170637220343947
0102111 0.5437959403192432 0.9562871649730723
0102112 0.7129750263911163 0.4999321165186945
0102120 0.6559417171350755 0.6571435015361697
0102121 0.6050158298228859 0.9414452309776997
0102122 0.9609523627510987 0.4436667762951034
0102200 0.4209692790687628 0.9566801333519005
0102201 0.9005923135660389 0.09095908573240152
0102202 0.6623235298054698 0.10196432244349085
0102210 0.23316691762062047 0.5964391800790525
0102211 0.551640382633381 0.19368495148373954
0102212 0.5719600391961648 0.7157642564740335
0102220 0.5668935056795025 0.7352987436799656
0102221 0.5900993198383157 0.020580533581464833
0102222 0.018082820480684325 0.4352436121406076
0110000 0.4854632260539177 0.4441198594653515
0110001 0.29276385283024386 0.2954273762556344
0110002 0.2677903490012389 0.8905823851904364
0110010 0.07070674202715288 0.8448419374794798
0110011 0.4137311165830164 0.791912794412066
0110012 0.2615516454403942 0.30938512642635974
0110020 0.9555695209703113 0.3426738134445422
0110021 0.6386899054633693 0.013991023296837324
0110022 0.6017060212146681 0.25482964303704725
0110100 0.3312852868062359 0.21237014463544013
0110101 0.316550392314651 0.3487867094443732
0110102 0.2170176087694875 0.7914782210777118
0110110 0.037044314251989285 0.3254727092806756
0110111 0.9451510692452357 0.7769788415870104
0110112 0.8117625413944717 0.9362261339611296
0110120 0.44754894067785456 0.29948103274376525
0110121 0.06708718266475833 0.023906101571795957
0110122 0.17038660400921013 0.833558928021333
0110200 0.27312419024286416 0.9818584121751734
0110201 0.11216005110497296 0.6038596556677408
0110202 0.2727687188269825 0.518667483710015
0110210 0.12688884406789003 0.6845685511973777
0110211 0.6978821038910789 0.9692574782339723
0110212 0.4953759788071369 0.8057939954893034
0110220 0.49334234128721743 0.6777132045681458
0110221 0.6864007604797127 0.8897020366836571
0110222 0.5435381817819259 0.9014864818173342
0111000 0.14323687996613366 0.8814364554320392
0111001 0.2262695894652046 0.20533992945595825
0111002 0.8863115680739465 0.45975654089927354
0111010 0.7782021012477496 0.2615636280359952
0111011 0.5211296352604794 0.26818188227438033
0111012 0.9946749164426878 0.8636277756717977
0111020 0.9869517316375267 0.10661520454924256
0111021 0.0017050511658762701 0.08958828196853919
0111022 0.8994560843415155 0.5639235529284226
0111100 0.7875214849316078 0.823152291443881
0111101 0.6755890371565505 0.6903576254561725
0111102 0.15990859848122618 0.040302778930047634
0111110 0.4933922707070689 0.5118300551607261
0111111 0.9643533633532502 0.09742445759364593
0111112 0.44471597278257113 0.01434423203311308
0111120 0.3296639933625718 0.011145644961474188
0111121 0.901504735443107 0.8966105397326932
0111122 0.534023078428328 0.6806376940535142
0111200 0.40154084482021346 0.2930182012061182
0111201 0.7590072210248386 0.1422672601849455
0111202 0.03174867107056101 0.21219814653671798
0111210 0.8801354854657619 0.7400910427266296
0111211 0.9664010307242967 0.8965058999831242
0111212 0.4928273954526058 0.4884925993436995
0111220 0.9095414368901535 0.5692181090315549
0111221 0.8804197616892394 0.19225000551800275
0111222 0.6656265453918092 0.7682070176529079
0112000 0.4449841351206594 0.43763171459291006
0112001 0.15581900385283842 0.4552543869967709
0112002 0.22676358857101842 0.8954564490898802
0112010 0.7823925723795042 0.45205990942699714
0112011 0.4346902800388812 0.019117027141977494
0112012 0.09617946296077506 0.007822897437566922
0112020 0.23432345341797445 0.24102655902067738
0112021 0.06333252963090796 0.6856988773243597
0112022 0.2737119660315719 0.8759974925377291
0112100 0.20887991580483922 0.07768872384445924
0112101 0.5998451759338657 0.7575453746083471
0112102 0.1795581224324646 0.939254245588805
0112110 0.9722722497912446 0.24220007940085198
0112111 0.01644531992589937 0.6922439602011937
0112112 0.43714240368174395 0.9278015399716377
0112120 0.4754063048107984 0.4210764537238141
0112121 0.48490962720705644 0.8783872584506143
0112122 0.8597215376351856 0.8142223146065372
0112200 0.128698916628199 0.6472073366530281
0112201 0.42147923162031653 0.647329699978664
0112202 0.4817503684303889 0.6127921058811889
0112210 0.7264362933059184 0.16307268863108804
0112211 0.04079033368367746 0.24424867590358845
0112212 0.8931964527182569 0.22970799363414895
0112220 0.3412090508711576 0.689093057272549
0112221 0.18891926727908648 0.3838395842705853
0112222 0.8224647849742345 0.6673187746406288
0120000 0.766563789184706 0.6698097196468832
0120001 0.20993078188042946 0.8328611941358336
0120002 0.6855046583609599 0.026718989778939717
0120010 0.7986313438432178 0.20703917988569942
0120011 0.5331806205089228 0.2911739921190536
0120012 0.4496408001314973 0.013052042118990692
0120020 0.05350085537944582 0.34200107952104597
0120021 0.0463855492268439 0.23013826754680256
0120022 0.923788416263815 0.9441654447546219
0120100 0.8321976218454842 0.8843990256213005
0120101 0.2536808855563113 0.13756157190813134
0120102 0.9318284018485433 0.8051746812056161
0120110 0.2324676626301525 0.42284810400664175
0120111 0.17141849603695813 0.6118624852115688
0120112 0.9493734171136526 0.451161774482819
0120120 0.6857402357917757 0.26145865044485983
0120121 0.47332493494318295 0.22566322912242076
0120122 0.9204152587731365 0.5497342935719418
0120200 0.026100236634188367 0.8501816515424667
0120201 0.4935740216096013 0.7832974119805014
0120202 0.06301025559338813 0.05365542974610171
0120210 0.4022392557336787 0.3852328240855539
0120211 0.016988466703181215 0.7061349723989396
0120212 0.9892132609791654 0.5775507384970924
0120220 0.8367080756038864 0.4340982966391812
0120221 0.7013578394904962 0.36357110098685363
0120222 0.43498759991098157 0.1248998645006939
0121000 0.09988724097549628 0.6147877947689759
0121001 0.5468735851126829 0.17865204674755342
0121002 0.20804813914596354 0.09203343106269857
0121010 0.3009806605585643 0.5510494839863878
0121011 0.20954724105958966 0.35183155712916925
0121012 0.5307277684676628 0.26379348935337144
0121020 0.5088654528198044 0.5937566409087844
0121021 0.36802345571036277 0.231756986252042
0121022 0.12650529703678082 0.985415411030603
0121100 0.3973455111107411 0.238743490878082
0121101 0.9310160416412274 0.29018238572248234
0121102 0.965714295625544 0.6012267029902911
0121110 0.48511504510261383 0.38456462771214417
0121111 0.22679084668556415 0.06910026554009852
0121112 0.5759980895321594 0.9758143724628952
0121120 0.1612536206271108 0.2130469370059197
0121121 0.9157187506620912 0.6202149935941548
0121122 0.9636201875613966 0.5574848408277037
0121200 0.9266764897868697 0.5955299353790227
0121201 0.16936796491210282 0.701128202365271
0121202 0.5551989727302822 0.05200749031102936
0121210 0.5540285345585565 0.9616572184386422
0121211 0.8549762151087363 0.2097170522109516
0121212 0.9869154372856387 0.7119334830723549
0121220 0.8296522262155145 0.42992949908929234
0121221 0.5227156566954368 0.8850445779494458
0121222 0.14865676783673998 0.501093371743351
0122000 0.6737636850643418 0.2228516663155088
0122001 0.6728842660155512 0.5225445039986011
0122002 0.8566040694329397 0.14301268278104617
0122010 0.1371942918448843 0.03151017707555759
0122011 0.6922928927822157 0.44942180770087625
0122012 0.460467384986871 0.738640280310051
0122020 0.5584539812522257 0.5777288662691419
0122021 0.6916890159184788 0.5955566701836492
0122022 0.9517180133619323 0.26123178142519254
0122100 0.5731780323174882 0.5911705738919057
0122101 0.057283826104076896 0.0030835431506179845
0122102 0.935340180160967 0.6451276766603542
0122110 0.32534722137639827 0.6254023166601879
0122111 0.3139028305725149 0.2959981662685923
0122112 0.21551897989098 0.3847297292368157
0122120 0.921014236514453 0.9028191538846092
0122121 0.5786839532279698 0.0035195588833742963
0122122 0.9596045371043186 0.6853931349555347
0122200 0.7817861161804223 0.6870732284316492
0122201 0.7935527668974948 0.3680904627897401
0122202 0.9590248343350961 0.20918997049977017
0122210 0.6448493049521926 0.6712440555556553
0122211 0.567034297624848 0.3405995711837889
0122212 0.9889982803695709 0.09911530021473336
0122220 0.5683733682224221 0.7144458291345928
0122221 0.9844835075730182 0.6797782131589706
0122222 0.5848493801108103 0.03722307451870832
1000000 0.7707969567415097 0.8325222680732038
1000001 0.6628890367607395 0.9050651725192757
1000002 0.6701732964035665 0.0780131900919594
1000010 0.4494104179231615 0.43495954770851475
1000011 0.8400477963115704 0.0974750770382844
1000012 0.16028981388025676 0.8014874222317185
1000020 0.5119288668198648 0.7483253773673425
1000021 0.02111877994192457 0.2950525349579124
1000022 0.8212329766033541 0.35430363525913344
1000100 0.13936836110415518 0.7430256711176613
1000101 0.5525246785674482 0.745246392294283
1000102 0.08512672108095853 0.2620344565419931
1000110 0.5575022561168008 0.7979622179597363
1000111 0.6173770604495659 0.13969581507989803
1000112 0.8971416469663455 0.5254386412942972
1000120 0.34432003786534093 0.439174154820535
1000121 0.3562181365753261 0.6980085105572919
1000122 0.47731583338799033 0.4816346906065764
1000200 0.8410255309844125 0.16269396293859129
1000201 0.35539645735488756 0.9398701910339203
1000202 0.7876184067719567 0.6974732470957196
1000210 0.9809256660923779 0.35743264865387725
1000211 0.3998826199665585 0.017746185419152294
1000212 0.2631955538614932 0.684384073075819
1000220 0.895860700485088 0.5143257531090509
1000221 0.38178251212397774 0.9583630616814611
1000222 0.2968719433631505 0.7439655652418415
1001000 0.895699037873861 0.54420168587984
1001001 0.24453198823594635 0.9150009567665676
1001002 0.17725166434664819 0.5534636187649676
1001010 0.877789726743848 0.5791266430060947
1001011 0.12059716598605197 0.34592226827359707
1001012 0.5261887794931474 0.6115250899895358
1001020 0.010415756353820083 0.6377189782577095
1001021 0.05040675511663095 0.30511683756256147
1001022 0.15819894091347297 0.8611946645029527
1001100 0.27723888254762596 0.05276134717800762
1001101 0.3829337913287967 0.5932372443605691
1001102 0.8445979751541052 0.6365075022516198
1001110 0.8530668808971448 0.544317569335138
1001111 0.3727672247389061 0.19323067114203518
1001112 0.1043962770367115 0.7290302509308104
1001120 0.5648807482748296 0.14659743996032526
1001121 0.1377317504618486 0.7621967245511756
1001122 0.0714840919063946 0.9253651699780224
1001200 0.11916960506251117 0.8490135570816879
1001201 0.6071666404686463 0.24025989209202459
1001202 0.8894017564636335 0.1701919704206416
1001210 0.4177669389744232 0.46130552511185685
1001211 0.151076122167091 0.4431226755340971
1001212 0.6472757915159187 0.9963062471029844
1001220 0.8943534320081248 0.2828904777675728
1001221 0.5485297906690999 0.5896362211509395
1001222 0.3262274994936851 0.24576355072837486
1002000 0.6301399036437486 0.5019889547913634
1002001 0.261658439951854 0.6943888664781168
1002002 0.929573797239605 0.8178568666971487
1002010 0.7533646493701078 0.15873299165612154
1002011 0.7223400046234839 0.1719948494730571
1002012 0.9470125361391794 0.7792813402968013
1002020 0.080979069297766 0.24955324309850624
1002021 0.4077720518631053 0.6355830234857867
1002022 0.01006067258402521 0.415423035856867
1002100 0.2619972108887376 0.06744694777801719
1002101 0.31651358947881447 0.3279967597616211
1002102 0.46807174720281697 0.1945740838622343
1002110 0.6281525474597116 0.8318351857136947
1002111 0.11732829058993066 0.9139414838075122
1002112 0.8543966997743073 0.5059509604502967
1002120 0.6597004147958317 0.6017260295651552
1002121 0.4958469713698336 0.05215363951416507
1002122 0.6329384593305888 0.047006910705501004
1002200 0.33182145619503156 0.45325167276609646
1002201 0.01951111015846918 0.25980752792455875
1002202 0.5704528625308751 0.38607018691980843
1002210 0.9839968086411036 0.05231224124817746
1002211 0.20756019016926974 0.49827544757285913
1002212 0.07117319955506929 0.9295653175653494
1002220 0.017067035274187847 0.3579697195925603
1002221 0.12901947985281037 0.07768434432410476
1002222 0.14284928810505493 0.005582631118024595
1010000 0.30101947888017244 0.5091235005033071
1010001 0.31494497186397186 0.9344697826150619
1010002 0.057940379546645104 0.9851309685326674
1010010 0.21076859177666607 0.9118768580489723
1010011 0.10477517034551553 0.9057586641816636
1010012 0.33265643564062597 0.6171053804364041
1010020 0.5738416468984306 0.4137068250365533
1010021 0.8888783559323481 0.3925138433239308
1010022 0.020760162272350557 0.9828091456705937
1010100 0.9500228227907259 0.41191726364066183
1010101 0.1844045716373387 0.26583731872742355
1010102 0.8437732119017053 0.35538433384992396
1010110 0.7999057304550057 0.3433146023677961
1010111 0.31942413712181184 0.03779168900937235
1010112 0.9594251796751659 0.6338903521928345
1010120 0.48866005873615836 0.9462800520369431
1010121 0.40769296035833624 0.14762294236636597
1010122 0.14352612616480442 0.08215569518643384
1010200 0.7401477654062276 0.3795764269688048
1010201 0.4113478417452421 0.30670084227813055
1010202 0.2762949145106417 0.8334164922461306
1010210 0.5349349349325725 0.8730513847267046
1010211 0.012768093100198774 0.2601445215995217
1010212 0.7050199882063695 0.1393845244272952
1010220 0.593563620604146 0.4743238343532582
1010221 0.9748672527050011 0.11732375539800954
1010222 0.10105710913287402 0.6314944427797985
1011000 0.009475974531373277 0.7511177629129163
1011001 0.8393416686435284 0.6006215386511228
1011002 0.3119301081563435 0.3852169342388937
1011010 0.8202379608584842 0.31773314987203816
1011011 0.5855825275393883 0.8977174613178452
1011012 0.622363927841679 0.29065396264812626
1011020 0.19011585371216955 0.9160068894614525
1011021 0.2540392032429425 0.8925685879246669
1011022 0.6500620105028247 0.01097729501827538
1011100 0.8191215837005292 0.3014388717873959
1011101 0.20307833700042222 0.6264512394563785
1011102 0.7544847153581491 0.8937374787498963
1011110 0.668347038292443 0.5447335773220398
1011111 0.8541895025593573 0.9378334923322412
1011112 0.2432571870989737 0.6983981221436962
1011120 0.3571672458834705 0.06493073605841182
1011121 0.5645518402588254 0.9818212726951758
1011122 0.8277221257215468 0.4352652387143934
1011200 0.22912823554722817 0.9316162901805447
1011201 0.3678816840746345 0.7485426289523223
1011202 0.5812906373974028 0.10287865102443905
1011210 0.4575769405365415 0.7569180294651581
1011211 0.5475501243631062 0.4667514063554866
1011212 0.7530961621562435 0.9657997213075166
1011220 0.09002265459954994 0.5624813287486455
1011221 0.7889051855691437 0.8417637980939343
1011222 0.7181016996962583 0.24009249287781886
1012000 0.3700719089561523 0.6582192739340653
1012001 0.06488592727633447 0.7147792164027796
1012002 0.7838078990291616 0.26916369215781255
1012010 0.7296165692459642 0.023836163531076315
1012011 0.2536131224338922 0.7034540027620256
1012012 0.14536549542212762 0.42887163808974016
1012020 0.6462727106490268 0.05137868078339014
1012021 0.646554564474488 0.35336041207683044
1012022 0.5582361306703446 0.4897398948710662
1012100 0.07129373484941015 0.03364544159817717
1012101 0.8504966475778389 0.6496873160390715
1012102 0.4629410897108338 0.36218879364045975
1012110 0.5489803693347272 0.3953684330442939
1012111 0.02749025422762552 0.7220270453930988
1012112 0.32074252784170243 0.5854967846009391
1012120 0.6284534327388607 0.34328256509317123
1012121 0.4296952351229454 0.7923125733538356
1012122 0.22351227645941352 0.7524169313352848
1012200 0.8664760317376905 0.8877794608884314
1012201 0.09166204990898352 0.4743830594750067
1012202 0.17649282114767328 0.8395897292922317
1012210 0.7121323748155244 0.3569624492515342
1012211 0.2132470223952041 0.9968555878368276
1012212 0.4223701497953076 0.1661330899387966
1012220 0.3105539229847206 0.454008589335412
1012221 0.8798607952617391 0.19575880358577458
1012222 0.2173760178642864 0.1993215563825711
1020000 0.5130751098115695 0.5131535160875961
1020001 0.7365192499218359 0.9225767787495922
1020002 0.6107575373995799 0.15155527645156608
1020010 0.28490034867087743 0.5148939269349964
1020011 0.13211811903573023 0.8187078608042487
1020012 0.9293584600730782 0.0017729628887195314
1020020 0.1946432912000311 0.22564543251862468
1020021 0.5074200452403945 0.5593490903804988
1020022 0.09981780152588116 0.5632005745530352
1020100 0.44541662734353393 0.7700891691145271
1020101 0.17467217979895044 0.11056516313387243
1020102 0.300833651520386 0.8796019263493305
1020110 0.8364710788893384 0.3975726837723914
1020111 0.3174146313560654 0.2761396947816207
1020112 0.6579083227493722 0.5835889176595049
1020120 0.8077272784607712 0.4366983521686484
1020121 0.27593385523464176 0.4262659685264587
1020122 0.7006583860643081 0.7585237089964139
1020200 0.42335440481929765 0.9103919380701322
1020201 0.7634113047376542 0.9180938694235421
1020202 0.050557767768086626 0.6009307969204677
1020210 0.8439516396188456 0.8652879408796706
1020211 0.3059866593692221 0.5567811728828173
1020212 0.07550782148732693 0.5460236324856611
1020220 0.11320599629734851 0.060431162507955216
1020221 0.9161241024435431 0.8590128455497911
1020222 0.7194260684262337 0.033553124770214104
1021000 0.21091849168515264 0.446180066094956
1021001 0.9693970610916323 0.4735688066350674
1021002 0.17039673113089826 0.2621602599999753
1021010 0.14235302056730836 0.48107893730601436
1021011 0.10958188911784938 0.9087758196681698
1021012 0.2868170563916166 0.3960124276312392
1021020 0.48245675264097376 0.5006762074864766
1021021 0.28121435722681865 0.38873341544338735
1021022 0.04884752724921737 0.01035820387037556
1021100 0.27874435080886983 0.978263699947572
1021101 0.6835491218455604 0.131684689420683
1021102 0.1444671177907748 0.9064350968868778
1021110 0.8149152905822119 0.12276769236790375
1021111 0.5713231574180447 0.7564525318980246
1021112 0.8518739748446725 0.49685773004280365
1021120 0.8467012019862855 0.0268289433043285
1021121 0.13654477817956434 0.40204213598528826
1021122 0.35374111406974107 0.9666694508847744
1021200 0.40515113584940143 0.6384897933630977
1021201 0.9321315304046609 0.5996655196643454
1021202 0.1038994087868772 0.47766313980111896
1021210 0.7651675465473557 0.5989075840096982
1021211 0.9666917403685972 0.5876725381067823
1021212 0.6846926773028735 0.001788775525860764
1021220 0.7614144109674102 0.9834694105000188
1021221 0.015502011866290966 0.7624321338755025
1021222 0.2755778087416949 0.6551140512541438
1022000 0.9619962414577601 0.7860925566596021
1022001 0.2765533425682176 0.9272160905479357
1022002 0.4442208798093308 0.35622668115030465
1022010 0.6663366790207835 0.0597079152430352
1022011 0.9813410097440137 0.07929623442816458
1022012 0.570887703902693 0.45243542943622717
1022020 0.38963262219814987 0.027011615577445802
1022021 0.5545972567065948 0.3827453343120544
1022022 0.9047665217255999 0.8986165075156174
1022100 0.6663980004431972 0.4562154020062149
1022101 0.2962642009616774 0.9311531473182627
1022102 0.40106203477735036 0.4399935694522762
1022110 0.9791509720292045 0.9238782798249329
1022111 0.4959102234589837 0.22737928825574827
1022112 0.9307151890609672 0.363848330423581
1022120 0.06758819921010062 0.8872843091878616
1022121 0.5097125227986118 0.7519525133923963
1022122 0.23864379560798843 0.20717150655715943
1022200 0.4269254686231262 0.4761580467913322
1022201 0.5504730328113102 0.7898234779565335
1022202 0.5954882330228451 0.31430539469743823
1022210 0.4351885049859058 0.06515094541845268
1022211 0.41807201610599043 0.43411603700060475
1022212 0.5336390820714789 0.8693039241719784
1022220 0.04758418020466337 0.8796997494530499
1022221 0.2583160840514759 0.5155214531493574
1022222 0.2729638403651631 0.40469538690252926
1100000 0.7513779573797412 0.969980775888658
1100001 0.10650403426898469 0.6168576948418684
1100002 0.10250102404064376 0.5047211111595467
1100010 0.8744303296155844 0.2044322339220136
1100011 0.44736417649592897 0.5540022377097944
1100012 0.545373510493306 0.9629402932756025
1100020 0.5701138506394413 0.9149911846444463
1100021 0.6563471480868008 0.27130548763097107
1100022 0.9119008117854851 0.7851289833243988
1100100 0.7954061693425237 0.3346798700970548
1100101 0.5240678064350958 0.7309083125701216
1100102 0.31777651557161535 0.4775616686998365
1100110 0.13526810455912275 0.03861490412922153
1100111 0.2352027641291432 0.3330495174194963
1100112 0.4905985597198166 0.10629434180972941
1100120 0.26581762083920857 0.9724328599227186
1100121 0.15709063947937596 0.49718465575428406
1100122 0.321374131117786 0.4132126848100405
1100200 0.3551813914363522 0.3310072351990645
1100201 0.682491209358062 0.7296697463212521
1100202 0.32385269889019774 0.5309870304043464
1100210 0.12557655153697633 0.850160009291006
1100211 0.4623575918705052 0.23007426218996474
1100212 0.8035573674780584 0.5717244832002397
1100220 0.9210369585692746 0.5840047882460364
1100221 0.7352949062648017 0.8779912643305107
1100222 0.010899826687162606 0.7399116730596612
1101000 0.0929270819720559 0.3084744497302201
1101001 0.2774766376734604 0.6179142407247813
1101002 0.5810998234060151 0.9363318883048074
1101010 0.5645679282447357 0.8718713322494855
1101011 0.6100214264022372 0.5882705604242372
1101012 0.10156094944601968 0.7360957667816993
1101020 0.39153010302379343 0.2860922811807256
1101021 0.9095679844103159 0.8480519902209425
1101022 0.4453475258123982 0.31771618073659214
1101100 0.33011555500065937 0.008550335397912168
1101101 0.748520695611386 0.2593696123884879
1101102 0.9958779393570271 0.4166173289003535
1101110 0.05751054898840946 0.68748401457933
1101111 0.7995543328148852 0.13101064148725294
1101112 0.33449901624941625 0.12784502579831125
1101120 0.17489747195694927 0.837275417975272
1101121 0.4589416406202007 0.5621497618191336
1101122 0.1128521856958058 0.5819391056782863
1101200 0.93764825184032 0.6797864486246087
1101201 0.6436451712009824 0.06232453277279015
1101202 0.2528583281876521 0.3343677765125175
1101210 0.6501705927734238 0.47136303379815525
1101211 0.6638983451587304 0.9576374009636897
1101212 0.47503882673349285 0.8977582219090728
1101220 0.5425738498826072 0.47165026547767086
1101221 0.6154441043951226 0.016056619821066986
1101222 0.5032053267955731 0.5563439186867043
1102000 0.19257595306903075 0.11356427165201677
1102001 0.3028699810712765 0.015238662650625123
1102002 0.7799532795836206 0.9407089936514089
1102010 0.28927475402022185 0.7863030006478208
1102011 0.28714173260412934 0.6534711507968688
1102012 0.949522695689358 0.7109132115792696
1102020 0.24851748308323063 0.23701665204025124
1102021 0.7318367542001302 0.055834786348612164
1102022 0.7697070543641467 0.5791965307725054
1102100 0.4989170335267711 0.835382730241242
1102101 0.9972946320712784 0.8174370940413517
1102102 0.439547684659528 0.9082842986696419
1102110 0.999255369399639 0.5739137989131261
1102111 0.48948113278264205 0.6197490423357876
1102112 0.7885433013815897 0.33862986726413935
1102120 0.09772957079466826 0.6246882422505363
1102121 0.05858024538375639 0.04288667495005294
1102122 0.4592802244589056 0.5899269243666395
1102200 0.9054331558030694 0.3195550364880114
1102201 0.7351200304188585 0.9491671129030702
1102202 0.8695702869057427 0.8197603785560997
1102210 0.9857093038425004 0.6182284209911209
1102211 0.8864626213629365 0.5566734856885966
1102212 0.5973362369004327 0.20181433331723375
1102220 0.7196681012746812 0.3290870941999563
1102221 0.04099077290341735 0.4261323018765635
1102222 0.7631559810387171 0.8360112518866897
1110000 0.5908410899016081 0.17540180163339503
1110001 0.510947069094461 0.24197604749767176
1110002 0.2916755241658989 0.2981437503955876
1110010 0.151469779921393 0.4064063168403196
1110011 0.4052484766397467 0.13031399514996933
1110012 0.7125604147507619 0.12611875012648543
1110020 0.06218322635495921 0.5930066606948421
1110021 0.3416936614849403 0.5760550340782292
1110022 0.4602142465546456 0.587759939848438
1110100 0.7408943615883326 0.04165131981365122
1110101 0.1974122780070079 0.23235589364172426
1110102 0.8862469015605747 0.39697572227400757
1110110 0.5561203441450532 0.3531300318131152
1110111 0.09890490441014943 0.24612849914385393
1110112 0.4864688139075136 0.4839186128191062
1110120 0.2917810302087025 0.9907485137516038
1110121 0.7381703251488628 0.5038212736968638
1110122 0.3100032591865599 0.5102741699122976
1110200 0.28764877134314537 0.9257668302294882
1110201 0.19455457823473676 0.4238872886495404
1110202 0.6551878605180982 0.6723594356597232
1110210 0.5701857245084622 0.27626030731213735
1110211 0.22368807771631938 0.7940144320880075
1110212 0.8355072783559706 0.07644967818122206
1110220 0.2263040627549915 0.606771820276774
1110221 0.9896166272906509 0.4167740055024548
1110222 0.9286105360345631 0.989831426394827
1111000 0.8935674780692612 0.6350524716252511
1111001 0.18352528768392629 0.9227408654224354
1111002 0.5217262782042207 0.2486632266870792
1111010 0.39749496146401253 0.8687346978148999
1111011 0.2030233931926254 0.7928954861188884
1111012 0.9595200636765917 0.8949196189897451
1111020 0.036020747340271275 0.24721703662485295
1111021 0.7264411794040966 0.12411080731013335
1111022 0.45909048905963623 0.13863960864699187
1111100 0.6988492490937308 0.6813335868782421
1111101 0.0513403254630993 0.07262552941673461
1111102 0.04173836124966257 0.3095107028258711
1111110 0.16143859997113608 0.0023029447467282083
1111111 0.11101657957202793 0.022096296671695437
1111112 0.9746915524496089 0.6759033276693283
1111120 0.9182649351785975 0.7541253019447237
1111121 0.045432057917219604 0.06507733386384429
1111122 0.8353516377218559 0.07182092377761629
1111200 0.3761760427128342 0.8116533574254827
1111201 0.7025864869677895 0.9859076049147195
1111202 0.6155788801608381 0.7111798841853307
1111210 0.4570048809891938 0.20101893740943388
1111211 0.8681058409832656 0.28887340967509334
1111212 0.6858443829175244 0.9904029239259194
1111220 0.2602181331951904 0.44586316663713155
1111221 0.8229994450090529 0.4322151743543984
1111222 0.9259098802692407 0.17827975661277384
1112000 0.4447087463201045 0.7837969156605151
1112001 0.2390857924138372 0.7836579827151606
1112002 0.06580621033377476 0.014285992908696366
1112010 0.03800585814305468 0.31125298340923135
1112011 0.1251987706622424 0.4504552781301757
1112012 0.1912731097272854 0.09180179884603701
1112020 0.17884344768713822 0.38351597656312597
1112021 0.9652068484667653 0.9562635478368704
1112022 0.6991488883516385 0.7940641342189392
1112100 0.6358978737776007 0.334501164167475
1112101 0.48727794733863605 0.30249403036941347
1112102 0.6546044010737032 0.8712810356593694
1112110 0.27562965469017 0.5957979169155587
1112111 0.9019842152087874 0.13811067112008624
1112112 0.9038023028213455 0.9601886300601452
1112120 0.5122012667286409 0.09693104541618658
1112121 0.8212799014899117 0.020530387371113012
1112122 0.3460365036169569 0.6109522379675242
1112200 0.6293656481153356 0.4607101502597041
1112201 0.8488524624722408 0.17865017343922984
1112202 0.8876071221355432 0.17697645844105292
1112210 0.4473477389053354 0.5031581911387168
1112211 0.7441215018005376 0.8096532374772631
1112212 0.020508260884025353 0.9063534532902613
1112220 0.9232290809828549 0.5213229833002758
1112221 0.26858720293908955 0.5722434362015267
1112222 0.45288450035850447 0.6095459433909093
1120000 0.8447430279483119 0.03316853536435349
1120001 0.49066128748187476 0.24072777845020932
1120002 0.17263276430883623 0.6364120002791056
1120010 0.6371032899955458 0.19290445838529435
1120011 0.8012165922714024 0.15404004788646175
1120012 0.5988244286689121 0.5504470709363838
1120020 0.6574535249848109 0.7352225459188069
1120021 0.914061921476293 0.5340921260896832
1120022 0.11525753093882773 0.7504315877196037
1120100 0.5611293239047438 0.6602105081140213
1120101 0.41983353452230776 0.052659124324088924
1120102 0.9154666693673397 0.9726031678833936
1120110 0.12342223140641284 0.8463649033722223
1120111 0.8905789921294126 0.1285327893499808
1120112 0.9534614533928315 0.6422766816199044
1120120 0.49428736541596385 0.19919389931337816
1120121 0.358259688192603 0.23902640559635524
1120122 0.015206037334340672 0.25727171750550093
1120200 0.7681155163108498 0.3246665726803273
1120201 0.7425344746180139 0.8844104060682082
1120202 0.8787351517260814 0.0767379201701972
1120210 0.08892422197459271 0.986751911829983
1120211 0.31075690002305356 0.12749290579325978
1120212 0.9049556616722332 0.7028240639081611
1120220 0.11218061841183447 0.3488671236023987
1120221 0.9272239462778397 0.16981848031422087
1120222 0.7755723205172618 0.47875571921145355
1121000 0.15523488295878285 0.5680456014853769
1121001 0.9541435934240633 0.9049342561069061
1121002 0.1802980383611572 0.03995983568544026
1121010 0.06431736004004263 0.3676279317330743
1121011 0.1560192114791361 0.8958325033648302
1121012 0.27294288855529747 0.653592062318038
1121020 0.7397009888267362 0.9109146639416373
1121021 0.5834091060462993 0.20485273008149496
1121022 0.22298719786305898 0.4387601453719139
1121100 0.06486392384017325 0.34487275313260846
1121101 0.2712255926445394 0.7588987909439684
1121102 0.9805923394559704 0.6065209789729149
1121110 0.6830748851966358 0.1356660458322123
1121111 0.18318638104720664 0.10781352736994809
1121112 0.43496179129604795 0.9985481113325245
1121120 0.8869069124220983 0.5424146850684195
1121121 0.1841967923322928 0.45754726231191756
1121122 0.25789690659604414 0.1340829572329112
1121200 0.3555588447956848 0.49997607545626876
1121201 0.553470716579954 0.3233338181070211
1121202 0.8440134435833995 0.9559001486282227
1121210 0.9961163690319299 0.028788404037100146
1121211 0.3468085479415455 0.11473303026774584
1121212 0.5712579011826358 0.45292763430212124
1121220 0.2555847230759136 0.4473661441163973
1121221 0.14952470400215512 0.8573410745832842
1121222 0.7430640237895009 0.5243431519082941
1122000 0.2725500331007643 0.8010195942455597
1122001 0.17309686198559182 0.0974791462050244
1122002 0.8581167518757677 0.1256648355633957
1122010 0.07767570417583647 0.4230816513576976
1122011 0.9310488798813072 0.36541380305816706
1122012 0.9441502395289908 0.3714670626453024
1122020 0.7972858767552136 0.8670380996829326
1122021 0.28528220617194433 0.4351888682090237
1122022 0.41673963707663675 0.9437350016501548
1122100 0.4006597650791992 0.269691747821012
1122101 0.2413663162959322 0.5611284963651109
1122102 0.1659081526063123 0.6790175535165712
1122110 0.9842281021222888 0.3772826699972358
1122111 0.22690834069361843 0.25270500128014406
1122112 0.6229153111805054 0.48728677249223773
1122120 0.9027583734019117 0.5034751852149059
1122121 0.05808921152614477 0.08915223390066107
1122122 0.6478031609577859 0.9212523644258525
1122200 0.8672494147962101 0.05835085789218153
1122201 0.4842436654436476 0.17571774143485352
1122202 0.16088826338954554 0.7902510737868343
1122210 0.8452744969045992 0.6872005165209233
1122211 0.4551889561138244 0.2573165972605588
1122212 0.8567010066639396 0.590611593476549
1122220 0.8703187940406083 0.20270929894243273
1122221 0.04222395437265514 0.8061333185862682
1122222 0.6133702925207591 0.7103441725315125
