0000000 -15.000000144743959 -9.69554883371961
0000001 0.7890694846927325 0.7291883049504743
0000002 0.9901137453672919 0.5139666900259379
0000010 0.8200256646146722 0.767059522508789
0000011 0.5357111669878931 0.9267050349510029
0000012 0.5950168038895912 0.22011440489104783
0000020 0.7285004157623516 0.4801785916924407
0000021 0.6601358005682918 0.44121271283019425
0000022 0.5215289220964996 0.017816296429704392
0000100 0.7304073033914841 0.9697339370434769
0000101 0.7319844655046673 0.10347063221460795
0000102 0.25627683030996073 0.7294893162413681
0000110 0.42541934263215464 0.32680466063268443
0000111 0.41724235337858473 0.6755371768868028
0000112 0.7934096374133887 0.3226503838049547
0000120 0.8182799954823351 0.33317322154197626
0000121 0.5677858619746374 0.3768370203215482
0000122 0.04615895410437976 0.5197232065627823
0000200 0.69519805278011 0.7635053207396378
0000201 0.9258917787999202 0.7500304444816224
0000202 0.2786313037488658 0.8261023750084484
0000210 0.8895448839304683 0.3812926834904369
0000211 0.45054581890626866 0.9386855914315928
0000212 0.12360880251557549 0.8678958061466797
0000220 0.9464020249193608 0.14616234964356545
0000221 0.7027315755393352 0.2610782905191005
0000222 0.676451628085631 0.6727547349833294
0001000 0.31026185511947324 0.33073097967109366
0001001 0.3972309042191505 0.3437565975361946
0001002 0.8426821750024933 0.7735431763322093
0001010 0.2967448198855994 0.0796903865261056
0001011 0.028771201118580114 0.3794676405388222
0001012 0.8815131406539312 0.4883760244423009
0001020 0.6138864552555591 0.22314239460802832
0001021 0.25266802500446073 0.7918976383888241
0001022 0.06866506861387678 0.709307043418127
0001100 0.2738379554573527 0.19058875159098987
0001101 0.41419137981223364 0.007333619764197663
0001102 0.9646717949443352 0.4109079873274063
0001110 0.6405063572203643 0.03713083937884165
0001111 0.23100257202472674 0.09519519900684581
0001112 0.3781365539135392 0.8198711017121182
0001120 0.5027114832859273 0.3807362991748876
0001121 0.018503399798718623 0.6055858591431089
0001122 0.8032553966404424 0.9832921928032987
0001200 0.7492791059291488 0.6347068801770419
0001201 0.2758959268299285 0.9607634744028173
0001202 0.29255376847362347 0.0021776198227824173
0001210 0.6458421131548722 0.7384305965928216
0001211 0.7326426576723467 0.4504844582939138
0001212 0.951958000781589 0.8556207716888063
0001220 0.3120965513677608 0.33490918979118733
0001221 0.9786001403004221 0.2602876962401216
0001222 0.30799390783253844 0.344008666935369
0002000 0.2620879068357135 0.49539720110389507
0002001 0.2609209296765055 0.48272722198932605
0002002 0.5325975472517287 0.5681746609945737
0002010 0.17042964782960757 0.9966564911355222
0002011 0.42905592516583857 0.781287221121021
0002012 0.614953215639614 0.3192939320932747
0002020 0.5602474319384341 0.40494296659340645
0002021 0.5786306526841306 0.28824822287313834
0002022 0.1531193446391793 0.37144770358818513
0002100 0.3526314218283323 0.08143629245331196
0002101 0.7473644784252794 0.764945750734616
0002102 0.18211562911022683 0.48891811805914553
0002110 0.9076114240521325 0.8017194177400403
0002111 0.433109687801679 0.11695845123270776
0002112 0.051134443613746194 0.2040793546657329
0002120 0.0911155448893205 0.7097080962558758
0002121 0.905809141009931 0.7106526775468245
0002122 0.8805437358321857 0.4170351165907379
0002200 0.8434781624901877 0.5211106483335418
0002201 0.20508102482260238 0.8900290716009716
0002202 0.5174080547843846 0.8961429545047016
0002210 0.834691485374277 0.9624849815468286
0002211 0.0113566597637067 0.3650122808177021
0002212 0.13877155971559518 0.9330021652158443
0002220 0.7376768562225711 0.4180047371206148
0002221 0.2777539728532279 0.1449038030134262
0002222 0.8445567752658036 0.8205322848238769
0010000 0.3525075581137469 0.8287156720844107
0010001 0.31639827557182565 0.0519939327724791
0010002 0.7472990575457004 0.3263630362845539
0010010 0.13458514348067652 0.022629049152707803
0010011 0.26958312300645115 0.3169548574884883
0010012 0.11440485600319594 0.2955874134705514
0010020 0.21579635475515246 0.584428716001178
0010021 0.7640330093164375 0.18021952036408184
0010022 0.7549400057308523 0.043171040594669696
0010100 0.7997233600203971 0.18052538446066901
0010101 0.20120176028189318 0.1815339477890896
0010102 0.41219854928906363 0.6169331503139334
0010110 0.6311481133575334 0.44479571772848314
0010111 0.3320138770511797 0.9795440417654708
0010112 0.9992164204131132 0.013902740626804855
0010120 0.6429998355475458 0.5575980204382509
0010121 0.1408261658755745 0.6462744737523176
0010122 0.13828422885099212 0.36696918929901734
0010200 0.16553999510855266 0.7436426984992863
0010201 0.615376901066925 0.37059596227786074
0010202 0.5067252993093873 0.9569955987480272
0010210 0.8620303140284167 0.896715967075094
0010211 0.709605451238973 0.8566531382211419
0010212 0.4499589608310053 0.5739810959879463
0010220 0.9762963482807065 0.26258292801186445
0010221 0.19459749194367681 0.6201489966825601
0010222 0.29976351514122 0.984912037361355
0011000 0.5338266109457013 0.4871603781290327
0011001 0.2615618618900766 0.09956858127622759
0011002 0.5267817477992733 0.7045657781805262
0011010 0.2681955818806038 0.8098538984724092
0011011 0.2932478491823691 0.05681351724928829
0011012 0.1808091071241511 0.9964128948865276
0011020 0.41822631262272747 0.8350434748913532
0011021 0.9476722502100775 0.6804924918963402
0011022 0.8974831276881716 0.004358192326917032
0011100 0.9226990556849156 0.06439067253762032
0011101 0.03893311050246662 0.8504898801309717
0011102 0.28858312373886097 0.20937661487130121
0011110 0.6934970413435002 0.4306453294082797
0011111 0.48772306113320607 0.07103755636918097
0011112 0.44172925944192143 0.3129063647331256
0011120 0.185905306630895 0.4369463201607877
0011121 0.5142184040759069 0.7591460001258165
0011122 0.057721211606817424 0.7222479878829997
0011200 0.6065633013062848 0.907253352429024
0011201 0.31964822420443395 0.2770798653472999
0011202 0.9842487835024024 0.8368365746435973
0011210 0.5423339282325239 0.6515137085564686
0011211 0.3505152998492007 0.5437717664544948
0011212 0.5114673556721218 0.490634419850953
0011220 0.6814786526535813 0.8167574045543154
0011221 0.14242018564064363 0.35581263907892735
0011222 0.6314777118936162 0.6242854300841469
0012000 0.5028045578733139 0.2530350642507776
0012001 0.8829813409301527 0.7860159485589476
0012002 0.8793470037141853 0.9106614468004384
0012010 0.5875945544679869 0.9130355283492835
0012011 0.62518699485902 0.7219772721019668
0012012 0.46224645696370825 0.7467590146163782
0012020 0.23757735503670907 0.3556479424121136
0012021 0.2831704414204169 0.8559536884248363
0012022 0.7872369356286367 0.7189797390551059
0012100 0.27301617271569645 0.8665609797985081
0012101 0.8731690132633346 0.40302220609373596
0012102 0.48900560944939764 0.9249894683838397
0012110 0.05791959022373239 0.3173642987271482
0012111 0.529001410050779 0.7159271340896175
0012112 0.16707103045750815 0.4334930985375923
0012120 0.6938868441674201 0.3599168056732541
0012121 0.6442780255760099 0.6466142222370785
0012122 0.13432826089844185 0.3825421190860374
0012200 0.07322040856839529 0.7119508635265327
0012201 0.5405395803145178 0.6617420345895548
0012202 0.4122094189327875 0.41641482825131015
0012210 0.8195562214267892 0.45867941248357447
0012211 0.2527778712499016 0.46644423009476665
0012212 0.5586884211883119 0.512905326836416
0012220 0.7740255711020279 0.6485796358790827
0012221 0.6537667784747886 0.0602406315742503
0012222 0.6834548963959339 0.5445852413423558
0020000 0.8654870382940167 0.432091612970968
0020001 0.780264239533224 0.9846104800474477
0020002 0.08339747707211265 0.7762702338986339
0020010 0.7027155454483025 0.8077794937194891
0020011 0.6247240532728063 0.0027050286218932573
0020012 0.6119206073416543 0.07116510971039014
0020020 0.9109473595053779 0.7998208329450074
0020021 0.2563871776569243 0.5717069665912617
0020022 0.6961871653256627 0.5856166201588601
0020100 0.006026578704807828 0.44069120139913964
0020101 0.46670081399009944 0.2273009606854135
0020102 0.3045091690793569 0.24145207551609038
0020110 0.8048981783968218 0.7515016245733488
0020111 0.35077609536489407 0.604888024441768
0020112 0.6505568550896359 0.49326039075109984
0020120 0.7314181400532409 0.8920518027184458
0020121 0.7427762587764859 0.0963355983830414
0020122 0.4390129040222587 0.07006395526828824
0020200 0.6076879759149004 0.48392982237252924
0020201 0.32243832013560747 0.8236240054580978
0020202 0.6195821519262207 0.21806777643546327
0020210 0.8853852053057839 0.23917483708961473
0020211 0.16037956720637547 0.7314113862780448
0020212 0.38799577346994774 0.6807803155720006
0020220 0.7854779081727036 0.9754832900783773
0020221 0.34200559524456065 0.28980620327079265
0020222 0.5289581202747222 0.050812283646262335
0021000 0.1610038547989786 0.4241775361387128
0021001 0.5600182506294666 0.9887149292722498
0021002 0.7488143089506524 0.8021093516255927
0021010 0.7109958379152387 0.23920939775177597
0021011 0.42492429469011583 0.4389372700088322
0021012 0.22335331709320616 0.7137101145351856
0021020 0.31950685929702816 0.8887670019477314
0021021 0.06135616739684768 0.3499537650105541
0021022 0.5212826647594787 0.6469825460926255
0021100 0.6431417574011402 0.8289975555859995
0021101 0.0718852740439978 0.06882530766829997
0021102 0.5988318964974962 0.2157311291473457
0021110 0.6379413661433003 0.9624699858264152
0021111 0.7485035518670139 0.06406636126886078
0021112 0.2854107214563695 0.688014297839851
0021120 0.9148427356019332 0.1385942292784631
0021121 0.709984747618492 0.04955693248663673
0021122 0.32797887291354066 0.9196941225703048
0021200 0.6141135831836939 0.22677219658521353
0021201 0.7516776435105086 0.19876829081095304
0021202 0.45215127529745003 0.7656089400280887
0021210 0.6300594286785047 0.7425232100864654
0021211 0.8034738885466842 0.7159964490828804
0021212 0.5226869915495979 0.38520331185229617
0021220 0.3882860000434877 0.08308135685470819
0021221 0.2596319321006323 0.2664108748543016
0021222 0.007262574648398412 0.45188165847494155
0022000 0.9698708639283853 0.9196136136536321
0022001 0.7827374811337653 0.22646382932386155
0022002 0.7281617065031256 0.28806321530929513
0022010 0.23671067769879395 0.9570000563014608
0022011 0.5607878977054718 0.45221405746681087
0022012 0.7974132207206377 0.8529342913383724
0022020 0.9889950019190912 0.1474179624644255
0022021 0.12439799270087926 0.1415740358655282
0022022 0.233558634123059 0.7593330330683211
0022100 0.463082414702635 0.08741566831431746
0022101 0.950183492043389 0.6953860524261871
0022102 0.5119471452228005 0.5113725284134932
0022110 0.7760034410589481 0.7062997656257609
0022111 0.8085365438862998 0.6243749338353289
0022112 0.2259392532838279 0.036109866800431045
0022120 0.7714007403404063 0.20582424349763218
0022121 0.6823477956002705 0.09307995525915447
0022122 0.3577171374704071 0.5638802332596118
0022200 0.23896755185852225 0.35875568138665037
0022201 0.3985520244015128 0.7950262850315649
0022202 0.048375750553171115 0.13490260999298054
0022210 0.3212118032964144 0.9694372474806652
0022211 0.8276725571820962 0.3743215031096562
0022212 0.7094633345436266 0.02021586876602044
0022220 0.4948702861876817 0.7363688540518207
0022221 0.8652513960070308 0.5824335087866109
0022222 0.6871774053341694 0.6723711567967374
0100000 0.38953024178050966 0.9328824563485345
0100001 0.3838814478107273 0.9124122536973841
0100002 0.6193928961896581 0.4837322225781484
0100010 0.7288333699283847 0.9595953224810357
0100011 0.03269100209746767 0.4705081836590861
0100012 0.9687094814737373 0.8220974841592972
0100020 0.5950465363345663 0.2187671340414893
0100021 0.37357377724834184 0.27839826314822347
0100022 0.43209740115317574 0.5234804285424787
0100100 0.6645854853492144 0.6560536337338344
0100101 0.8033545781064507 0.738878574719096
0100102 0.6960923937855724 0.6285602816427168
0100110 0.8846436091172533 0.3764770201805342
0100111 0.056706162700301155 0.557172320137192
0100112 0.059649869707081415 0.21865189081719627
0100120 0.1803446021640328 0.017437772369206628
0100121 0.19782730883552302 0.4735080040917212
0100122 0.17382681770100716 0.10768548340635453
0100200 0.24296252793388462 0.7275964990441071
0100201 0.12120351452437417 0.5313073106846112
0100202 0.5714762170993573 0.6299608980700676
0100210 0.6860823295890791 0.1097100986190288
0100211 0.5918556897302535 0.6748719434556913
0100212 0.6914438475090963 0.57428184053546
0100220 0.6031674426420098 0.5550481513921117
0100221 0.36595221620089946 0.8395636759996895
0100222 0.4703731051488973 0.6504968680865784
0101000 0.40884729269134323 0.029906102890468023
0101001 0.45557788528971166 0.5855309454967573
0101002 0.8865291118008253 0.24007124664791002
0101010 0.7029431250958884 0.07814577261536126
0101011 0.15794218762316692 0.3101856236432836
0101012 0.2002455806264125 0.8447833495850758
0101020 0.3132655725496979 0.17921439386290094
0101021 0.9277332676974287 0.8895332894441826
0101022 0.044497117650025175 0.3197426450082762
0101100 0.9608967222946523 0.15375201980701547
0101101 0.19549901141662396 0.1552975375711969
0101102 0.2803848236671792 0.8763680902857072
0101110 0.12862627574811325 0.34335627629010834
0101111 0.6202224931847595 0.5982462410069979
0101112 0.3693541849736375 0.632259568363743
0101120 0.38532325484785157 0.5411445080107932
0101121 0.14030612779728757 0.9441664069378217
0101122 0.17231428716335295 0.5168771226472737
0101200 0.5697568353414237 0.7657089420167478
0101201 0.22477656107050958 0.9754779286325425
0101202 0.03601144240360754 0.5702429000213252
0101210 0.9985098909441761 0.6358707725988555
0101211 0.666002745486199 0.46506629845353453
0101212 0.13327172645208085 0.2512465876683315
0101220 0.503924485660887 0.5615493372505566
0101221 0.6595917030196572 0.6175226350708546
0101222 0.11506595273247577 0.31702739303792027
0102000 0.6854320172224633 0.5821036867528808
0102001 0.9648719487133788 0.3787281223172809
0102002 0.3054756619210103 0.6926981343435137
0102010 0.027959737998187073 0.1197344411382073
0102011 0.8847704199944765 0.7787305172007136
0102012 0.7040114064773927 0.38936138991813984
0102020 0.6168837764877291 0.8730451837868333
0102021 0.170276653181052 0.42732300653110855
0102022 0.6556969504297646 0.9819963829708053
0102100 0.7594022971846988 0.08542124450277222
0102101 0.0034381914878383046 0.23599180701777922
0102102 0.163825172779126 0.2826437346480012
0102110 0.6724832644092446 0.2700435591617132
0102111 0.2719281409646953 0.9255131351705491
0102112 0.5691274961624468 0.14811051267117226
0102120 0.7136066420120197 0.21997503150854636
0102121 0.8911507759891641 0.5307667907810272
0102122 0.406493565390429 0.0735563856704955
0102200 0.9469865106575677 0.50102084976149
0102201 0.6434476713493817 0.1717787699409623
0102202 0.3619469795269675 0.6821461520132545
0102210 0.021625539594394727 0.35951325017966196
0102211 0.778043844291918 0.9288238898821323
0102212 0.15007442346155409 0.8807600740004118
0102220 0.9419803469392817 0.2669030116132488
0102221 0.13870089046177747 0.5497017335401688
0102222 0.8700003187492578 0.07165402225451745
0110000 0.552009638634491 0.8133418740277337
0110001 0.09485481787490824 0.6237821048218827
0110002 0.5987550528845831 0.5900187798796427
0110010 0.7794038369691938 0.5873769570119283
0110011 0.9291989306245645 0.8492602142215347
0110012 0.07179127809190233 0.42865824388200624
0110020 0.12273675453333766 0.8867212289268505
0110021 0.8131577692550022 0.7709096082518644
0110022 0.635955073488154 0.7866613524027783
0110100 0.350419447547237 0.7889401836103614
0110101 0.9952101682196612 0.31765000996114634
0110102 0.1430829524062336 0.6805927456241767
0110110 0.9419195511059694 0.5377981760014081
0110111 0.9398474042093988 0.005891556761756567
0110112 0.3029167522941335 0.583987714143645
0110120 0.654878384440241 0.7070855323491354
0110121 0.3031454560071216 0.807960316299051
0110122 0.2879375492606836 0.8970407540265195
0110200 0.08428352042240594 0.6188984554355405
0110201 0.8574283559933346 0.10521323826325901
0110202 0.9919361339463381 0.4771204834375373
0110210 0.7983197211632752 0.2485974723556862
0110211 0.07170795630522908 0.87102780403438
0110212 0.8335634785683823 0.36926133301893194
0110220 0.5140017535836446 0.6696762205479483
0110221 0.38218773532254047 0.9513208949663524
0110222 0.9790513270269511 0.4193942189334634
0111000 0.835812366750372 0.8708106196744025
0111001 0.6137047690316292 0.9663864446559286
0111002 0.23275515003856218 0.5769234732516028
0111010 0.7077423502789586 0.5529317006113992
0111011 0.09677997236593217 0.6758097384687192
0111012 0.3159627326768111 0.6809240552284538
0111020 0.9990989506508526 0.3863995808561931
0111021 0.6681997568114076 0.7091669104343189
0111022 0.2539625339051361 0.5586048809654638
0111100 0.615759248306989 0.35408694789095574
0111101 0.8479002543543576 0.691595553771563
0111102 0.5838165325648793 0.8108603178565059
0111110 0.23937893417521217 0.5684905432050783
0111111 0.03083816117132554 0.9581864576771288
0111112 0.1219299558726098 0.6040658860416979
0111120 0.7617785365966933 0.1952087264855118
0111121 0.5635401070572299 0.37452272814247967
0111122 0.2894898405913503 0.5054446178575618
0111200 0.9699375265392947 0.1590149640096098
0111201 0.03021602408829438 0.8212414453411956
0111202 0.0014394574855898234 0.8598923073585659
0111210 0.40656703409886663 0.07373602130812196
0111211 0.569885767970561 0.9382498853112846
0111212 0.07129369384931694 0.04141363324350045
0111220 0.1883718291031129 0.44700919152968266
0111221 0.4602086363061566 0.2797086314693473
0111222 0.9220877774706344 0.32486630703187847
0112000 0.9930350115504263 0.3522407414499582
0112001 0.7690061966995667 0.15543487018477942
0112002 0.6617368834033502 0.14010640090168736
0112010 0.6341649677114615 0.5104122966394621
0112011 0.9757040418697397 0.3213098024778158
0112012 0.6345492314809151 0.468198970138924
0112020 0.32487934268302987 0.45589911225436264
0112021 0.4501696149208534 0.37262435581581044
0112022 0.21080007665770872 0.6793406089421481
0112100 0.5982848962629846 0.16124998319734507
0112101 0.7496021076562825 0.927743047113744
0112102 0.8404072688214781 0.9487968146520293
0112110 0.3647255116901599 0.08601274846535378
0112111 0.6378466820657847 0.8537276252615774
0112112 0.3836923294918707 0.09271243155884257
0112120 0.6913835833750791 0.7799044428130002
0112121 0.6752234616814453 0.4608754078263373
0112122 0.16269909347732936 0.1871289736768822
0112200 0.747857329629236 0.6278721985624387
0112201 0.011038051414870131 0.7601570363521071
0112202 0.9718318220403206 0.08573667674988994
0112210 0.35410111525197874 0.8051114347833888
0112211 0.4329133773958619 0.8661813398705882
0112212 0.9685607467946281 0.8270410073655623
0112220 0.9333037071434106 0.3228229927256846
0112221 0.24863144696755013 0.9477023508147271
0112222 0.031400658172525575 0.5566784626943423
0120000 0.028733979144014654 0.6958507266503454
0120001 0.4805648849907682 0.5669491201977036
0120002 0.4652896746424111 0.41704801697198435
0120010 0.7167282111076781 0.629235465149627
0120011 0.5726432180715196 0.23215572120992134
0120012 0.5378633477731987 0.9393326204906658
0120020 0.910841400250144 0.7337075114202638
0120021 0.8842769037974276 0.5593399321619326
0120022 0.7967002028708842 0.5088080509866661
0120100 0.15905691744052963 0.28120604248456926
0120101 0.42844597870069057 0.6091533435422841
0120102 0.8456510948412834 0.3504605869323282
0120110 0.00895636594863869 0.8482617295017314
0120111 0.711226527646676 0.2193106168519139
0120112 0.07392741204671438 0.26719997289633657
0120120 0.93947927211401 0.06711109559595363
0120121 0.7970698584288403 0.7729928829964934
0120122 0.8574787752662757 0.2844008953349293
0120200 0.08750124142074212 0.9186423550206139
0120201 0.7911063771171677 0.9320437139085147
0120202 0.310675295060025 0.1400864378596901
0120210 0.5900379190830749 0.4681962310912495
0120211 0.8721677261455213 0.09808543661092084
0120212 0.1226447126929977 0.05913191184323241
0120220 0.6304780300283405 0.15233137683756603
0120221 0.5034740867741931 0.412612214823468
0120222 0.6373138941254269 0.7685084608658874
0121000 0.9450003138515707 0.846843239139475
0121001 0.5415540672585027 0.4126182892929984
0121002 0.4816163667200599 0.5197948170533778
0121010 0.392229149643044 0.4797452698606993
0121011 0.24704185935480838 0.596015063270831
0121012 0.4823643560354349 0.7652310024613586
0121020 0.27931867345284045 0.5271377780520994
0121021 0.9266593761676806 0.8690259864398973
0121022 0.936353599223663 0.2739320314421483
0121100 0.816978357915339 0.10493102988310898
0121101 0.49327241397970834 0.340489521049119
0121102 0.2999845504683324 0.3154507397770755
0121110 0.7453711269232761 0.5897046873629391
0121111 0.795511547848869 0.34357442281358597
0121112 0.04297438090215444 0.7851123793054647
0121120 0.29821381511346823 0.5941358746266447
0121121 0.5632578047005191 0.7800842502546838
0121122 0.038092193336726976 0.11362770745753414
0121200 0.5444157086517983 0.17374006716160784
0121201 0.5312548294912935 0.005414607423588902
0121202 0.09390612958273703 0.26832372925596903
0121210 0.8765472483734652 0.024589969013533608
0121211 0.24930952486820268 0.06942555491274571
0121212 0.21092271367971083 0.11190821153208896
0121220 0.618584349740997 0.04315725041538576
0121221 0.6727557740624447 0.1457466906060383
0121222 0.8238052095293499 0.9638673205724487
0122000 0.5902307855490919 0.38220610178632664
0122001 0.15419535112532923 0.8469189590538019
0122002 0.822442420620534 0.6260251222872705
0122010 0.25189018712786004 0.40053225429988837
0122011 0.8313057044160247 0.8205303077395738
0122012 0.40692066898258783 0.5519129877208238
0122020 0.586935581949146 0.4970628714019001
0122021 0.06332875722618636 0.272872221121057
0122022 0.9208728308055693 0.27249005030217255
0122100 0.059353300888732585 0.9273872097698856
0122101 0.5315767666950301 0.308570358330189
0122102 0.5627429366353693 0.03106505261549597
0122110 0.10693866834424093 0.04392051429388866
0122111 0.17419422998865675 0.24074601937722073
0122112 0.8987404616729378 0.30533469873191565
0122120 0.7545890230970603 0.6273328379378239
0122121 0.03242932072576632 0.04348941209608437
0122122 0.44290708731836714 0.8591388167934553
0122200 0.010495741129171288 0.1939720159843119
0122201 0.6712752592437813 0.32290982112777467
0122202 0.47998442133269226 0.6488199867328118
0122210 0.512047890890303 0.7066589671319964
0122211 0.8014839867888987 0.8044127092170714
0122212 0.042916380447239666 0.2141500017170882
0122220 0.9800810198816144 0.47456807900828213
0122221 0.23513871316087942 0.39010687399074706
0122222 0.17555983317108625 0.23335199005996554
1000000 0.12998681324771633 0.7441178267264923
1000001 0.7310570090631765 0.33135945850430837
1000002 0.49755952444617724 0.5580829013011022
1000010 0.009271000043788558 0.2933173600775102
1000011 0.47953615906153646 0.6560017445919626
1000012 0.2661294374848996 0.5078750061705424
1000020 0.04235231478412682 0.15176691305361711
1000021 0.48674512340595744 0.19556564527487985
1000022 0.30464996314473614 0.26580424491669097
1000100 0.9259847483547065 0.045832756066896074
1000101 0.08096147784181551 0.5195608950522258
1000102 0.3456819096741248 0.43354933643272786
1000110 0.27071931723494624 0.650253930632846
1000111 0.6540566974142328 0.23788872283290952
1000112 0.9248697038212152 0.10491400109678672
1000120 0.355320145452106 0.6036182763135052
1000121 0.8989378244559348 0.1552439135426984
1000122 0.5284392826867799 0.9205891725143472
1000200 0.3462450728130324 0.7813927997924387
1000201 0.3886879848566215 0.06039939903220071
1000202 0.5763178088553419 0.6079453831538709
1000210 0.35562797851943306 0.8995890327560732
1000211 0.013454883326751155 0.38029484520726076
1000212 0.18917509890810225 0.02529214573807148
1000220 0.07802634627337834 0.5814141876438939
1000221 0.9378056578525449 0.07169059503928454
1000222 0.6426771161449933 0.682936515609569
1001000 0.45631394817797455 0.40028001687182047
1001001 0.6869992785338138 0.8438899272741954
1001002 0.03996271180049993 0.1428048677916629
1001010 0.2771829955444882 0.729408658151549
1001011 0.6672010019220822 0.31484759854898003
1001012 0.6432218022807873 0.15070190672640194
1001020 0.3696384018801524 0.6759913177112816
1001021 0.24720291457953003 0.739044887377033
1001022 0.08473996920775151 0.3364689694507146
1001100 0.4538066957799375 0.9543667599675322
1001101 0.8641557757525579 0.9745032091447066
1001102 0.7154944728527123 0.2445177467782873
1001110 0.19093484240517244 0.25630338413077736
1001111 0.931469835208589 0.014160723095500538
1001112 0.7118580749508657 0.9102631799796923
1001120 0.7819992933138062 0.5834428228777198
1001121 0.8269850379807557 0.26299781570987735
1001122 0.852864941967925 0.0852695091470107
1001200 0.5545124827661835 0.6887784988376071
1001201 0.7191510607047974 0.15863759094447272
1001202 0.03743856797090139 0.15406776865897986
1001210 0.8014106772689895 0.7573201986452374
1001211 0.6425670693725041 0.8839606610515938
1001212 0.45253912498714743 0.16557393988796232
1001220 0.4612758244562881 0.1408086083824236
1001221 0.6060535754170329 0.9587958831177578
1001222 0.8659442296162144 0.01580953426129339
1002000 0.0898844789319968 0.7069955958335348
1002001 0.7007722321743645 0.67619837917682
1002002 0.14691187585661858 0.03661079313943161
1002010 0.22876137674790065 0.737875525601454
1002011 0.1095562192402153 0.32543076432862905
1002012 0.06574754447524156 0.5202811132665475
1002020 0.35211353097335985 0.42173475967177665
1002021 0.19070027140282875 0.2571597094855964
1002022 0.48233149931118824 0.9104792958062911
1002100 0.49284073664217 0.06650155255227896
1002101 0.0645855955082445 0.6788906000421778
1002102 0.7668356602413613 0.887507959628638
1002110 0.9474016487695491 0.8486116804803034
1002111 0.11848476967677879 0.42775352247490284
1002112 0.7137862173113975 0.6497373006230001
1002120 0.7255888347120134 0.7731115822672268
1002121 0.3716841480970423 0.9147150678183839
1002122 0.17000586506689241 0.05388218255881594
1002200 0.4640515969327471 0.11248421087689864
1002201 0.28173057808361923 0.20371686582806947
1002202 0.14128270801095688 0.18144792838943713
1002210 0.7242628567347905 0.4699421242786219
1002211 0.37021995877545355 0.8470478434661377
1002212 0.5453855361553536 0.5353437278448882
1002220 0.48311122038272514 0.8517567981633271
1002221 0.9141332197932175 0.023043053998549112
1002222 0.6784917408169341 0.5363156972355405
1010000 0.6110091839235289 0.6992912980817954
1010001 0.9536527108492103 0.29026488719630406
1010002 0.5259189439598835 0.2988927052264079
1010010 0.056249938899012975 0.36201406149006143
1010011 0.7165777883060156 0.5863088656103601
1010012 0.7226112573728056 0.9931063299942693
1010020 0.611324901426921 0.8940261494004854
1010021 0.16184070478800472 0.9169273876694166
1010022 0.24487030177521796 0.9262586201714094
1010100 0.6126420885804333 0.48346590989149596
1010101 0.5702609351677657 0.44799748843815024
1010102 0.7534138864607122 0.6911031444655318
1010110 0.7719781158520975 0.9243697772259828
1010111 0.29466415584221706 0.5503006026673469
1010112 0.5587765846059699 0.45777242481775426
1010120 0.9957134758218197 0.30238281535271583
1010121 0.2864249579232653 0.9603661557839739
1010122 0.094592709889184 0.034057857702548766
1010200 0.0331895958743631 0.2660566732820353
1010201 0.7087614381068343 0.984158968729947
1010202 0.1738290801916752 0.6620483076764501
1010210 0.7309126876180242 0.5709655805557576
1010211 0.8001594299743253 0.8110083717026856
1010212 0.06789176470253022 0.1597563243508211
1010220 0.15116760485964897 0.24857111360302153
1010221 0.44464952067478136 0.26402821137712507
1010222 0.07536458762824849 0.960493607332341
1011000 0.878950087190213 0.0756350077932888
1011001 0.7732777987729471 0.923169179740931
1011002 0.8569111793497636 0.6223707527917921
1011010 0.6394033653773407 0.7704728258341539
1011011 0.606320263277898 0.3953823944226783
1011012 0.0424460734197597 0.6271258793268385
1011020 0.569857799257345 0.5240470841838438
1011021 0.06615094286849765 0.4699265030926614
1011022 0.1834558172538493 0.9503698979899315
1011100 0.13598738251633313 0.6649522205573326
1011101 0.18652916631844219 0.9560348681308148
1011102 0.7006861039142023 0.9266115936453545
1011110 0.22570473759705523 0.29842439246043684
1011111 0.7984706378340048 0.10576562157315483
1011112 0.5442072855597845 0.6072474487959535
1011120 0.10229598266024309 0.9343861539905112
1011121 0.25283982709505315 0.059538382539245704
1011122 0.10072240003655708 0.6835730748613507
1011200 0.3201491952686053 0.650567660449364
1011201 0.18614473961597144 0.7221002119860399
1011202 0.6287620598092646 0.43153521376173576
1011210 0.172930551153605 0.03808860697294625
1011211 0.24999264061408621 0.8222298766319264
1011212 0.9779072833022414 0.7814632481380822
1011220 0.06667245113191111 0.6800300534494709
1011221 0.8142550753302854 0.21932529920034682
1011222 0.04356591889253947 0.2775232783381689
1012000 0.5308007299691179 0.3969386224057737
1012001 0.21004574189046366 0.3340772310114427
1012002 0.9291054830119252 0.4193533292821884
1012010 0.7259192221189923 0.7170200079684989
1012011 0.6114941564294595 0.30532051728802456
1012012 0.7219932720168775 0.7831559832177517
1012020 0.08283441647525569 0.847371936623313
1012021 0.09195668709647753 0.12341788598898829
1012022 0.0862398200701413 0.8866513043061547
1012100 0.30261835672348103 0.5649315893452257
1012101 0.5526499070428309 0.17392525674055814
1012102 0.9217921984109712 0.18211664657581828
1012110 0.09496406714704841 0.21591615907106976
1012111 0.08108473380565939 0.9041433308613663
1012112 0.6829965636448234 0.6900854068131024
1012120 0.39056787226344036 0.5585445386326477
1012121 0.12254560908471124 0.8108519774229885
1012122 0.8059634131316562 0.0016288901311600767
1012200 0.4496204041241981 0.9796810901950289
1012201 0.34467790735732484 0.3561715147748471
1012202 0.7779879700470339 0.6269911512502253
1012210 0.8445676716078235 0.6415984487506826
1012211 0.22283306800580938 0.04104235245645149
1012212 0.08039589293210603 0.4783771668517649
1012220 0.4558837271033843 0.9801759764683402
1012221 0.7927610888032935 0.5100423877064387
1012222 0.9373099736837972 0.9048686055959468
1020000 0.5735843073753376 0.04868331360415268
1020001 0.5846812421374762 0.21219864900452612
1020002 0.9550501990626223 0.8016969681787012
1020010 0.7724571263174742 0.19626624293778394
1020011 0.032875548929166 0.11377671617823015
1020012 0.3449450196389391 0.17864996642227082
1020020 0.2892089108015936 0.33548318246747166
1020021 0.06045425998505216 0.3283306934470167
1020022 0.24959167637584 0.2588801815535088
1020100 0.8198924333773451 0.613377256717205
1020101 0.1858342660866259 0.4549766323082445
1020102 0.14351887035796584 0.9347467813329589
1020110 0.485385642825541 0.8366031325912437
1020111 0.9434416800511687 0.5190147821601928
1020112 0.0018476938139472265 0.23437712915430675
1020120 0.6406378335840534 0.49409646519280415
1020121 0.7278574997636444 0.044011874236213666
1020122 0.998198661958586 0.24769531182767812
1020200 0.39034293361274175 0.523529662058401
1020201 0.878110079228103 0.22775582889138635
1020202 0.7642211179661257 0.7323394210430959
1020210 0.6012711866690521 0.7336430531939065
1020211 0.839000619100312 0.5800219553763937
1020212 0.7891611639139181 0.5492916223866137
1020220 0.7231886994452092 0.8243089262109385
1020221 0.6032140949934879 0.2510798858793144
1020222 0.18155970426260815 0.8732981004103769
1021000 0.3299525194452049 0.882276506969929
1021001 0.6371851447425647 0.9483842287949861
1021002 0.3087684950197892 0.010704455554612524
1021010 0.24933400437740583 0.8511602623275041
1021011 0.3124482696221649 0.1963629156411565
1021012 0.9662257550160155 0.19157448548456812
1021020 0.958325108595603 0.6776634436274575
1021021 0.28913435050091785 0.21358408145329577
1021022 0.9481541754739526 0.8140364710618042
1021100 0.36688429739940864 0.7242718518572128
1021101 0.520745232867945 0.881851801947406
1021102 0.3252489101213062 0.8731547393134645
1021110 0.27300429493242373 0.8489689577042688
1021111 0.37043906167250684 0.7639012558570759
1021112 0.45465739857573184 0.36917246544980464
1021120 0.6827817792260936 0.05979598485373605
1021121 0.18318974378127917 0.628997944558822
1021122 0.7287212710653704 0.30344857545673365
1021200 0.7307084392951344 0.08940346265767618
1021201 0.8741155602442386 0.9118807545130514
1021202 0.167968430572633 0.41419068086636257
1021210 0.8950766057435826 0.5873796098024331
1021211 0.8890322991031947 0.9584150591321429
1021212 0.041710172281983926 0.4916430857076479
1021220 0.06229278625794277 0.6868071483247862
1021221 0.8808461020271018 0.8333435859821878
1021222 0.18026450280912376 0.44143732880751785
1022000 0.24545854540577794 0.0518797113190701
1022001 0.7390336584660213 0.9738540656114888
1022002 0.5282421662785247 0.27695918564484945
1022010 0.5986598385721167 0.1796507418066554
1022011 0.7312631495242256 0.015918479918863748
1022012 0.24861050064683332 0.18718085272591045
1022020 0.025953289553557135 0.9408270273074315
1022021 0.3941704354706438 0.8430690842183304
1022022 0.6992393264349073 0.6092053026022481
1022100 0.5968364101541763 0.908803582508123
1022101 0.48113643448889887 0.5897011677078883
1022102 0.7633839367020171 0.9879582596419568
1022110 0.9305351335547515 0.740385694158306
1022111 0.5063478547293837 0.10427260212649414
1022112 0.7942503826950407 0.3138089359481051
1022120 0.5314761036244451 0.9429604369544599
1022121 0.015384026490306235 0.7437160475725249
1022122 0.8919264508150833 0.9528089899169939
1022200 0.013266882147827452 0.16424634425612528
1022201 0.8280741706440595 0.48920918099331323
1022202 0.5348186399631041 0.6153200718564407
1022210 0.762672398451393 0.7410982586813738
1022211 0.05985796544890065 0.7767944153822074
1022212 0.8476288124190315 0.5970360055422581
1022220 0.985188321465001 0.5753002924172965
1022221 0.46967558927281516 0.023904346479784122
1022222 0.07522418025356303 0.5461415788671611
1100000 0.1674919223354765 0.9642837867723013
1100001 0.3108513846962938 0.7535514985216396
1100002 0.9052342569529661 0.6092413978180408
1100010 0.8548352564751576 0.33724990590916637
1100011 0.34873254283553645 0.47580364876605363
1100012 0.22204996904208507 0.5981269934607522
1100020 0.012935790732768071 0.847462357105553
1100021 0.9118188298820351 0.892281227238368
1100022 0.47826394047344956 0.6621007497904883
1100100 0.33626709268013066 0.35615951076729935
1100101 0.9713295230172249 0.4634826593384642
1100102 0.9812272204942977 0.9415293584119254
1100110 0.7003981292267838 0.027898749526701128
1100111 0.6286777799402311 0.643278288810725
1100112 0.8566611377205451 0.9724105797302918
1100120 0.700968328729073 0.9381788967022805
1100121 0.491002455814203 0.03288477159836101
1100122 0.6411520784477922 0.4467784417846049
1100200 0.4313735528812781 0.964608949943634
1100201 0.9699431939279277 0.7733841873259021
1100202 0.4109476093750759 0.8899634178809032
1100210 0.9857927121744776 0.8183512642782909
1100211 0.8849487071206305 0.9727096259923869
1100212 0.7512043277045254 0.404117888188524
1100220 0.15795425319507894 0.3163111028335036
1100221 0.5528905597256498 0.06177056488906141
1100222 0.2254336384240826 0.871329895848504
1101000 0.6443317135955865 0.5382735280629335
1101001 0.1113336175745332 0.4961412289233532
1101002 0.5806857016163128 0.16712389069139355
1101010 0.1148703876433026 0.5182469461038657
1101011 0.05578589656657518 0.7803468207116455
1101012 0.3316796762457651 0.9811258180129105
1101020 0.5464994567920557 0.6533542902453865
1101021 0.789149231475374 0.013051735831961397
1101022 0.10243773776663456 0.15403197232062493
1101100 0.9722689213993697 0.9227223317980954
1101101 0.9627224804004514 0.24168584612329647
1101102 0.3301936411091414 0.8978703765427417
1101110 0.8259095121229532 0.6826588097896966
1101111 0.8235587035275981 0.839193914770287
1101112 0.9775635300087225 0.3576664803623617
1101120 0.10247802220797264 0.905120699644553
1101121 0.2940852141782355 0.34580280088864646
1101122 0.510781327796082 0.6789510876788782
1101200 0.7189640969816357 0.26630862508568465
1101201 0.7631528457978496 0.4614401322341912
1101202 0.6774258891341886 0.7515009821253754
1101210 0.1448516624406938 0.7614456297386797
1101211 0.8938579077171067 0.3695083971738292
1101212 0.9091898983008874 0.6280645808448192
1101220 0.9845398877324887 0.5025840010947051
1101221 0.8255929370320808 0.8113030307694001
1101222 0.9716291679975185 0.4161913205791167
1102000 0.9304242093971191 0.18706879234700569
1102001 0.663069346585745 0.8056564403987583
1102002 0.3514727522477795 0.41225360413884093
1102010 0.5637522548302647 0.5343239028302722
1102011 0.25396804824597674 0.012526693228109398
1102012 0.9458395613840777 0.2877110516037008
1102020 0.3499128188959263 0.69296879120748
1102021 0.5245568096163856 0.1199745259237196
1102022 0.24495370734689437 0.7677013268805118
1102100 0.5486376161869173 0.07878901244076397
1102101 0.9984590239485078 0.7236967107460246
1102102 0.15132497375157217 0.388673613251451
1102110 0.9116953342740773 0.9945947134034557
1102111 0.5726482417676634 0.23967514274011215
1102112 0.6094034336770454 0.37842716539201915
1102120 0.5369380587051955 0.24085032463838263
1102121 0.4797987893977197 0.5170357082443389
1102122 0.733455412012629 0.9184271749238381
1102200 0.11421757505193186 0.2768242783469743
1102201 0.7167427282331191 0.25002514537863885
1102202 0.7674018876350824 0.7969814850981606
1102210 0.007076581647681435 0.7169218822867723
1102211 0.5281436472276637 0.8269313708544547
1102212 0.928791994433999 0.5438793741698537
1102220 0.7510901128619539 0.21172135912903367
1102221 0.6378701149069645 0.7190961908249076
1102222 0.6411400495116648 0.8828355422292095
1110000 0.357848007534485 0.9729362318364991
1110001 0.1795555724964052 0.544356715450522
1110002 0.9164586138538829 0.22245394479510805
1110010 0.7323323274868203 0.3060705116479133
1110011 0.9950878659278342 0.5735706801863396
1110012 0.42650195831139215 0.4275430280611958
1110020 0.111415164403876 0.9863854327025281
1110021 0.938244770687589 0.6847819767731311
1110022 0.16294185274727102 0.4239221807887107
1110100 0.7650628098346829 0.13627326667860307
1110101 0.2702367198046761 0.5059566991061389
1110102 0.04297116231214859 0.9512452590336276
1110110 0.12218250015699605 0.49922243135756705
1110111 0.27566564619328127 0.30276325644050683
1110112 0.4083667298721856 0.5993905270953922
1110120 0.42373675077840867 0.5118620454631685
1110121 0.11389168151897233 0.5569238175511155
1110122 0.14662264791824942 0.1891665644372944
1110200 0.8060429028719235 0.8736599340359582
1110201 0.8262647154047864 0.6976695717011654
1110202 0.447921803478066 0.9482412308705639
1110210 0.7495146768569413 0.6475935271562875
1110211 0.10918508063026877 0.8522514971173896
1110212 0.009450897925686541 0.927412811378455
1110220 0.6548565198623401 0.951429435442488
1110221 0.10696465669447686 0.7583995531579893
1110222 0.025529482597364983 0.8602744475517297
1111000 0.43913853320533214 0.995633782640176
1111001 0.9012096582450495 0.025364026202271517
1111002 0.37066248899290366 0.8646023671497335
1111010 0.8469850183579578 0.24798045716144979
1111011 0.4535096350020761 0.4659523375892969
1111012 0.5912008287782459 0.19082604372768597
1111020 0.5949772969131845 0.6850937440842615
1111021 0.4250172583422811 0.9332892245754046
1111022 0.18365434317205243 0.38596148139143927
1111100 0.48399951651170126 0.15446557128878868
1111101 0.3361550160243194 0.3313815437662502
1111102 0.4428362516033535 0.2524113608490025
1111110 0.7495250154795408 0.99719886132415
1111111 0.18423127887096213 0.6597444786575366
1111112 0.1406336001975943 0.6710899753153399
1111120 0.5650801550150307 0.29481216587647274
1111121 0.9357211742206646 0.6922516181872255
1111122 0.28854621416020243 0.9485987186599197
1111200 0.8093210902206017 0.23877412282833244
1111201 0.292847350557238 0.38759104085293417
1111202 0.6384649831768947 0.3934343040583269
1111210 0.5102134740386769 0.8467448202337482
1111211 0.6263440412081921 0.016456209402191946
1111212 0.6598580989997188 0.1590400310822656
1111220 0.392978374230442 0.398852512600674
1111221 0.46243375157845357 0.362088252385245
1111222 0.9640474153349228 0.7123567361256595
1112000 0.6326118662332871 0.9822750566843353
1112001 0.7165242066714319 0.3062540879786594
1112002 0.0919389011863686 0.7875838370018463
1112010 0.9727604624739717 0.025168356464974617
1112011 0.3417905634295699 0.16950197968572722
1112012 0.5004406345250362 0.7520630552333344
1112020 0.9452960230702089 0.6057114831468707
1112021 0.5802232116100259 0.003684201732442438
1112022 0.22012707939944498 0.23188340227938353
1112100 0.5198110110867346 0.21428004778083332
1112101 0.8896614503290327 0.5191961107628568
1112102 0.7112627161804479 0.23815683664032317
1112110 0.6819508379355922 0.28796303997137096
1112111 0.4204570538332427 0.48733428143640045
1112112 0.2619186274487155 0.535713367100558
1112120 0.4273494627882908 0.4625808689057892
1112121 0.21651383248152234 0.7095568746374369
1112122 0.5996484484791347 0.7051291318258213
1112200 0.3401628563710132 0.5098895619726845
1112201 0.2028938155580866 0.13098018848338455
1112202 0.5857768601874304 0.29036441421991244
1112210 0.8991092774777535 0.8010416724131975
1112211 0.10828260569712711 0.4530234224632733
1112212 0.7121573921703328 0.8613750360259022
1112220 0.16374379597176325 0.9995503876919684
1112221 0.3163542450923654 0.5692887952557996
1112222 0.02574498543619097 0.032893080880228576
1120000 0.5877653803749003 0.6588799305221998
1120001 0.7284396582557106 0.7152683349105187
1120002 0.15969089286406446 0.6368682097997209
1120010 0.3450103625161931 0.7553149570563088
1120011 0.3269893877257698 0.63636615032387
1120012 0.7543701116603857 0.675100090200393
1120020 0.7867512738598328 0.7795889217388109
1120021 0.3120499778329009 0.7847543177682753
1120022 0.7997124307248833 0.9385774205207174
1120100 0.27521846245601955 0.3808749254266892
1120101 0.44609720389116614 0.2155642214815967
1120102 0.7077629709196561 0.7020094331441559
1120110 0.7388267248104701 0.8546064436058325
1120111 0.16483958785808572 0.22599047048727672
1120112 0.9675316081627818 0.9210312797421913
1120120 0.6909835385470974 0.8637541862501025
1120121 0.24360504919887094 0.5028258959968381
1120122 0.04486424652024956 0.6635495613547605
1120200 0.4715614771713873 0.6857107053832545
1120201 0.6306933941784515 0.9196301288744714
1120202 0.6114407885561425 0.6237955544040072
1120210 0.0013717423456519606 0.9541159349460754
1120211 0.03689240692552498 0.3734764774670041
1120212 0.7586446314233133 0.9785800302693525
1120220 0.3277079893031344 0.02853845154134882
1120221 0.8914104199881145 0.8395711454021303
1120222 0.407032362990116 0.09081554907677869
1121000 0.5530144897723257 0.1124212452541874
1121001 0.7128272092304774 0.028688626407029627
1121002 0.7808920577961822 0.1674730773175942
1121010 0.3476203894371662 0.7338217039096537
1121011 0.7949082098780064 0.14758408735145245
1121012 0.9351560661542181 0.8099715247353322
1121020 0.6608449539361035 0.774172835483132
1121021 0.3517218679286134 0.24582293438789093
1121022 0.37082540657165575 0.6164266283537311
1121100 0.6097034116252217 0.3347330435069895
1121101 0.790183759294591 0.3410553607916875
1121102 0.5719830117165747 0.14596803181129692
1121110 0.6169447772534009 0.5076871190675286
1121111 0.8232493639838847 0.08502750993808506
1121112 0.09030235103570161 0.1957740562430571
1121120 0.3491424832322543 0.09589846567952709
1121121 0.6611162360845263 0.12280360275509805
1121122 0.42006445278713345 0.7744375422647555
1121200 0.45217513204125614 0.9126298597148912
1121201 0.7217077865245871 0.524145544045516
1121202 0.14122641738345976 0.48719605836959656
1121210 0.7884052826499223 0.35712822681535894
1121211 0.5636603255359914 0.7061774493497047
1121212 0.8105578093371533 0.39161220646399975
1121220 0.028645628891914354 0.4866966449563369
1121221 0.12905983189381642 0.013129513548896132
1121222 0.4116184234249439 0.9087196648469964
1122000 0.3468669966761406 0.39965704490995324
1122001 0.3455720316646791 0.4078817362667778
1122002 0.4228252368571024 0.0854463154935391
1122010 0.5253503904410579 0.5430373873584969
1122011 0.23566643860827585 0.2997083067515618
1122012 0.022971597068064842 0.8323949806182946
1122020 0.9779205571714956 0.14105979081983355
1122021 0.5082346230238115 0.34270693868146673
1122022 0.21989409086678713 0.6333981402590674
1122100 0.2025304613482788 0.2735065516403732
1122101 0.28036975803630637 0.43720131658170347
1122102 0.5536065935567532 0.6685461935922389
1122110 0.30740748842829724 0.40645427169129855
1122111 0.1026722516585713 0.1198921861757637
1122112 0.7853951477146864 0.0677674289946748
1122120 0.5841186723683229 0.6770406066877377
1122121 0.16393348526897633 0.3666295195567373
1122122 0.560717370343567 0.8594814926040794
1122200 0.5123752074016693 0.20728648898893143
1122201 0.1769623913939422 0.7061296122783555
1122202 0.9521828939668273 0.27018067974119686
1122210 0.05947581932105095 0.8163693122959278
1122211 0.5082090064317437 0.44800475267119666
1122212 0.8758425366207769 0.9718381810055897
1122220 0.2650305525155059 0.40607734984413146
1122221 0.33408290535957474 0.6570831239996359
1122222 0.825332802502492 0.860204575540033
