0000000 -15.001953806201346 -0.7592534342287982
0000001 0.6019612487165953 0.6170601638496964
0000002 0.6724425222929435 0.1667659406076737
0000010 0.7049600331854653 0.7925770231088659
0000011 0.8923980243418965 0.11712502368965705
0000012 0.8962021474465166 0.36739995014604865
0000020 0.5780556366645919 0.6874618286706091
0000021 0.8197992919842585 0.8753668895880587
0000022 0.48896755715932005 0.3490367686630069
0000100 0.24661076552236205 0.853459097051196
0000101 0.4443844554104295 0.3412641143384637
0000102 0.6046762200413976 0.33387472818813524
0000110 0.6748038686747928 0.3079878254671441
0000111 0.30822925634478826 0.11136331770313734
0000112 0.5877789474551827 0.3872821456910358
0000120 0.41434509867891 0.9086270278010847
0000121 0.40428169240547596 0.18362263976111948
0000122 0.731071928593196 0.33488183948066563
0000200 0.3634991384956593 0.5695594401979839
0000201 0.7670910170121361 0.010826987371177377
0000202 0.04838807663915312 0.9845108279657455
0000210 0.11594349809674287 0.9430049290545638
0000211 0.9873309245695685 0.2543456548490993
0000212 0.6050647203946857 0.5548208228375737
0000220 0.6267944025567765 0.025868793739909357
0000221 0.6603708359245447 0.09131791086024998
0000222 0.5947676496507253 0.8015821650725572
0001000 0.7872616855798749 0.4779001557065403
0001001 0.5790300675673753 0.8277196371173566
0001002 0.40566559578258254 0.8636617121939947
0001010 0.9700943937244182 0.40665071911848105
0001011 0.6179053738183832 0.8887268471362687
0001012 0.11616218319144356 0.9834076156846023
0001020 0.4567228046522631 0.47160082950953575
0001021 0.6957733911741228 0.6691045893476022
0001022 0.6740526695713673 0.5655578245539751
0001100 0.30389331153512655 0.8797160371455591
0001101 0.6687541469695135 0.04961157109627912
0001102 0.4154920903898054 0.222597193126851
0001110 0.7917510868196677 0.6470352403552425
0001111 0.49746637985552355 0.044839589159989424
0001112 0.1174042212683124 0.7269886672159804
0001120 0.3197095172221537 0.6497349215814802
0001121 0.2595344742099803 0.8777363283169651
0001122 0.10550275067655368 0.4070631248953076
0001200 0.08424628888882335 0.7191471503005178
0001201 0.7656633981776354 0.8391041883101004
0001202 0.16786897820269497 0.37969635736630136
0001210 0.2962154896649135 0.0562254105680674
0001211 0.9997942662710054 0.12793209069410405
0001212 0.26130990432917367 0.0996570618248439
0001220 0.07879713962978152 0.6207357592116991
0001221 0.5518780705412597 0.7111533006722536
0001222 0.15907697873307913 0.23939670631134724
0002000 0.3455656440037428 0.7365648555107736
0002001 0.38146983374637333 0.7164983185596389
0002002 0.6369941587762862 0.22039406256518734
0002010 0.8100780696367911 0.7532307554908506
0002011 0.07640172183004368 0.1571598732471905
0002012 0.20664397402937817 0.8114376453067869
0002020 0.5227974209782826 0.8443409414009275
0002021 0.6101697209404774 0.49914697408653874
0002022 0.5358249005705696 0.6867748852167285
0002100 0.7320024875514671 0.9527508646528314
0002101 0.4211810255522008 0.10161989819704476
0002102 0.7980358489055674 0.837116787258315
0002110 0.8751773342288391 0.40373323874490763
0002111 0.9570869117001944 0.7207864937778014
0002112 0.4458644501941107 0.4725375992241193
0002120 0.46458128106431473 0.18131885777123147
0002121 0.03124853091413815 0.2874483436203813
0002122 0.49195236156726707 0.48603707633656723
0002200 0.8812129987796862 0.8287995006329519
0002201 0.551432591921407 0.8438826566749482
0002202 0.3960587728479097 0.6330486388732584
0002210 0.6826218450405517 0.10639507912078383
0002211 0.4048754750263518 0.656341594232663
0002212 0.5201658620196697 0.19270944293167935
0002220 0.4687293086303723 0.7112986661371715
0002221 0.5853125448291852 0.9583802249277974
0002222 0.7115345377971881 0.37172906526215077
0010000 0.90648223256289 0.06858985182729405
0010001 0.3860887147814951 0.722056585836251
0010002 0.13403287956569632 0.87476489211383
0010010 0.11525841370085832 0.0024422524779806887
0010011 0.34977797943596944 0.4624680025542274
0010012 0.966072718275904 0.4743453421595728
0010020 0.995299154798269 0.8363780336512624
0010021 0.4312723898675289 0.18229064903039738
0010022 0.16133395986285448 0.19764897540680293
0010100 0.13659797324804845 0.5720267220573237
0010101 0.6092246998435421 0.9330920003204606
0010102 0.6804515348152407 0.6487770634113066
0010110 0.6012892291719681 0.5092950994285091
0010111 0.8100001542205842 0.17067381982772878
0010112 0.329948823281642 0.9476837441616448
0010120 0.09672438775563474 0.2453069015011019
0010121 0.8791174455025372 0.31344468871085696
0010122 0.16683931591233392 0.6605561115391532
0010200 0.83344084842014 0.2007145921203296
0010201 0.8279300614073422 0.8196696714524077
0010202 0.13012982705904752 0.6758087184674463
0010210 0.5180021639323039 0.5728005813460929
0010211 0.3879902091777112 0.5828872522279076
0010212 0.9974522233783983 0.340509009321629
0010220 0.47132701754952233 0.3685755617523413
0010221 0.9237378752474806 0.007586406212683694
0010222 0.6452178653886581 0.11501049402622332
0011000 0.2890525959540541 0.48797147696560794
0011001 0.05475380263763996 0.17949505640026908
0011002 0.07306588955866145 0.7107756618660662
0011010 0.42265854213177345 0.08427630355452786
0011011 0.3936603208119914 0.9627276631809661
0011012 0.7851450968990673 0.7086307859490116
0011020 0.4890968008904838 0.5775172632804831
0011021 0.08309519835359624 0.44785867669649126
0011022 0.6601052953505131 0.8551068312458916
0011100 0.31728202883580514 0.028888422998210928
0011101 0.5147991566193464 0.20806081097912088
0011102 0.3168339005587447 0.47831805213558265
0011110 0.4155926182147601 0.4206451924545116
0011111 0.6038032524849523 0.3174163671192134
0011112 0.5548565396052317 0.13732964919018964
0011120 0.9793769727197954 0.9826456384737298
0011121 0.636284665401117 0.9330932868058723
0011122 0.163100724056495 0.6657161167044829
0011200 0.4202493746173065 0.3427044173936866
0011201 0.12090551478163336 0.6376369719533753
0011202 0.572874123489525 0.9229877880885313
0011210 0.4140320155957785 0.9301703662526373
0011211 0.16200035081048714 0.5676801222627277
0011212 0.29603566772504186 0.17090773892257216
0011220 0.2725166217582051 0.4395341510684663
0011221 0.5338077877069344 0.45593071817047937
0011222 0.889939861363386 0.6377644284101958
0012000 0.6223199781018759 0.5770054483920759
0012001 0.2631883984530772 0.22409690963864126
0012002 0.5945308829151756 0.28380646753248195
0012010 0.1824756089093651 0.19432089653924123
0012011 0.8758850189076032 0.9703092494381076
0012012 0.44637752899972694 0.5727605446515085
0012020 0.33854617296291234 0.6908616366928914
0012021 0.7809247286540263 0.9884873093931439
0012022 0.2151198499133572 0.07455297599995436
0012100 0.8599833127211874 0.6224743903729894
0012101 0.4653066400135454 0.7144995893810279
0012102 0.07249650916917261 0.09584549733502468
0012110 0.3514528695983339 0.14097174520388212
0012111 0.6007743451085488 0.13670858108317663
0012112 0.6304826417669953 0.12885340610236962
0012120 0.928776165754083 0.7778761587945165
0012121 0.9889015966037813 0.03832686019418152
0012122 0.40285120119587003 0.031843575734531226
0012200 0.8087928488438255 0.7529909440776645
0012201 0.5214738763397823 0.22707237737739272
0012202 0.227859829557849 0.9893174993077886
0012210 0.8954211894082076 0.9733462225109999
0012211 0.5828132567254305 0.9680811075330992
0012212 0.3205577627231433 0.08688234453037214
0012220 0.4416130365456752 0.7582807564374391
0012221 0.2715554146285317 0.8397727320268645
0012222 0.9294540762681335 0.6114930036415366
0020000 0.48963854454401845 0.36928916917187415
0020001 0.8079056782289974 0.24883326808183726
0020002 0.12746790146876164 0.5771174322847067
0020010 0.29332115121449065 0.5389848806390348
0020011 0.43681525678412647 0.22158481439962407
0020012 0.8816990759413018 0.3513781539515134
0020020 0.6133758590443287 0.06892366148356899
0020021 0.06449224599713121 0.6327269463451358
0020022 0.6098020097396706 0.2655670737192013
0020100 0.6662237066726104 0.9475031094284415
0020101 0.2952794688406637 0.15608256444361757
0020102 0.609175423820066 0.9928442272948054
0020110 0.11282786412184276 0.30652647894057494
0020111 0.07776225059937936 0.9821814704383085
0020112 0.5191919462078054 0.6553835865116073
0020120 0.6035109998239565 0.6958529311028427
0020121 0.5403450013269305 0.7139184826529154
0020122 0.3520033319528968 0.7658120127226905
0020200 0.9486556679975748 0.5203053929717129
0020201 0.2175961901490472 0.22714889871279054
0020202 0.7994538241031985 0.7578098589133566
0020210 0.4301361078475523 0.6546950862344423
0020211 0.7082909585134239 0.4705665514640047
0020212 0.5616088442884066 0.6825215475273009
0020220 0.7292084030255572 0.699532254402099
0020221 0.016699848887612112 0.6907424869551706
0020222 0.4199198844388998 0.6170572918660737
0021000 0.5885712895932415 0.16045712094106557
0021001 0.6713067664434184 0.15601117191974212
0021002 0.26847102069713324 0.1694637885798973
0021010 0.5214639204733255 0.6147481107884928
0021011 0.7321015890719795 0.4162922572066792
0021012 0.03569099548805821 0.19385745199636484
0021020 0.7951996196875314 0.27778898897369375
0021021 0.6049308526221243 0.7415846715388154
0021022 0.5272216477703604 0.3362895254246636
0021100 0.11382491452581356 0.3623542826359786
0021101 0.4958758740606818 0.2555444512446501
0021102 0.8145422467128818 0.16934787440461674
0021110 0.9025791915124955 0.7073762545176651
0021111 0.6924284524300147 0.18717859021280325
0021112 0.18000552014894744 0.9382709037910253
0021120 0.9330290860326851 0.5912385251066653
0021121 0.07625662258378263 0.4061869446966154
0021122 0.9387902940570639 0.18355704901126502
0021200 0.9722974293033937 0.3442136319948048
0021201 0.046294175491354284 0.8309063391589234
0021202 0.015833197869687843 0.583109907726778
0021210 0.2534231843706898 0.6962792182193667
0021211 0.47202147565127717 0.7198151436188056
0021212 0.7859588422703366 0.3613090000004895
0021220 0.4666737825647569 0.2898915596340008
0021221 0.3598534561596972 0.8178823231708249
0021222 0.34533205785401333 0.8715073024193862
0022000 0.8657973213397462 0.4074772203481949
0022001 0.5628871923561375 0.7343841772399505
0022002 0.7151730049415024 0.4260941455811492
0022010 0.4663131095180083 0.8917804962836503
0022011 0.32669103194365734 0.9492764437739755
0022012 0.09534647789874962 0.975136266423808
0022020 0.27319630849668175 0.09103112278569714
0022021 0.22703891696012457 0.7230748867532105
0022022 0.14771946275383274 0.9174543822700576
0022100 0.2507545839822001 0.8115969353015758
0022101 0.6905695768177252 0.2622104286717484
0022102 0.048868739741744105 0.8333448920642527
0022110 0.25665861194501616 0.9081117839481192
0022111 0.9938949588681708 0.32552680839408255
0022112 0.47727009774043794 0.47065384172049096
0022120 0.4944991790145469 0.8808722825528815
0022121 0.08900612633622007 0.8338238785240759
0022122 0.5107491986235446 0.859869251855295
0022200 0.17193550027520743 0.1421559290501182
0022201 0.6357619844472839 0.5937085386426673
0022202 0.26280003416341136 0.9968134722028321
0022210 0.3466198526737376 0.8400406915741967
0022211 0.2295711665255573 0.32803136791018594
0022212 0.5947633591045237 0.29126943949730033
0022220 0.738909472903429 0.04537235390001282
0022221 0.550964016672111 0.8260672634670014
0022222 0.2027077987853827 0.38340883265912074
0100000 0.13173271586759017 0.6162899026523788
0100001 0.7548590756972426 0.8435239622669144
0100002 0.9187544424044428 0.653854979648736
0100010 0.7751603258129484 0.26071965615369197
0100011 0.8134348803325219 0.9143717874710775
0100012 0.5984308828604203 0.40145482271622757
0100020 0.17059336885981502 0.45414659358414133
0100021 0.21282500038215413 0.50011265667269
0100022 0.5381666445517943 0.22375427972017714
0100100 0.02227201107545551 0.019975527451125852
0100101 0.38118680992637 0.8751507995967093
0100102 0.06139842330321221 0.14890779170044477
0100110 0.9896426428098725 0.5652685423460171
0100111 0.6400547235310631 0.9274758889336878
0100112 0.8250218214317553 0.40856965545152035
0100120 0.4667577090870866 0.8441410598893719
0100121 0.6570607281359075 0.9259208841346714
0100122 0.3132711592988606 0.4750862349804005
0100200 0.3649815322526109 0.54558940876783
0100201 0.310151712282314 0.10828300903071775
0100202 0.5355032183487026 0.8183288115363219
0100210 0.4019325878658503 0.9378872113799857
0100211 0.7366304346016761 0.3541138077171433
0100212 0.5862254628607775 0.6148825918286276
0100220 0.534218438452286 0.048344400887834205
0100221 0.2371661309780797 0.3296382052552781
0100222 0.9431980542538102 0.7615457730646698
0101000 0.9553950238860217 0.2622211026859913
0101001 0.6346722482130973 0.04722217292582276
0101002 0.9601688950169559 0.6613115109180244
0101010 0.7035990067828506 0.26376456300448714
0101011 0.08087094603719291 0.45752305869886567
0101012 0.5892157256916551 0.8636257185403318
0101020 0.8340990116035649 0.2563219637604375
0101021 0.5063112979505325 0.342201030944267
0101022 0.9813816255508404 0.27920727722863947
0101100 0.14257964836037607 0.06047948607663245
0101101 0.33346491573955217 0.27886605588908486
0101102 0.5880285370890114 0.35534431131817457
0101110 0.5299408435003997 0.5921896392355844
0101111 0.7841682198656726 0.1019293676848323
0101112 0.027278101766307072 0.8620541469247859
0101120 0.02250872707794982 0.9093545842934496
0101121 0.8366455170009884 0.39040091452864545
0101122 0.11892742385833854 0.5689956094010931
0101200 0.13025479303439802 0.9511783589650532
0101201 0.7320758016372668 0.5264949324804838
0101202 0.6734932454311727 0.9144124648444687
0101210 0.5567780943014743 0.18729053476243385
0101211 0.2267510184208683 0.8588180976516817
0101212 0.542360615590019 0.9512002385238417
0101220 0.6223753966734225 0.5322802027660565
0101221 0.26607573014831554 0.16568660965076631
0101222 0.8676200075028537 0.9578926771190408
0102000 0.21406091002748995 0.6873412124294971
0102001 0.6868609400119389 0.8590052941953263
0102002 0.29103598189938595 0.3178645227565027
0102010 0.8644795270759165 0.9343105828981827
0102011 0.07012700681883699 0.15641842249721616
0102012 0.907763413505532 0.7912322398350791
0102020 0.26957180841771555 0.15371814176371223
0102021 0.2249892463832357 0.18809832332225573
0102022 0.9015369431296486 0.5781567343460218
0102100 0.11674710400350408 0.6755517285922913
0102101 0.39750646463239825 0.18517962206169514
0102102 0.7182409742319612 0.007490976764606305
0102110 0.05017492129998957 0.5025951395098154
0102111 0.12675597907715042 0.304062419457407
0102112 0.7833656008472065 0.7682910064659915
0102120 0.8388372241627563 0.20463790009578675
0102121 0.1185325405053872 0.7690064382682897
0102122 0.6187305372052243 0.150330649161328
0102200 0.17058910195544152 0.34110815393634286
0102201 0.3132494215655922 0.31675595860749073
0102202 0.3332804884692574 0.25796638660164883
0102210 0.599387188535609 0.7448989946300275
0102211 0.07038264845031472 0.835581481326872
0102212 0.27894611225513466 0.2278392289980975
0102220 0.4150031172743329 0.4616851479703854
0102221 0.8068658476263307 0.9605387050816979
0102222 0.05981808773950548 0.4704163725631917
0110000 0.7611510433958316 0.1553070152315984
0110001 0.2517727528803819 0.45706199152060367
0110002 0.36487206361103397 0.1402972793585281
0110010 0.5652589822478769 0.6381565412701665
0110011 0.4922325952613652 0.44747684101473595
0110012 0.7042456740810682 0.11093649492931068
0110020 0.027074460908571463 0.3817489154582696
0110021 0.19128421450372524 0.49026018438635344
0110022 0.2486972965197285 0.6020009176257509
0110100 0.666553657709284 0.16851373269226577
0110101 0.21786574355033916 0.2601221904115877
0110102 0.5222540875118955 0.597963729614194
0110110 0.22297789800276924 0.7064221490043647
0110111 0.23616657164566446 0.29356467756159876
0110112 0.37101264266704115 0.7802693011334298
0110120 0.4862217070215138 0.5826178949980935
0110121 0.7981545172692203 0.6615828777793266
0110122 0.1652380793164362 0.6029858698921513
0110200 0.36382645057681184 0.38364438794541156
0110201 0.9764055161345881 0.3062192789918663
0110202 0.6066750762572668 0.44215046128317204
0110210 0.5397667597012599 0.4549424859279523
0110211 0.6064376417437577 0.9681168991554743
0110212 0.5947416201101025 0.8741599837009197
0110220 0.9045632455816135 0.8067376272627861
0110221 0.07313001844682376 0.8875903763022128
0110222 0.7474046305049487 0.3809395387599438
0111000 0.3488049591785609 0.6850120274568366
0111001 0.2029912218221196 0.980483860009095
0111002 0.612486980232767 0.3092429993629031
0111010 0.8944771617267866 0.33963375961642694
0111011 0.7426216060567243 0.7421267751624532
0111012 0.13622337329819123 0.3476752470008456
0111020 0.8720304550228305 0.8305526323485003
0111021 0.7980929816938479 0.29932958590319225
0111022 0.4142571131319669 0.6105732477093058
0111100 0.8625074744938754 0.22535038678080932
0111101 0.6444898972789086 0.7076801690546107
0111102 0.5584945834382826 0.798083252424673
0111110 0.6300373815721737 0.25419416549906126
0111111 0.10079382837761897 0.25837932919570505
0111112 0.06135415722725268 0.613904618870487
0111120 0.26367403425327673 0.2908320082005008
0111121 0.412750893334218 0.10320023985428706
0111122 0.36063345295985627 0.5389895250603223
0111200 0.13175496256877162 0.3792916357727433
0111201 0.5004995448849915 0.6687561068052807
0111202 0.36617302936885054 0.46478897401942554
0111210 0.7716076355123216 0.7160362641199699
0111211 0.3927508267170625 0.012949181804293719
0111212 0.2252940428831679 0.22747840618963067
0111220 0.9503927602032728 0.2382082483742014
0111221 0.8248425585917335 0.004966814948303311
0111222 0.7433537633657583 0.9923836557596435
0112000 0.9739787122295671 0.3644033359383073
0112001 0.9076663013799073 0.758340773609869
0112002 0.7865747948711846 0.196008646947467
0112010 0.1264901465380548 0.3520060019546608
0112011 0.6344615378913138 0.7308738019511105
0112012 0.7460496431613958 0.07739224863553917
0112020 0.27407388587831394 0.7651342564027523
0112021 0.414027183550439 0.19560271129022444
0112022 0.540880443466966 0.6063591772747186
0112100 0.45326600475188605 0.12202259529992177
0112101 0.7999163562389838 0.763598348022248
0112102 0.029624840457561863 0.1613314382792932
0112110 0.7145813551225144 0.23459948233508587
0112111 0.41531240973850914 0.8992437505841946
0112112 0.811198828947336 0.12631349013972437
0112120 0.07491813760329402 0.9508504230944329
0112121 0.5706528342861279 0.8467279933104025
0112122 0.6013572311923299 0.6451051984707222
0112200 0.5155064981232604 0.024162979664245077
0112201 0.17974955907255974 0.190430755523897
0112202 0.9993846796958428 0.14044759757789593
0112210 0.1272344666561298 0.9490857460497437
0112211 0.9100655875477017 0.9535439430924216
0112212 0.49385206942621784 0.2809014291566462
0112220 0.17266880171700838 0.5402812173434727
0112221 0.11924615568838537 0.8612063562594984
0112222 0.42094188883455097 0.26598724853418776
0120000 0.8218876698253057 0.8876029460010709
0120001 0.047427203233679105 0.2191571293698551
0120002 0.0306952742528368 0.4636182954611847
0120010 0.3330303148805326 0.7216504775562053
0120011 0.10950631742336636 0.19326833345185324
0120012 0.042431032165803795 0.5890441821474499
0120020 0.13960199069579016 0.8640595483077551
0120021 0.06968766507845692 0.07715770982876757
0120022 0.9468856492057395 0.704519924090465
0120100 0.6337733931025897 0.9246128321367194
0120101 0.7038944978952689 0.18908382002095703
0120102 0.3872014697278673 0.4303249152479217
0120110 0.7088279914454602 0.7467385259346624
0120111 0.4871709230099083 0.3691783890538157
0120112 0.08213762979115014 0.211776129578362
0120120 0.5248236479633841 0.8961236050342236
0120121 0.7498028094704371 0.6564847433456191
0120122 0.9397940598486455 0.6503285177766865
0120200 0.006846904008129928 0.853340256086246
0120201 0.12375667428181536 0.821547251178148
0120202 0.7199174377576854 0.2134194471650812
0120210 0.8911364581952209 0.40868778202433964
0120211 0.548807185430825 0.6935612131801518
0120212 0.14236581694282324 0.44962672964108874
0120220 0.534220323568508 0.7380269860997583
0120221 0.930432174341344 0.17146476170258707
0120222 0.44319268936879386 0.5533628282841218
0121000 0.8211361513458806 0.9745609363335358
0121001 0.6255758543638872 0.9049291932020793
0121002 0.8052763744313441 0.4941546598414275
0121010 0.6204140193346438 0.553061824262321
0121011 0.5405743669856671 0.46561492049094944
0121012 0.34453468957570854 0.8286452565659496
0121020 0.47104118583272925 0.9099034346224911
0121021 0.9747531543218998 0.2631070243134571
0121022 0.12324052500042548 0.48614057378984443
0121100 0.11172866273088 0.0260204229776001
0121101 0.09889994314510897 0.26336217288801256
0121102 0.03448685164853138 0.5433515047356032
0121110 0.02644868717980342 0.8963395452572596
0121111 0.7145917855636895 0.6450209218273357
0121112 0.5009119153727611 0.40695782361635335
0121120 0.4322024131003761 0.580198473567516
0121121 0.4904803365252419 0.2901352786492253
0121122 0.04533607778060478 0.857648278319241
0121200 0.21264211598698246 0.13616137440993548
0121201 0.7498051983293241 0.4530111918893608
0121202 0.16943474537323944 0.2071030609767981
0121210 0.6657676085595091 0.897166180049052
0121211 0.3506491060963317 0.8666064472788987
0121212 0.07921710107678825 0.15638788427590122
0121220 0.6158747904191484 0.02148177916508287
0121221 0.5191927601187394 0.14352787653232824
0121222 0.8328883706642455 0.4926902605304979
0122000 0.9590623805425584 0.8266676902168104
0122001 0.9710242752036625 0.16381954229413598
0122002 0.839590039659495 0.5458564309461108
0122010 0.4288260025201077 0.9153166141989616
0122011 0.2867588981254203 0.8855386764436282
0122012 0.36760264642504803 0.2186550935476027
0122020 0.6413566482639922 0.0824953758707091
0122021 0.654514204259025 0.5535343928601129
0122022 0.07671550241917091 0.775069958357781
0122100 0.06556646739205507 0.9163883995369425
0122101 0.6181912992776019 0.31384026121218156
0122102 0.3100702499845345 0.8867041721284772
0122110 0.47957721079807936 0.8128797466116003
0122111 0.6563897815447948 0.6790217454736472
0122112 0.6884418546813265 0.29094088282176134
0122120 0.9488230327675294 0.9797042553843428
0122121 0.9584605912671896 0.9438131525105805
0122122 0.25097546435193185 0.6368093251941038
0122200 0.7920852314176667 0.22507607678700725
0122201 0.5654138114003225 0.5302548162211327
0122202 0.45344718995440303 0.016218669122319507
0122210 0.254415281108028 0.29901723450063655
0122211 0.10781577231455486 0.1387942439174238
0122212 0.16741688979408986 0.07641402225406446
0122220 0.07870751766414441 0.6392653562674366
0122221 0.8270232565316181 0.35297353099113915
0122222 0.3146967305447831 0.02157211137195747
1000000 0.1914852815136363 0.6697537454856565
1000001 0.7840899515167394 0.6894381693192507
1000002 0.8191594723525902 0.6544090127909599
1000010 0.554738901001726 0.2460071556221286
1000011 0.6468992084856842 0.3092754332038046
1000012 0.9732557914289958 0.7615460548926121
1000020 0.9697658304023696 0.4372283384649729
1000021 0.7443134966843862 0.05942261041581154
1000022 0.5651755321977872 0.7497103408471882
1000100 0.7916445346104459 0.6458584935382102
1000101 0.9060989113958862 0.9945519889223672
1000102 0.17777292107038545 0.10066859466559275
1000110 0.9458678552926951 0.11225078052717319
1000111 0.5152160507302384 0.4152515075537032
1000112 0.6003471104559998 0.6876560363699379
1000120 0.12821110792931445 0.6613870717582833
1000121 0.9715183653547691 0.2689788203431869
1000122 0.1265629093948627 0.06094872527797601
1000200 0.6025521758607728 0.3818188845117829
1000201 0.42707371881084244 0.6953070167177621
1000202 0.7164467007732429 0.48968521011148747
1000210 0.7454323162764297 0.2892053468042176
1000211 0.4760107021216553 0.11798252574688795
1000212 0.5650943366390192 0.5416391802482341
1000220 0.9885845593047162 0.7951712904664369
1000221 0.28506260608000766 0.6447419087952088
1000222 0.09183176730509013 0.23238649998671967
1001000 0.9882314551216405 0.6277190017831982
1001001 0.538010044686449 0.16783468991265305
1001002 0.9367174997588987 0.8230074201195717
1001010 0.40559213242648984 0.9327685928418492
1001011 0.7861846047924677 0.9577075619091817
1001012 0.5099510735919413 0.07558562244650069
1001020 0.4249841078052051 0.866355735103472
1001021 0.6416298439560929 0.18560817631652748
1001022 0.3220142627179742 0.2487868226461193
1001100 0.842167897344533 0.8484338781402063
1001101 0.2244872579111743 0.876985512719608
1001102 0.8588237880214705 0.8098638425549259
1001110 0.2062516272049223 0.6458192969880957
1001111 0.8814854927741974 0.805102125096059
1001112 0.88963282088479 0.7182314470462189
1001120 0.8251448700488135 0.5765260420239983
1001121 0.4017476436242283 0.4871107885683231
1001122 0.20512345829401035 0.1018706950987539
1001200 0.29182607136143035 0.31370856743077313
1001201 0.5974842550495909 0.5610307920452138
1001202 0.8198948714413261 0.0524633709968545
1001210 0.6983560546021396 0.7822965113460936
1001211 0.38790265187917106 0.32241599261387044
1001212 0.454335446323469 0.691644093836719
1001220 0.28462408759652613 0.8661251734973905
1001221 0.23733224831619248 0.3564726068901516
1001222 0.5914362463288254 0.20674326388965647
1002000 0.24924989042196666 0.9268647515620229
1002001 0.2032684196325638 0.08461032553243542
1002002 0.2735383840369281 0.015797671458200213
1002010 0.656683570534747 0.005016169098601364
1002011 0.9185896155725377 0.3487294206823166
1002012 0.5430065311128106 0.570897712250838
1002020 0.7517788146738574 0.9018511879609392
1002021 0.7691419033314519 0.525641397595326
1002022 0.05807718321667865 0.3789256755011361
1002100 0.4419822630135938 0.14525873213289497
1002101 0.29253343866345327 0.14951519525413925
1002102 0.7879090802116638 0.7503818313080706
1002110 0.7402549916729153 0.10364738741938861
1002111 0.00807390132414254 0.7568380099502567
1002112 0.8541537756827037 0.6532253475781646
1002120 0.26666779128573515 0.9281826202465171
1002121 0.21839487038754002 0.9963166218309127
1002122 0.7146460875571081 0.8093609319102278
1002200 0.9854497711934972 0.15670430683852699
1002201 0.11689226846587986 0.3167012022870589
1002202 0.492992503249587 0.39770197061402013
1002210 0.16906560276870775 0.15622929270525632
1002211 0.6646103108455437 0.7043201826479543
1002212 0.5437917760743409 0.7322501912064898
1002220 0.9282996737278858 0.6257971230786962
1002221 0.6393285372458839 0.8697245443741494
1002222 0.32128303855391294 0.5655974853037335
1010000 0.2986263573080665 0.9130664205541793
1010001 0.41463913340841174 0.0850978398465706
1010002 0.8051244907109907 0.9949835162757822
1010010 0.05273740372553981 0.08526112962052845
1010011 0.5084011533232133 0.20533206016913352
1010012 0.42806906636292463 0.7489554665027414
1010020 0.29714566001578246 0.978013350765752
1010021 0.2715193275118447 0.783084136383855
1010022 0.6920281806347786 0.7028116182641913
1010100 0.06638098408434545 0.050539941170035574
1010101 0.16709182690834845 0.2663168892471365
1010102 0.15406372498705945 0.6683440728353838
1010110 0.9166874606810299 0.6676562109973003
1010111 0.818438801268838 0.07949351275195682
1010112 0.04762517415738299 0.5347653121142774
1010120 0.2619281607322701 0.5419760998414829
1010121 0.6169409422678566 0.3996037578852317
1010122 0.454159306536259 0.08937130104807833
1010200 0.7849080682773584 0.5454753062436571
1010201 0.8315244722456727 0.2700107713678639
1010202 0.7899523431970421 0.6362559481938255
1010210 0.45876056329952875 0.16358901985243068
1010211 0.1536074187616202 0.9906980004980188
1010212 0.9508724637998366 0.480288684602737
1010220 0.9644636401120833 0.1531124808288733
1010221 0.07319776650844267 0.6035878443214873
1010222 0.04178311862133455 0.4153217695467677
1011000 0.26501466780690686 0.25930824967070754
1011001 0.5156803186320326 0.7104587223226063
1011002 0.5104106877537131 0.8942123699291489
1011010 0.4960983020988615 0.3279632249758745
1011011 0.6802155192424594 0.43640448927068154
1011012 0.3810007226435902 0.24513572866453814
1011020 0.38711335333409036 0.39676502209834574
1011021 0.7517259342137891 0.39649607793067465
1011022 0.32510478101803497 0.8672874323212693
1011100 0.5696791523854187 0.20425468139171787
1011101 0.7114165744432691 0.15514997762409133
1011102 0.7918671165560046 0.8846271366486305
1011110 0.5892436501025158 0.307697411671473
1011111 0.8712916339218273 0.9010714928060425
1011112 0.040004239281071774 0.9678773287310447
1011120 0.37811881404529335 0.582574764492422
1011121 0.7366638857329317 0.2733702803814603
1011122 0.16767672907611753 0.31131287105333505
1011200 0.7927003238015901 0.7072493230573973
1011201 0.38438626569597223 0.47226213131201855
1011202 0.8927594070338977 0.20385892175266307
1011210 0.8240882157530249 0.9781762598338711
1011211 0.5496744785268873 0.3630247099490924
1011212 0.9955861687819904 0.7496881938895633
1011220 0.8980892149441376 0.920152873336732
1011221 0.837497980450109 0.8093069847255291
1011222 0.6964624144820114 0.48528392365845086
1012000 0.9215528334927365 0.7433735407907572
1012001 0.4213753297656455 0.8737822612898242
1012002 0.18673797879944498 0.32374980909976847
1012010 0.7713679977695888 0.737623844295463
1012011 0.47992051589045226 0.2802942980791887
1012012 0.10119069485493704 0.5203299911996655
1012020 0.7187659085071223 0.7938435939104991
1012021 0.8858823474138545 0.9912302232201694
1012022 0.8003782641503518 0.9200829107847333
1012100 0.5810739280804612 0.14041071616121337
1012101 0.5851206526525323 0.5757775066662938
1012102 0.40659646235349134 0.12233727521311133
1012110 0.8922351702535819 0.6136129628516163
1012111 0.8931428821381104 0.8075669954257844
1012112 0.15074141449978762 0.44040092512881823
1012120 0.38179475163972987 0.3801146876428194
1012121 0.4312852600900212 0.3946319323164832
1012122 0.12230937824729671 0.5507077761436381
1012200 0.9368247896935195 0.8983381983736859
1012201 0.030108382548990842 0.08163253872002418
1012202 0.0657535347619318 0.07745436509246773
1012210 0.5990635515442666 0.15529550009851234
1012211 0.6386313242079824 0.9032515498377173
1012212 0.3006603792411805 0.921102636053037
1012220 0.3014156140102252 0.15469892801666885
1012221 0.2707381099737113 0.1843500233670654
1012222 0.3909223541307485 0.6287746575192888
1020000 0.7250758970513829 0.29005221887531274
1020001 0.8233709983179998 0.7725568015327502
1020002 0.6745896050346412 0.25478763408737737
1020010 0.5705329453816772 0.34351178292892226
1020011 0.16351014284114174 0.43165908334007164
1020012 0.563011826698535 0.8958441006464898
1020020 0.6511218673277436 0.9806691220946991
1020021 0.6077152080643022 0.9659607567393862
1020022 0.7113773739515278 0.35282224661019945
1020100 0.7655462802177581 0.9234838838953074
1020101 0.5900466151213304 0.5973902612766527
1020102 0.5250812244953914 0.35381915046022905
1020110 0.7162091707613394 0.18600336317019073
1020111 0.5016516994335084 0.17053634254190264
1020112 0.998109886872547 0.8126043356848757
1020120 0.9797282742002996 0.945324846611941
1020121 0.1396183525946374 0.19942284365343454
1020122 0.5711053867183904 0.8499988301564574
1020200 0.12724145110424712 0.10137163830803342
1020201 0.335701902746799 0.8645081790618825
1020202 0.53102161186528 0.014699836531992805
1020210 0.424160416799621 0.4067086412634895
1020211 0.4282655230293424 0.8735113275847239
1020212 0.20806183425862534 0.49141860590842323
1020220 0.9948044622221176 0.8576859029126179
1020221 0.32132972964136375 0.3169468659392749
1020222 0.5015888770020968 0.14219224049732326
1021000 0.3516849798892824 0.026832492088147752
1021001 0.9606221398677368 0.45373119967716047
1021002 0.7236001309247341 0.7326050936385058
1021010 0.06620650179434318 0.9830488847379607
1021011 0.9607467758758815 0.06960851609404428
1021012 0.20821058411168325 0.4666350070463531
1021020 0.1865467278429359 0.5775648233944393
1021021 0.11099324461153048 0.20470329640472418
1021022 0.18826723660322264 0.7321091107367153
1021100 0.15577583831979447 0.9151458798814781
1021101 0.6758216197976481 0.6682044434844097
1021102 0.8953749792933345 0.9656820129134007
1021110 0.16849843516839402 0.6707354726128145
1021111 0.5070626365640541 0.39978259642047154
1021112 0.03871508110462363 0.3794629453619893
1021120 0.010273953256324408 0.5744520311684488
1021121 0.24639773764926942 0.01801053434647837
1021122 0.6951593876016411 0.08699902954532468
1021200 0.3570081195436817 0.9050747782365335
1021201 0.7348129940823994 0.6051377722518808
1021202 0.3009102391241515 0.07293115491924718
1021210 0.5598300255758711 0.22495383654134093
1021211 0.07062132302467439 0.7913958623298919
1021212 0.9106277728908296 0.013760726100123688
1021220 0.5725697065877979 0.3531632719733424
1021221 0.4496726868147013 0.4978932848243076
1021222 0.7470813250391439 0.916444694435135
1022000 0.4001444015645941 0.5423410144359193
1022001 0.8628390218104357 0.5182956540670268
1022002 0.56919174500516 0.08990485237288992
1022010 0.6156954009841507 0.8531372248948869
1022011 0.29158050704454797 0.10094764792472755
1022012 0.5873307460268141 0.3396309241212677
1022020 0.1737356881449431 0.9879717249671134
1022021 0.02963216189162976 0.363327087976661
1022022 0.2762054499883577 0.5010026971588196
1022100 0.704194713508407 0.09996302135087476
1022101 0.9514397729519287 0.2757269143972302
1022102 0.7165756839234187 0.4895867188955747
1022110 0.10264392629350871 0.6999928339834657
1022111 0.1146749154787361 0.14361944353308542
1022112 0.7079885827624554 0.17552292198280073
1022120 0.33766006279791205 0.25713422502499605
1022121 0.5201490681280816 0.841540792522087
1022122 0.21905364051802811 0.49132583339309
1022200 0.43545708944251105 0.9628538563168411
1022201 0.786217630973406 0.6348980557252143
1022202 0.4109425678777099 0.29456441844772097
1022210 0.09086835053073594 0.57373099902036
1022211 0.7258200743641 0.11554852494684675
1022212 0.05865454745687759 0.30166094986471026
1022220 0.4056585293617979 0.8482592549874084
1022221 0.8224662085243218 0.43219639498313167
1022222 0.02414523525642076 0.6677705615059918
1100000 0.4348402093703987 0.3043908010157743
1100001 0.6198061735165048 0.7159620506753759
1100002 0.10622891847468807 0.4944867559651116
1100010 0.10345647457946539 0.4699124408917422
1100011 0.27169129339837406 0.5217976792575951
1100012 0.9651581505932534 0.2538559192177302
1100020 0.399217641500078 0.8055842443600261
1100021 0.2726536979967972 0.22541380949190015
1100022 0.9703036429789132 0.5399355586956764
1100100 0.31629800734967395 0.5171028457244594
1100101 0.007268767317456626 0.04292255607593731
1100102 0.7949086531403097 0.9318731197775979
1100110 0.6725012738284393 0.042120688449241106
1100111 0.4260702014377362 0.8351419581339375
1100112 0.43921951920056823 0.4066011821420522
1100120 0.33797937116273535 0.77432684271696
1100121 0.5557052926986599 0.8075513711601084
1100122 0.073079396408948 0.6455194693801045
1100200 0.3945973366415594 0.18243628020839153
1100201 0.9889834572874544 0.8520907088836752
1100202 0.06109263208458704 0.9148401488636402
1100210 0.7782377780114318 0.4812079917666139
1100211 0.8213627905695604 0.5867525250261544
1100212 0.19564039747737527 0.447968880978311
1100220 0.20101678724828653 0.00903824036275247
1100221 0.18354353473766127 0.6108862323413995
1100222 0.7409004128642523 0.3414393803990484
1101000 0.7906257429531727 0.5959831123016333
1101001 0.9387012535609232 0.296729036934014
1101002 0.3542636341570561 0.9819039694942566
1101010 0.6168409456959569 0.3058319694009355
1101011 0.13379734110703279 0.718533971951934
1101012 0.9776124086448224 0.15018596465535483
1101020 0.8664688714724774 0.850698688571634
1101021 0.07218707121555212 0.2973721309944196
1101022 0.5045360664115096 0.9797211256454117
1101100 0.8233603330494165 0.9838593644460522
1101101 0.3788270149982046 0.7206749258736823
1101102 0.3723168188210334 0.3183921599318198
1101110 0.5858357984233763 0.21548775469440307
1101111 0.4717576197543508 0.7951435025495812
1101112 0.8717422718053052 0.19693348815691203
1101120 0.6434389250524255 0.019877897548903456
1101121 0.3140013289193403 0.4763646251173689
1101122 0.42863045120493615 0.31259533984042587
1101200 0.11790082709201022 0.48856802851141634
1101201 0.5044257569077443 0.7597450504933592
1101202 0.5489181035863648 0.2400652758877454
1101210 0.30360759053361486 0.9052797167085864
1101211 0.536553124056526 0.3226541578959832
1101212 0.3040967826295824 0.38066545767011994
1101220 0.38513763983873006 0.49322365048411165
1101221 0.43868476174756954 0.9269064093823582
1101222 0.027157111559766745 0.9495773321389556
1102000 0.4778884755215401 0.07639370827736647
1102001 0.7436550782440258 0.17255632782092734
1102002 0.9623748903487438 0.7498207589328248
1102010 0.48491386197330566 0.49623210700308296
1102011 0.22969196343706189 0.26972015240998626
1102012 0.032380576169694364 0.8261013527485733
1102020 0.29726598039233654 0.8320525774987552
1102021 0.21836536622608027 0.4728773806285642
1102022 0.5070835712662954 0.24920120782075383
1102100 0.7292260316048047 0.8152275078341268
1102101 0.792388912124809 0.28624688867108694
1102102 0.3004003954345861 0.04109226392426779
1102110 0.6082493019410569 0.5223824798471751
1102111 0.16430892951215914 0.6807405357127603
1102112 0.9647291564516315 0.28374344974568033
1102120 0.9013775910372462 0.5730623481206297
1102121 0.633513796940051 0.41361880007322227
1102122 0.7375705708218541 0.7039269860929879
1102200 0.9287872438596323 0.4240182624439456
1102201 0.936586790731909 0.5060854031339059
1102202 0.5162913523713175 0.9505811751476901
1102210 0.09177660973117285 0.3498373393636821
1102211 0.10212767806979917 0.34979736718330023
1102212 0.9859983227964145 0.7472428902777181
1102220 0.20322248483518712 0.8432273460904327
1102221 0.7216527306136133 0.1320321031654469
1102222 0.37107861016419874 0.9603500383520358
1110000 0.643572897949794 0.04222486473744458
1110001 0.13117545468901515 0.46495884443173974
1110002 0.6720000870705323 0.06097810845285978
1110010 0.5497923874019761 0.6664700297564005
1110011 0.964499391309395 0.16546053921104298
1110012 0.7454112028220622 0.45431517457584314
1110020 0.6966815746330088 0.15797094189800687
1110021 0.7238563209338728 0.09756078677255597
1110022 0.6322272615510861 0.591278082988364
1110100 0.9471992454888007 0.47938508568953186
1110101 0.002448337661924982 0.768036330167152
1110102 0.22854835855272582 0.22094495187475272
1110110 0.7034148913686364 0.3022702045323704
1110111 0.5792852960883633 0.8948065027730272
1110112 0.2945554163845423 0.5135189551286895
1110120 0.5485687677363419 0.9588019071858702
1110121 0.949343294217416 0.6466009993147169
1110122 0.5345811542276482 0.8646136098018007
1110200 0.22104918491408954 0.4421052483609196
1110201 0.1287635881942103 0.5986699729825546
1110202 0.3672395591556199 0.08017004462131827
1110210 0.5652489190517246 0.3802930990360258
1110211 0.7921332538986913 0.06352331159095148
1110212 0.13889093548341902 0.528887371876485
1110220 0.20045933597243137 0.03650304671633908
1110221 0.25477709947333604 0.7579132188728585
1110222 0.2790842659956484 0.526660557532524
1111000 0.7801490903284424 0.47117844211908755
1111001 0.7032162550091212 0.3966726637660536
1111002 0.84590937934323 0.460843568684124
1111010 0.1306640157347304 0.30920328148560583
1111011 0.8524331432862359 0.17831058503641228
1111012 0.7095813404482711 0.6614999113673024
1111020 0.9609061398758871 0.662799553344925
1111021 0.5990472847228253 0.32723606050320475
1111022 0.17066909602274505 0.26347901317661804
1111100 0.31484996062506576 0.7561353348779366
1111101 0.4340980565969801 0.19116102949503033
1111102 0.09959897683681596 0.21464438520685625
1111110 0.0816255496239604 0.41115308760096025
1111111 0.2734839823465153 0.31682952023293265
1111112 0.41899898008508085 0.3801046472769193
1111120 0.15178525792803477 0.23511987467323836
1111121 0.19892054532216208 0.8694384189801604
1111122 0.9524831486804131 0.13186088470343038
1111200 0.8603857508740422 0.9423355445993071
1111201 0.40536697193181215 0.7258225907644857
1111202 0.3690241255599628 0.8936165128678789
1111210 0.8254161347862148 0.42984026045563883
1111211 0.04539635654008389 0.3462487149267599
1111212 0.8688624922573664 0.5572209368134494
1111220 0.9249865498730848 0.07596808825078694
1111221 0.867553086633083 0.2359323829985357
1111222 0.2612551443188207 0.5550358933618673
1112000 0.02546037749570107 0.4768621882393267
1112001 0.7166671082601718 0.6792864809721118
1112002 0.8662165583388415 0.6837193623238843
1112010 0.12719371090075782 0.08440036408745444
1112011 0.8769981831891922 0.44003355101446895
1112012 0.05557015204338134 0.9416457356723124
1112020 0.020989894594728442 0.4715917992329085
1112021 0.008390655302622618 0.9529510409975034
1112022 0.46929687586286883 0.15586504455247352
1112100 0.6489695786424241 0.6152504614540747
1112101 0.1255946462948666 0.1100477474173529
1112102 0.7396929049274421 0.9726932692166754
1112110 0.8155047394908632 0.2899439961673902
1112111 0.2577457168509899 0.5240248570390964
1112112 0.5972997655262994 0.030822641336650025
1112120 0.19084792462293676 0.5961695888224189
1112121 0.6605417833234026 0.7022892558210888
1112122 0.06201550450865578 0.13161675093065084
1112200 0.1756935682040911 0.22176357983483974
1112201 0.5845318135300025 0.8656723099083573
1112202 0.8525954718978825 0.8899706887599342
1112210 0.6600998479247018 0.0010374332776823536
1112211 0.47655210486515154 0.6862777962574096
1112212 0.09064044582197339 0.12580483660789044
1112220 0.4454239620402217 0.9504993543326055
1112221 0.5042984410158724 0.4690205619377028
1112222 0.9966947880677692 0.9681779791885206
1120000 0.6792950954609853 0.24489454992789894
1120001 0.895872666689136 0.01673945066063731
1120002 0.18657023282606322 0.8938293449547424
1120010 0.9103084162365905 0.37518760232666803
1120011 0.1736727737088377 0.8960283098215595
1120012 0.5852783274015025 0.7575064617307888
1120020 0.2230393165835256 0.2882908611538093
1120021 0.26745870698470486 0.3827643430376507
1120022 0.0963902166309819 0.6644433207342517
1120100 0.3636777907941591 0.9720733001748094
1120101 0.2379064930189998 0.5241651477398691
1120102 0.9550961199874818 0.1375138613865715
1120110 0.46172427599477084 0.3538605974358501
1120111 0.7940325160382289 0.27723406239178694
1120112 0.347611409773823 0.6551782705564645
1120120 0.9248226630289238 0.33022966542288124
1120121 0.6785611808228329 0.8107626612905379
1120122 0.266663557857609 0.38659476967447204
1120200 0.3711462914104614 0.628218848418326
1120201 0.11898792826484916 0.944541695054614
1120202 0.5331116475544382 0.27033933952602063
1120210 0.32526906419521284 0.13579629159178697
1120211 0.9828409863851907 0.548816077947044
1120212 0.03013353406105579 0.15793136499306015
1120220 0.795205164362115 0.6209410352759802
1120221 0.9782098923501718 0.3804697966673437
1120222 0.2909486458626387 0.9003066569860718
1121000 0.9461912569013623 0.5982949620659227
1121001 0.5544861794645667 0.15163735849090976
1121002 0.7636751543531607 0.6277619129728562
1121010 0.8768244250121507 0.3712442363322255
1121011 0.9575516712424481 0.40618828603936186
1121012 0.01111944751879379 0.21055340936746814
1121020 0.9925118391714539 0.6969081956396017
1121021 0.965582493435553 0.06747316859845442
1121022 0.01754557206547913 0.6625975847620428
1121100 0.6037173354488398 0.8440436541593699
1121101 0.5497456951801356 0.5883129359125046
1121102 0.22122701475340723 0.5585660963486819
1121110 0.5917584862980436 0.8172321703098582
1121111 0.6107164891995193 0.9660511796835579
1121112 0.0050626798254875816 0.24300287977596668
1121120 0.5562699555069921 0.8791886206187253
1121121 0.3915508311838344 0.1088696045728822
1121122 0.40232599479331277 0.3669139694314666
1121200 0.9343659362278572 0.7772336831433235
1121201 0.07400385022245215 0.630831267079501
1121202 0.9899807157980465 0.30557066172343084
1121210 0.5149881419476191 0.05473768476214591
1121211 0.33045695175886325 0.8365275398916049
1121212 0.4233721694021739 0.01388879260078546
1121220 0.6744776397746788 0.582790824994439
1121221 0.3772131346908336 0.0016341713902086052
1121222 0.1625150532580355 0.14081568252362264
1122000 0.8310533585729021 0.15284083608290966
1122001 0.12150946563449205 0.6474001831858665
1122002 0.3894237017223936 0.842437069997675
1122010 0.6347077737720737 0.7613616599192511
1122011 0.20491479999534934 0.09175450022213605
1122012 0.8712757580017017 0.46393659709558355
1122020 0.09370740058716664 0.21297142602347863
1122021 0.9208768569193797 0.283254772774176
1122022 0.6676706718853617 0.6453716998448523
1122100 0.3621619712523223 0.1617459585770944
1122101 0.30897626721151183 0.5918861331632773
1122102 0.9815914872569371 0.562092606982217
1122110 0.14324954679593493 0.7179744915781329
1122111 0.8206897131120956 0.6778351859767502
1122112 0.19352401585206225 0.08308632961467222
1122120 0.5803930929768059 0.2443133654343308
1122121 0.7815680097854306 0.7217608718993413
1122122 0.35609577700841455 0.6008456629836878
1122200 0.8166909834516035 0.5547719297687197
1122201 0.3906468679142494 0.8162698675342067
1122202 0.2557908525039566 0.09284995910420157
1122210 0.07740063688798504 0.6469817341533614
1122211 0.7128681881987491 0.4484008041992247
1122212 0.31563581553580977 0.8745212164639595
1122220 0.7321951794553995 0.970490052471029
1122221 0.6340586208390726 0.8122715242942504
1122222 0.9035134015661248 0.5456035753352337
