0000000 -15.043351682749014 -1.1412697047635973
0000001 0.09673993698372363 0.42856799383994715
0000002 0.21219644006232685 0.9858622385241904
0000010 0.07274431058089437 0.7830981944363922
0000011 0.49108428441830165 0.21114435994988645
0000012 0.6657123031842808 0.9816297833276757
0000020 0.17851010798848255 0.6759018235600418
0000021 0.6249764597647002 0.3208024524000024
0000022 0.9863222636082308 0.09586605700441764
0000100 0.2060968122071839 0.010108710040599989
0000101 0.4174923296425185 0.3896881226338961
0000102 0.30279613709322206 0.9858036514394053
0000110 0.05043604835464888 0.523389710284108
0000111 0.15026324671422364 0.378865499427536
0000112 0.44547673225467443 0.521375392452325
0000120 0.19581449052626687 0.9724026005121684
0000121 0.6922463278667634 0.7632412555676443
0000122 0.7168566301034581 0.9080815475025438
0000200 0.9312537686314254 0.3395278613532421
0000201 0.6985727907046332 0.5921992631792814
0000202 0.6827935964607447 0.7142525083466402
0000210 0.20027703438185762 0.38940547095164857
0000211 0.4336352239288057 0.4192039792754385
0000212 0.8971374079141703 0.449530773773428
0000220 0.6079612961628644 0.9925787862965995
0000221 0.2752667211945641 0.42631942151577906
0000222 0.3444403058575458 0.6748842760295453
0001000 0.5347543762461024 0.5494497795431575
0001001 0.9768932101777924 0.4794056243747239
0001002 0.7918727274001941 0.9172988973525465
0001010 0.9786458740969248 0.9919912464568582
0001011 0.1980059902607506 0.3883751851453072
0001012 0.9681674617206353 0.5423161497675543
0001020 0.9663977568457432 0.3603962242232991
0001021 0.8941448508241701 0.7648778968100833
0001022 0.1846942815494702 0.21499731636201713
0001100 0.30942183570179704 0.03906708351788868
0001101 0.6514567196247812 0.3078199376305103
0001102 0.1553815626043853 0.5476798974041692
0001110 0.14326036737036874 0.26810885577410004
0001111 0.5608808360535764 0.3719689026539501
0001112 0.44445413767748865 0.5141044405260263
0001120 0.6794723236061512 0.5730022815790232
0001121 0.02958466329321241 0.6662652765706066
0001122 0.6120033689445188 0.6317090560515766
0001200 0.1335077339980436 0.6141220304815079
0001201 0.7007177970997258 0.3745351391224704
0001202 0.34942148643265325 0.3437581228469764
0001210 0.8116459704185817 0.8215464607330686
0001211 0.22628043128666564 0.7792758487516916
0001212 0.6676276037364347 0.23560325207315413
0001220 0.5506287997613263 0.3195526631835184
0001221 0.49159980389869706 0.7494054167719872
0001222 0.4321861276774219 0.6811233937805892
0002000 0.2067749518764349 0.5988040840886948
0002001 0.1573299614960233 0.11001077675967719
0002002 0.9134138143805196 0.1119646580078194
0002010 0.6625562583321478 0.12258482526243608
0002011 0.5088188936584273 0.9611359491630574
0002012 0.08988506734652091 0.6715480797219028
0002020 0.744439853089372 0.7955119145253401
0002021 0.9342246869818033 0.5133837764227613
0002022 0.2819292272989924 0.25870195747678126
0002100 0.4503497969609066 0.8181028062598197
0002101 0.23983262383484494 0.33184584387227756
0002102 0.7228788589841042 0.9425578681321549
0002110 0.2097325549638639 0.6870272629608339
0002111 0.15466237699544982 0.17343970875820902
0002112 0.25902055884774644 0.8715140973099093
0002120 0.2612898422893756 0.02350985408558326
0002121 0.8208155907412525 0.9563796743236234
0002122 0.3984349734196676 0.7836844619295215
0002200 0.9641245296336579 0.10886718382084537
0002201 0.9882532534578139 0.4911689516370281
0002202 0.9617022027777118 0.7037663600599725
0002210 0.4449878139112934 0.5100148827790089
0002211 0.9301969058916493 0.03417445530656982
0002212 0.8458636851057072 0.9846920503131984
0002220 0.5290721435303077 0.747322724610669
0002221 0.40625138928080373 0.5983460247063455
0002222 0.7649706151588298 0.43727978169410164
0010000 0.37171715506516334 0.9682226177177978
0010001 0.9465720639570868 0.13827024466229298
0010002 0.30191949380494176 0.3611262581086644
0010010 0.5046877371079611 0.19759197649844307
0010011 0.24973553970213425 0.4038841550526021
0010012 0.7712879577188213 0.8009579076576672
0010020 0.053925322177437174 0.984314862529259
0010021 0.2928651983170446 0.6846583548720842
0010022 0.853695199290859 0.5635120222276863
0010100 0.8650414294758106 0.5827870267763076
0010101 0.4981155549001268 0.4358550025641368
0010102 0.6346003572454593 0.2638044498121649
0010110 0.19626236100532624 0.7670420317705323
0010111 0.14046317803039599 0.9201041934413953
0010112 0.48645811347249357 0.27419654116036374
0010120 0.3169695882028247 0.9251628655618918
0010121 0.3911879729413499 0.5556187260664212
0010122 0.0071010667009898665 0.5933453356451112
0010200 0.4701562222995117 0.9728086907192551
0010201 0.47520654457201894 0.30387348926966495
0010202 0.5502946076500064 0.8555626363140271
0010210 0.43648414684488357 0.46603431185793776
0010211 0.1017325776567698 0.8169805545657427
0010212 0.5339635521667788 0.15630984584528906
0010220 0.39591273484338296 0.535556578383969
0010221 0.8710782120426017 0.533428563933089
0010222 0.6574331197465045 0.40102279007259134
0011000 0.20023440507627432 0.48246222960029117
0011001 0.9169207642977677 0.9766181515466302
0011002 0.8455163584347867 0.4652493903536371
0011010 0.25598759340049004 0.7498504643792522
0011011 0.09853842492675913 0.5273289239517487
0011012 0.33530046041096706 0.9678178988230297
0011020 0.5014579384899747 0.36214234140770796
0011021 0.9581051405971432 0.02120022553352352
0011022 0.01368571976210231 0.16141054920692544
0011100 0.4586833602845659 0.35224621030346015
0011101 0.5732945746350325 0.8042689323716727
0011102 0.7512515231984574 0.8730925876497468
0011110 0.8067697064426083 0.49845929576362413
0011111 0.5354900070770792 0.2238128529236867
0011112 0.45043005956425597 0.307772803337538
0011120 0.3204750468002847 0.525735891826908
0011121 0.09696963978183004 0.835706355484507
0011122 0.5693358396135397 0.31204468959097653
0011200 0.5357386529390245 0.11458749934879675
0011201 0.5813277641303908 0.3099299592433684
0011202 0.5710663564014217 0.8439653803174967
0011210 0.04658711858237086 0.12827070816524455
0011211 0.11071879437934085 0.4210919743049225
0011212 0.5273087161363513 0.7659890125494683
0011220 0.510553977645034 0.4897631243937267
0011221 0.7884802875096351 0.8791171974298093
0011222 0.13259407704125903 0.6794678102230518
0012000 0.8269076372905846 0.9912307563977055
0012001 0.4725668293014207 0.05823071817813075
0012002 0.5886601736289934 0.5933582891748783
0012010 0.8508836633806381 0.5431190850118471
0012011 0.5403174881676682 0.45023533131249716
0012012 0.38432273876025 0.27725494655742966
0012020 0.584302588850451 0.2625699586719058
0012021 0.4123170698455674 0.38765465375166264
0012022 0.03483086347268849 0.16064489990422615
0012100 0.6922520483571679 0.8561081961807134
0012101 0.8315654416475139 0.47871730328952844
0012102 0.024443367141147254 0.8783255850533763
0012110 0.27746603124515046 0.2637001012632172
0012111 0.6770400074754843 0.3038261322468023
0012112 0.2275682924916972 0.4237410596607333
0012120 0.18030629814527233 0.5726447928975439
0012121 0.9259681776300809 0.9231492461269152
0012122 0.7335022161566696 0.1736671201948794
0012200 0.6736185838709557 0.8107126121831644
0012201 0.10989971514966157 0.21048000615117524
0012202 0.7256610996610551 0.9202537512339921
0012210 0.6140718424877738 0.3252298783845743
0012211 0.34478714053874715 0.5370274633133578
0012212 0.4873383515450056 0.9708898906561274
0012220 0.9904234631995846 0.20988912045685748
0012221 0.8133494785436016 0.026814896168453117
0012222 0.3885893732917567 0.9501967122210698
0020000 0.08030928309259089 0.33468133167924463
0020001 0.8716928973350146 0.07329675855461348
0020002 0.987312363940344 0.4314918953951493
0020010 0.11195476700626072 0.15409276390571525
0020011 0.7014251407986726 0.9211585124544772
0020012 0.24530991259801982 0.41463439277012515
0020020 0.4995439377510301 0.20267285238953847
0020021 0.5427037086295414 0.9678171034206097
0020022 0.921017357059021 0.38651478802082173
0020100 0.6711391148074872 0.01185117719786899
0020101 0.8103633623706946 0.42627026976636506
0020102 0.1412736156409874 0.2958114812340472
0020110 0.9767544478143125 0.2888243638253042
0020111 0.40266379912419614 0.17370178323564234
0020112 0.7132678772022736 0.5675627471145516
0020120 0.6188039677176367 0.07435275766084826
0020121 0.9374156868313726 0.9543711874119104
0020122 0.06357320644847908 0.45851204465922524
0020200 0.18970444506351347 0.5245373239139417
0020201 0.15543789806970887 0.5096937222470922
0020202 0.28099889318578564 0.5002786654468196
0020210 0.32562539129413093 0.30065922666357914
0020211 0.9991235526767068 0.14917865304471356
0020212 0.4921230594322399 0.17689550069596616
0020220 0.6759458615816706 0.032581815390486324
0020221 0.5103863727757453 0.6509441425276926
0020222 0.564174272988775 0.4163309389107732
0021000 0.755731995514623 0.9723836041991284
0021001 0.35634000189443715 0.8683583447290718
0021002 0.5962130743214583 0.761916330134496
0021010 0.8224557366630217 0.7845851064219289
0021011 0.3830074077158542 0.4760054530260629
0021012 0.8378340057149503 0.15555524924224373
0021020 0.12739543883741178 0.712987823453146
0021021 0.0046703751313903474 0.9620319542064254
0021022 0.8310287360687549 0.48950579437169195
0021100 0.19697565690406238 0.8978355864758951
0021101 0.6983644493748562 0.6782581198288096
0021102 0.9666319722488744 0.1653943244959578
0021110 0.5944693866335362 0.36819710954310114
0021111 0.5808069696600314 0.21876833011555596
0021112 0.2375252115136044 0.36614765960224804
0021120 0.36363983163622815 0.3633682197006529
0021121 0.03134069275893303 0.6645509879265323
0021122 0.8420364872059705 0.7937386099301718
0021200 0.22214794650551295 0.549519690194224
0021201 0.9253500292224375 0.1312408899428391
0021202 0.0436035477289457 0.12812260139723097
0021210 0.48725002229697134 0.7291440172069898
0021211 0.8142825047882969 0.9296882311687895
0021212 0.8003612597657962 0.12675848201342943
0021220 0.36435506121768557 0.29566658303192994
0021221 0.8250797866293439 0.20570088843014
0021222 0.2917916833170283 0.2687692185283985
0022000 0.015402443145747569 0.12505199509382914
0022001 0.24115558460175934 0.9408954434740834
0022002 0.13012417016816313 0.22807636968908962
0022010 0.25619070454802273 0.3950820790061711
0022011 0.5757840067968127 0.8947265519119549
0022012 0.1206589600689365 0.6569644745451183
0022020 0.1272679589688287 0.09231283493352116
0022021 0.6744392523640127 0.4690119256528732
0022022 0.4494383779960893 0.7394832186509983
0022100 0.00884818806197396 0.996223018046198
0022101 0.6396841475989395 0.3206369187215422
0022102 0.7847070889490344 0.6750250293374171
0022110 0.01823239574549984 0.9837300961179755
0022111 0.02116895446867273 0.9257278430735225
0022112 0.640356303961546 0.49872724513796485
0022120 0.01100370284679919 0.4435040708379031
0022121 0.9628161556500436 0.8776929793987468
0022122 0.054496759146186124 0.3780013889151378
0022200 0.6159877147901124 0.2783714659068568
0022201 0.9219134153696478 0.04310523664086796
0022202 0.9025120698743193 0.3576473077712462
0022210 0.27931793799965676 0.48980148764089304
0022211 0.09644362392898187 0.39223519007709173
0022212 0.9115915843942474 0.7126195393723539
0022220 0.2500934038785967 0.6840692302037149
0022221 0.6396671788969677 0.7673007581023725
0022222 0.3930391103730485 0.9346177916531315
0100000 0.36043506236078793 0.08122318611446233
0100001 0.9556230073900097 0.1613281318891039
0100002 0.9780622065693167 0.6314930288190549
0100010 0.17343855512263617 0.7929588190128444
0100011 0.4896116139967407 0.17908477518023813
0100012 0.2915164863166647 0.8113505277651355
0100020 0.867395935788523 0.785412225952437
0100021 0.8688411441968051 0.3496948792273643
0100022 0.6137720918616109 0.5877709873787074
0100100 0.623026421283857 0.93313771975345
0100101 0.8855835303898028 0.15836401532214128
0100102 0.36121105099955597 0.5075633255573573
0100110 0.2722475245829007 0.08775987596691248
0100111 0.6144220150151631 0.6588791616232984
0100112 0.9178375470869599 0.062448685470279375
0100120 0.2321353518066568 0.05351115087408642
0100121 0.6626775452234024 0.6029088429795416
0100122 0.7849382969155886 0.3474604283261524
0100200 0.3758052502039053 0.2397981712975521
0100201 0.34281335374842703 0.6407292637471594
0100202 0.6512315744677213 0.6321368472796911
0100210 0.9867121185662383 0.6053259866367282
0100211 0.05431096080853948 0.2135920600083766
0100212 0.6738892575290105 0.8368714924054067
0100220 0.5890142774877557 0.9370436336495396
0100221 0.9012095140514621 0.5301190479964277
0100222 0.006873552584961251 0.37605205558141985
0101000 0.7802817140083347 0.7434331654420498
0101001 0.13670602768853335 0.023061627645064253
0101002 0.19175533719015458 0.6062479173051197
0101010 0.9721274743130796 0.3658502604028847
0101011 0.47096412502252194 0.6789907531923134
0101012 0.3956129335723285 0.050958208355579515
0101020 0.3800808810446712 0.6738015670464564
0101021 0.45547512470889595 0.9635863564602879
0101022 0.6398072166725435 0.11966207219867109
0101100 0.9704335663780927 0.20612124618337668
0101101 0.6261095325638909 0.6885104315285264
0101102 0.3887160987394228 0.2075875705269673
0101110 0.6370234756922465 0.5205147683446371
0101111 0.2960343949684495 0.1618846490206941
0101112 0.21640724788804044 0.0671951844895553
0101120 0.2786150592651375 0.04447891480432731
0101121 0.8197498357630462 0.34150266260429063
0101122 0.5270259138780384 0.47794753206380036
0101200 0.44599640543391883 0.44218102714216656
0101201 0.4666322273732425 0.9456023100487869
0101202 0.46198486178822507 0.7396465496306476
0101210 0.599654487829898 0.6558125114845689
0101211 0.32806193617660107 0.02315338563043634
0101212 0.32373944371219 0.33726895699716863
0101220 0.8601752465882104 0.39014782212236176
0101221 0.08162365128672266 0.915456867174042
0101222 0.26232883871675783 0.021800239825798484
0102000 0.5003612925992164 0.4571481437161754
0102001 0.2035299280165649 0.25662340506522197
0102002 0.8416344209111746 0.6280883040687035
0102010 0.71049579766588 0.6604174982939933
0102011 0.8446198757986826 0.5130980130333415
0102012 0.8353281046350192 0.5308150892569181
0102020 0.8939595478172004 0.5257199533718525
0102021 0.37111145530014367 0.5887155832242615
0102022 0.7682244296745854 0.9282722327176117
0102100 0.9609394398454596 0.7008144658945238
0102101 0.6856408501560025 0.11835414027902746
0102102 0.05882341386869261 0.6489969925713854
0102110 0.3032957704423499 0.31194741470965026
0102111 0.11885333349689398 0.46403274935991257
0102112 0.48123785805498476 0.11762194902052858
0102120 0.2694698937362865 0.9440720679734729
0102121 0.2617693337383157 0.8529637861202032
0102122 0.6701578303023 0.8037329033801912
0102200 0.35468108066452064 0.21479928671552506
0102201 0.9440074505570741 0.6491637289272707
0102202 0.16755381814997738 0.5775310733792115
0102210 0.6452017990573109 0.9865152735486304
0102211 0.21179433622802124 0.6439903955941816
0102212 0.6804744002136885 0.020974019746448302
0102220 0.29711781863384723 0.8710612067627183
0102221 0.12002765510852187 0.02976324450533041
0102222 0.594287373438115 0.21695523769972125
0110000 0.38074341742210094 0.5861388441876882
0110001 0.21195203147338004 0.09644910701558707
0110002 0.3432582531452848 0.7115221881648335
0110010 0.052387775196195085 0.5984448222403426
0110011 0.0054113105938069506 0.66368255403714
0110012 0.17062520111418644 0.857730214214843
0110020 0.68044345705795 0.22670202600958667
0110021 0.21169963638649025 0.15618336696247848
0110022 0.5109647315180696 0.6506279512626701
0110100 0.007260276746697714 0.8647488994395444
0110101 0.5563084665140706 0.6737179627358547
0110102 0.5733775006783112 0.026156749975779436
0110110 0.43934602181146787 0.33087930959935474
0110111 0.09384407378467796 0.4373344131162412
0110112 0.0685385935862628 0.6692405285124996
0110120 0.9408648222538536 0.8861728356310152
0110121 0.3095290772021785 0.8613898716585882
0110122 0.028066467707924536 0.34387348089549263
0110200 0.7717649056595137 0.7138457611539033
0110201 0.2664366036650787 0.6054920932021428
0110202 0.8697759167361478 0.7633653594691437
0110210 0.2564510414635498 0.8999655515390262
0110211 0.6008214779017571 0.7035194160255659
0110212 0.7102408424291076 0.15148453208068957
0110220 0.7489391705125186 0.9164919414462768
0110221 0.5193842346999155 0.08280062291738322
0110222 0.4023203554853446 0.6449109013681125
0111000 0.6119564994219293 0.05171844064430575
0111001 0.2429974195194421 0.950068166424032
0111002 0.9847326175785096 0.7969025119944386
0111010 0.006982460704287652 0.6166916860555727
0111011 0.8087555506226114 0.43027065371679696
0111012 0.6809712978139004 0.8394761166560958
0111020 0.6525405134478314 0.2513711950578038
0111021 0.4016628872892304 0.20354989995485084
0111022 0.6525225721295373 0.47580647752877203
0111100 0.9280348351150594 0.5967442669519492
0111101 0.4157846175837061 0.46652088939729053
0111102 0.03759821692917198 0.5343610274147437
0111110 0.6442655779250457 0.20852947995478932
0111111 0.3474208235775206 0.14318847033587412
0111112 0.29334372268316267 0.7723693035013335
0111120 0.564277910358482 0.0954908443596717
0111121 0.09633467570943222 0.9555387836361977
0111122 0.0127981834518609 0.6565992350915679
0111200 0.8057437620948157 0.3260699017581481
0111201 0.7415126205416861 0.17272836744269648
0111202 0.31819313561349916 0.29531157611369396
0111210 0.2593784123930276 0.12707637814112804
0111211 0.342874338797315 0.8398947706365759
0111212 0.055945420023514436 0.47737975139612754
0111220 0.039641676916547075 0.07513731021728387
0111221 0.25103432172277595 0.3199661491414184
0111222 0.01276859032898281 0.07698922548209852
0112000 0.3458040074747558 0.3912044877040568
0112001 0.4938906095593498 0.9840862839522643
0112002 0.6933531554530034 0.6525164019382153
0112010 0.6060318602925031 0.45454315604317785
0112011 0.31270655194059493 0.48408134765697686
0112012 0.24462174309044116 0.8503335943718836
0112020 0.129987957961188 0.5927750698635409
0112021 0.13208813420273935 0.3282683295006741
0112022 0.11443226255416272 0.007165202635830981
0112100 0.769431145017368 0.14296799688112682
0112101 0.3203289812834712 0.665995088392853
0112102 0.36843338099185274 0.8327536853358003
0112110 0.7984911073716533 0.7479394730963906
0112111 0.8307808427564586 0.9601384296289097
0112112 0.2361116435253825 0.19620270937714313
0112120 0.6588269233885212 0.04705790917330965
0112121 0.07015817980648875 0.18727126471759858
0112122 0.23757717436678405 0.8298642433803959
0112200 0.38466391650486575 0.6467113800719013
0112201 0.9681286288683171 0.4208328268862167
0112202 0.8787563434369963 0.8545589995199727
0112210 0.4484168006659497 0.09925859104897816
0112211 0.2133522228958551 0.9404918112434616
0112212 0.0040103081605339375 0.5727569127797499
0112220 0.7088976263015898 0.938056146138691
0112221 0.13235975600000016 0.6740315906603701
0112222 0.3701133327062883 0.39413202925243096
0120000 0.021665364169697443 0.3838746873112392
0120001 0.6327428359477747 0.20928099653567822
0120002 0.4962381621785734 0.6639295622799267
0120010 0.3507297016831763 0.9062136436153709
0120011 0.024014507954384978 0.02797931033429335
0120012 0.3210852827897306 0.9424780940964388
0120020 0.2757924842328979 0.17961206111584505
0120021 0.7527476969749197 0.46770017166856104
0120022 0.43157689391993126 0.8033345017068243
0120100 0.7496611007712651 0.2619356416478036
0120101 0.4501211792155918 0.5376126093922338
0120102 0.6006318003152075 0.2196248729250726
0120110 0.9698081270642537 0.5406598010226371
0120111 0.4336624557694706 0.5947900096789323
0120112 0.2705356593600121 0.4613299763405577
0120120 0.6827691596167409 0.21251810796565518
0120121 0.10915547491918787 0.6887407562360717
0120122 0.5926180325589473 0.4006472920342854
0120200 0.9268479954744245 0.8138617460226673
0120201 0.4964221819083119 0.3936222318860516
0120202 0.4441529716096283 0.3566411404688362
0120210 0.8761808036561053 0.16914785886043626
0120211 0.43440206557632755 0.725271066890112
0120212 0.19289785332195275 0.7235071351427479
0120220 0.3314266491212917 0.3423589892884401
0120221 0.4349073558506732 0.8967963538576553
0120222 0.4311839989933193 0.3645101275302569
0121000 0.009802649746264214 0.8983723842531697
0121001 0.8534414740638578 0.0911695440000031
0121002 0.7522106752982388 0.6811662195482395
0121010 0.08652652382866999 0.5645569775314383
0121011 0.9074221435386186 0.7305270488533963
0121012 0.5806965678624794 0.5907020945592352
0121020 0.937576351252847 0.22636926177256878
0121021 0.5655309050236915 0.9946700201501973
0121022 0.06751539243483384 0.006234143963029681
0121100 0.747259748725538 0.5540103311185436
0121101 0.509505993577681 0.7418945974705989
0121102 0.2400467995553398 0.24881138481984677
0121110 0.11864679816153656 0.6913946198035855
0121111 0.9818758430746832 0.2895714774379303
0121112 0.5532836476313521 0.9589675346209551
0121120 0.23630178988868733 0.9523650249510995
0121121 0.2546080147643439 0.04333489957042769
0121122 0.2610189211685906 0.0954030562147744
0121200 0.5634386050995341 0.19766105571005144
0121201 0.3042641317309739 0.26686525581075204
0121202 0.7589354636106375 0.8166679475114175
0121210 0.7694363436657752 0.011199016011134266
0121211 0.46791751844072493 0.6417634725075798
0121212 0.5321262503199269 0.18481925106412866
0121220 0.9707106140236594 0.6738435967353055
0121221 0.3733435566478013 0.13667661808645615
0121222 0.3073720449445563 0.19392949679323557
0122000 0.9028938163945378 0.6993216863369559
0122001 0.30086977187884645 0.7968330186453562
0122002 0.44709273600378163 0.5077185154833143
0122010 0.1677468236255938 0.2923423097522809
0122011 0.26576281422560777 0.23574447921393782
0122012 0.09409430178624567 0.7182685651599362
0122020 0.4381004917668764 0.8479183439177607
0122021 0.5050732846035308 0.7905928733101869
0122022 0.37445114324561757 0.8884210316671302
0122100 0.8175524787692682 0.006142288414326513
0122101 0.43836005550742885 0.3303960498368921
0122102 0.0519373913886485 0.9056923766734444
0122110 0.0058942066563163475 0.024853440411113037
0122111 0.1384477661919835 0.296424186318446
0122112 0.1865080668947554 0.3238336877717969
0122120 0.7102169725186025 0.2541324208263762
0122121 0.08513264322364733 0.8857692299619669
0122122 0.7114857044288359 0.15761178142644572
0122200 0.6533080385868238 0.7950402186371164
0122201 0.8457993043944873 0.4972493008254072
0122202 0.020112695284131954 0.25832671085084014
0122210 0.7481230268769355 0.08528224368930437
0122211 0.9348541719739974 0.5368100412806438
0122212 0.28579918461653353 0.23477403382673356
0122220 0.7187325184402849 0.774944142884183
0122221 0.38605835065928806 0.2716049627681151
0122222 0.7160436431827925 0.6257484304852443
1000000 0.5185889392507314 0.849617263750318
1000001 0.3024340918169742 0.21565714412963488
1000002 0.6643982325606826 0.6927400318843204
1000010 0.07938472041970102 0.08876194679535676
1000011 0.771282387278274 0.7663230052400498
1000012 0.9340272752194836 0.4895290361664063
1000020 0.8205274095695975 0.41355510312384536
1000021 0.37081816104846443 0.2517402468725545
1000022 0.33254175304612577 0.8056857391350796
1000100 0.3721987461370593 0.9717140689456831
1000101 0.10037457733659294 0.9667589039955834
1000102 0.4424677836708615 0.2872172524134571
1000110 0.3799129017547189 0.44761269188850406
1000111 0.8100941789969699 0.5972052911785971
1000112 0.04128959730503112 0.9702657800697828
1000120 0.9817581076899168 0.7430680223849487
1000121 0.7473610449108404 0.7085693965864605
1000122 0.9562146243904776 0.01004837222330024
1000200 0.10540703484580971 0.834428820731109
1000201 0.6866108882788973 0.35915851206597016
1000202 0.3985491271757896 0.6950620036076758
1000210 0.7525411019237538 0.18703368045824154
1000211 0.3313279618930054 0.7799550830966492
1000212 0.4414141868434357 0.3345705927489475
1000220 0.5224125333741141 0.8583011045614344
1000221 0.7152340979890439 0.6276541588332526
1000222 0.04870329097252901 0.9768527828427881
1001000 0.881109589055214 0.22818947629345365
1001001 0.6536910448173378 0.6059976991419422
1001002 0.28851148511165536 0.604048484156874
1001010 0.7126361037263783 0.8093348916653916
1001011 0.62108722292532 0.6623797149645974
1001012 0.8864586051422425 0.12309986246024296
1001020 0.2840124062095817 0.9684920943996507
1001021 0.009902808134284236 0.47661395203568946
1001022 0.8948774690938857 0.03548631688032833
1001100 0.21950029902141588 0.2204971136868057
1001101 0.6298308615168965 0.9563158164915033
1001102 0.17830379860258527 0.31116174393687857
1001110 0.04231500485996065 0.3463505682562228
1001111 0.05952600116016615 0.6781735282741298
1001112 0.2513838718445267 0.9675459811722182
1001120 0.5654266713944127 0.3317216208086726
1001121 0.6275988555862302 0.030288989850458803
1001122 0.6079736214159861 0.3905914935886371
1001200 0.07082428393485396 0.7838980549306754
1001201 0.5900208641157607 0.9763346985440573
1001202 0.5182897422608738 0.14459461985488742
1001210 0.07926921009997778 0.14198086170445956
1001211 0.820969684270845 0.18335937533554136
1001212 0.49153032451095535 0.016406915434935332
1001220 0.255005318093806 0.42826562050706884
1001221 0.924565309513536 0.8158276613782172
1001222 0.5850822347818467 0.0956954404943281
1002000 0.28748574291642237 0.21309486442107328
1002001 0.9299858080178147 0.15690323151142327
1002002 0.5484347978031158 0.04801864864112926
1002010 0.9727774583455789 0.159245475324152
1002011 0.9726020224127869 0.23208387457048318
1002012 0.10421592660880474 0.318896521377116
1002020 0.13171168184170023 0.9496165548002684
1002021 0.539294615271781 0.86462318761412
1002022 0.08592474291477381 0.8725231093071435
1002100 0.9289428629586033 0.17988328786632202
1002101 0.6166979798482495 0.8249747484667647
1002102 0.4280388445012866 0.5608607825685502
1002110 0.34864501271767234 0.17691492806428466
1002111 0.7034924686591765 0.4156034379557595
1002112 0.40501816449055494 0.3486372526588355
1002120 0.8002407924970997 0.19772963240550168
1002121 0.40596454007144744 0.3343200112068677
1002122 0.6046640568623942 0.44766114533912493
1002200 0.002820193580002961 0.47326361872412603
1002201 0.2874500558610209 0.4041932668916828
1002202 0.42587126849220225 0.709691523825004
1002210 0.6229486090464668 0.9826900274693418
1002211 0.05659598466333082 0.5982068954559169
1002212 0.031113199227513766 0.4008108979974483
1002220 0.134337538745953 0.7275327731465031
1002221 0.36891883731260744 0.33943122340478526
1002222 0.7290693454404756 0.33439941499253345
1010000 0.056743547446751474 0.704263691250112
1010001 0.8982888649672941 0.9112391820376314
1010002 0.5394903283774714 0.35538253590140967
1010010 0.24024755557601563 0.0013027261794668066
1010011 0.9928372233543022 0.028600640716029968
1010012 0.30953365138941635 0.804792873918581
1010020 0.4018458557564799 0.8072297276248157
1010021 0.07741053778572016 0.9690289288971524
1010022 0.8641386892903461 0.8260855255616535
1010100 0.7366125431613482 0.6524465892391645
1010101 0.6608482069416225 0.3128399428307135
1010102 0.4807600779193636 0.3455916791931727
1010110 0.697105286201263 0.5784315179817028
1010111 0.28389130945221197 0.6762077608560055
1010112 0.040124214590446794 0.026372068270971938
1010120 0.10523435041797691 0.011937378307456115
1010121 0.6434386461141792 0.9787979724630171
1010122 0.6832108782705877 0.9284545786972156
1010200 0.47607602344378563 0.47245506264219317
1010201 0.2739587857286536 0.8644324938646756
1010202 0.09897133459814533 0.49246234278053835
1010210 0.5653647001021878 0.8644697444654282
1010211 0.09773060960588942 0.048055447134942475
1010212 0.4900463736520313 0.8208881621544817
1010220 0.9852803031969534 0.1452073846373957
1010221 0.35293510901720904 0.6597793766638484
1010222 0.3906042780138814 0.21843331072029937
1011000 0.355476785633944 0.8351967181200928
1011001 0.4385655101418394 0.10831063057624035
1011002 0.681399234648358 0.016582469720900272
1011010 0.3119801383194143 0.3368719090708765
1011011 0.07583747482104342 0.17030367068060193
1011012 0.7318030790103639 0.8726933261239719
1011020 0.9812337476477029 0.6481083414686197
1011021 0.06030879738931061 0.32028366972654077
1011022 0.0299152427654108 0.00036922387713944627
1011100 0.7445971969861538 0.540748144968057
1011101 0.27541402180827446 0.5516016566122038
1011102 0.12766703512292665 0.5419011698018774
1011110 0.4175071976819953 0.8183339725268347
1011111 0.7313606222176444 0.9984651245682783
1011112 0.7856449431260216 0.6119672980271257
1011120 0.43481473058290465 0.08484754964042307
1011121 0.43040726660537676 0.8389799432686311
1011122 0.588454900494181 0.1947350365861933
1011200 0.2933844849587981 0.6026010068473958
1011201 0.0068331968681265565 0.7096144571581475
1011202 0.406969431222695 0.6508646965998738
1011210 0.8325768941588625 0.9955196376307279
1011211 0.19925283433313246 0.5618278195083551
1011212 0.37765538195468396 0.9671789238220513
1011220 0.2898940407384104 0.9974475841853315
1011221 0.7270011407086326 0.5776974166969356
1011222 0.01355497268265915 0.5664657382888773
1012000 0.26897148238443547 0.40568445699044764
1012001 0.07367941912201437 0.8322817387545871
1012002 0.004584910896666239 0.7193934221155682
1012010 0.03862176432289277 0.6375465960141862
1012011 0.8601926990038955 0.321209911430684
1012012 0.8214351702918833 0.9667303847392164
1012020 0.06709604917751555 0.6520668096101447
1012021 0.10287848571550828 0.8202992638748257
1012022 0.2039845233327704 0.7586994874042369
1012100 0.16028922518955113 0.5125548809695781
1012101 0.9036421655411992 0.37218777305552997
1012102 0.9079360271840783 0.8494586435900328
1012110 0.20282033340786276 0.08758849957714976
1012111 0.49860331554465065 0.892007995799405
1012112 0.8920860664267374 0.6557470154440309
1012120 0.47061827745583584 0.4655632140521724
1012121 0.8415929217416144 0.8249602804351369
1012122 0.30493624614497805 0.2574906189230912
1012200 0.7113706176304435 0.7282886146359571
1012201 0.5949101954653755 0.4202116785426071
1012202 0.45973795378344007 0.4736270484330982
1012210 0.516460797912412 0.9194600913063484
1012211 0.6143619633776983 0.7217409609089439
1012212 0.04672227959954933 0.8205088244672639
1012220 0.5781036694726067 0.9311193523855802
1012221 0.39207974710800386 0.10541865089244962
1012222 0.005965031281662592 0.22518309944825887
1020000 0.6453520388007972 0.9396673999633043
1020001 0.818123335523227 0.6707339798110228
1020002 0.8751007908175947 0.5371298780734326
1020010 0.5869363265330113 0.734338320754696
1020011 0.8672410651320525 0.6403350232460152
1020012 0.3015616894805695 0.8036623121805613
1020020 0.5474316279606346 0.41059716499759735
1020021 0.3295777228026999 0.3629593792510063
1020022 0.5823497920840068 0.38029073627280274
1020100 0.10328019143517198 0.7331568839657842
1020101 0.983197867282749 0.38676324710280585
1020102 0.6016232453547172 0.8947318159201539
1020110 0.8873760987996467 0.56590207385253
1020111 0.4140249433246149 0.07527457788465075
1020112 0.8969051384172556 0.7088575424910031
1020120 0.9204939958944305 0.5323472406977274
1020121 0.9019535183268346 0.13863973955792497
1020122 0.37143084111381575 0.4397718470593669
1020200 0.0756718865810504 0.7607059989415684
1020201 0.6678820847296214 0.7988391445577602
1020202 0.009184328254178808 0.8491246186222718
1020210 0.45731073587339144 0.037289954019463
1020211 0.1780854469221752 0.6228332223196598
1020212 0.7928321014155962 0.9827820419381433
1020220 0.40724953553017507 0.8579336415403301
1020221 0.6349865190291392 0.3102563613586058
1020222 0.24847582158191295 0.09535724092670927
1021000 0.794675035491548 0.9512757285547516
1021001 0.8632619191155156 0.6114883779998003
1021002 0.08875577052998562 0.611655156466732
1021010 0.22798798231831507 0.7071813713093027
1021011 0.8806396383190506 0.04801746446846766
1021012 0.36174159276559514 0.7344176248615256
1021020 0.7140837806558359 0.13100159395932554
1021021 0.16551567846040016 0.5946473376518167
1021022 0.6523949505637092 0.016554984005246354
1021100 0.37432708489827515 0.6563366512310036
1021101 0.03863634274637018 0.37289588728068523
1021102 0.8689899096759209 0.29214314381587725
1021110 0.07370648378045763 0.18425828063494742
1021111 0.8918351664965362 0.9749571694187216
1021112 0.44131235369160693 0.34957403862981784
1021120 0.9796802947530995 0.40343911923236353
1021121 0.022591530302529805 0.30931436430011117
1021122 0.5194602832582165 0.22027539525992768
1021200 0.805948293868375 0.850704264947077
1021201 0.11387472959558931 0.3661488811949597
1021202 0.39311222639744303 0.18877591273249017
1021210 0.7815305078248597 0.7184295770685496
1021211 0.6785014345569014 0.9912337801661459
1021212 0.2344539684416881 0.0601049226530157
1021220 0.9156465291210867 0.3223026159872764
1021221 0.582071018149296 0.42381326042226064
1021222 0.14071802257787436 0.08978566316593528
1022000 0.3149561008739138 0.4195038958130277
1022001 0.8195732821569346 0.012459978514411718
1022002 0.9962072944146212 0.1826712416982984
1022010 0.3094048993785872 0.7750038920905118
1022011 0.7715314039037701 0.9435841134742434
1022012 0.04627729178973072 0.2245229381650269
1022020 0.7495625538569475 0.9766642615975865
1022021 0.8677328832263288 0.23312383371482015
1022022 0.058127489902281226 0.14143335070794227
1022100 0.16668976925576962 0.4554867109147902
1022101 0.8091196279936173 0.6992853773429968
1022102 0.11627894737262812 0.631296661281997
1022110 0.6798011334158724 0.12839020007239277
1022111 0.7769798151633259 0.8976723135108021
1022112 0.7534781958083661 0.31997996308528087
1022120 0.04634446723183161 0.25076447867399243
1022121 0.7226982179447662 0.7916628489438924
1022122 0.8452878135347451 0.6135197736189058
1022200 0.22702455137252497 0.7696012524165641
1022201 0.8695455533940304 0.3212141174470352
1022202 0.12806069572555379 0.3104488827791787
1022210 0.8160548371738074 0.7461319681702715
1022211 0.9671275960466745 0.6527650962021362
1022212 0.7389303675958433 0.7946272365626148
1022220 0.7055335736046484 0.7116457262813952
1022221 0.49303943492530755 0.5961932728854115
1022222 0.08900329275354968 0.8634956834553803
1100000 0.9251170981896407 0.5328285097138251
1100001 0.2505202302289383 0.3034767967992483
1100002 0.5501822962684392 0.4107399397103847
1100010 0.15691602265761828 0.7120148947125786
1100011 0.43465132609335544 0.4427025580060253
1100012 0.7824339805103161 0.3839106226855137
1100020 0.00812880156976381 0.23468184649713297
1100021 0.06407969763846333 0.33440004810134083
1100022 0.20681694310484966 0.812343074842153
1100100 0.923787772104556 0.11040526558702557
1100101 0.014371284251622152 0.44322006819814597
1100102 0.9784449523272463 0.5399941973365946
1100110 0.2608496358567505 0.6438006136575097
1100111 0.32971615561106715 0.18390324282056947
1100112 0.5420540765535469 0.7714280069727524
1100120 0.9876697333615468 0.16622757152863876
1100121 0.17293303058351805 0.9092960172738583
1100122 0.37873531600012766 0.021128496587652812
1100200 0.8030877204915757 0.3427745709715653
1100201 0.46746415052859736 0.4089093263177138
1100202 0.6714174923634032 0.21826147373760396
1100210 0.5100340334399128 0.004297393643134195
1100211 0.08747521860468754 0.08594837354412388
1100212 0.12847199043196622 0.9255890466497724
1100220 0.30788886748282207 0.5475751227747695
1100221 0.12542799569786411 0.37485560731428325
1100222 0.7600360802418746 0.6985424209818907
1101000 0.06400325819648012 0.9591762418636426
1101001 0.5780640556338238 0.4115491234872508
1101002 0.8148408211450192 0.024958954534582856
1101010 0.39247102500432174 0.6531306938759567
1101011 0.45616952116257403 0.671315336000419
1101012 0.6689934854009107 0.3608519594816705
1101020 0.21517947943231786 0.9811936675173125
1101021 0.6480817271655035 0.2272960634192922
1101022 0.03331355406230674 0.5181707333485949
1101100 0.8602943035981594 0.3263890063954188
1101101 0.6002627978026899 0.2759077400286968
1101102 0.4550467307707028 0.516638156003916
1101110 0.7723089967797315 0.7757511003523285
1101111 0.21409136246918792 0.05968061729141272
1101112 0.922143405195255 0.5775068551123259
1101120 0.8615165193689407 0.6166528962763093
1101121 0.7701962611901562 0.3739997077591104
1101122 0.9822558488136007 0.16215067337316647
1101200 0.8716664809002558 0.20170303114875832
1101201 0.6794378305569876 0.20588452687195646
1101202 0.1869286873536209 0.4841396131837088
1101210 0.1598414592169699 0.6960368069425473
1101211 0.10212292197928619 0.908095109861796
1101212 0.8723365717177453 0.8846826143192233
1101220 0.5023242827546189 0.02322683565682626
1101221 0.28537207873464643 0.8550251837174107
1101222 0.18402236647282144 0.48048858430827146
1102000 0.9506127673666209 0.36577399581073966
1102001 0.7085945873086488 0.004799874050456454
1102002 0.41350738116858865 0.26225192171986844
1102010 0.45104323115337774 0.258835460482546
1102011 0.06647541874937934 0.6923347367349577
1102012 0.16687536574568695 0.3868742468704951
1102020 0.8996157940210566 0.9696307887819218
1102021 0.20855796642705582 0.9240534957699683
1102022 0.37812378441826267 0.30768285316248
1102100 0.4625227797401774 0.40449565037139446
1102101 0.3837517000501658 0.5142207618878205
1102102 0.7880647900467855 0.8688865639334182
1102110 0.5005531691645689 0.5557814802925746
1102111 0.0710072258129405 0.9898181601686723
1102112 0.9721614054072527 0.7500583674810742
1102120 0.9766433241695459 0.27808066407723986
1102121 0.03285019788322541 0.44661558149581415
1102122 0.47632424834893894 0.9559586565278132
1102200 0.9782096656043135 0.5655895401826349
1102201 0.381024177925086 0.9832684815408246
1102202 0.800943830889898 0.23304610890254174
1102210 0.22573296541404309 0.3469875345695359
1102211 0.06729754244518615 0.1633255299580305
1102212 0.5115483150333581 0.622450295529215
1102220 0.7144894241448269 0.3047899852258832
1102221 0.45645569831319643 0.9870532737653814
1102222 0.1832747554243057 0.7504044665668403
1110000 0.7975872475380066 0.8809052192164066
1110001 0.13564871365165931 0.557634934379457
1110002 0.5618575947420872 0.41788328356155235
1110010 0.35702239254101154 0.689884374212819
1110011 0.9209186953346433 0.12410422416907796
1110012 0.7490494491972502 0.010769972187591237
1110020 0.5597525463372999 0.7441703704807671
1110021 0.7964409880486655 0.8037091298531375
1110022 0.24508098721613059 0.15942813756855156
1110100 0.5387756419756347 0.5124126076515155
1110101 0.2274298715330787 0.6724250798252098
1110102 0.8475329171201158 0.9592319027526705
1110110 0.28229338843743157 0.16972687347179927
1110111 0.13677129981758218 0.2324338275829646
1110112 0.420675968263339 0.2351530499759571
1110120 0.043848590308592894 0.7883675120704466
1110121 0.15702074622890494 0.3988013870043208
1110122 0.8410801117122128 0.28986116994293987
1110200 0.2605558400278982 0.7008867250258499
1110201 0.2050672971273646 0.7828637712946918
1110202 0.07592585330568513 0.8955771268874156
1110210 0.41005092101050755 0.4519539083871774
1110211 0.9668881297463706 0.6653206829042192
1110212 0.5663118777030637 0.9388757023555574
1110220 0.6536044494248678 0.22721578064024517
1110221 0.5466688712883077 0.8768614508849625
1110222 0.32374281540282546 0.13838209575528093
1111000 0.38719782821744797 0.48788477218741444
1111001 0.7392534582309874 0.5647162347491463
1111002 0.2525267967872231 0.38327873790557687
1111010 0.9208271711944578 0.6176864755702364
1111011 0.6816599936364536 0.12241966294897721
1111012 0.7488651449640268 0.9192784211921836
1111020 0.446586340956558 0.8883488154586069
1111021 0.7980131206586418 0.17074559053565042
1111022 0.0070693420157508235 0.9677640909712519
1111100 0.4112983258781243 0.18187832963417283
1111101 0.4203428795665701 0.5345683535462962
1111102 0.9562319639421548 0.685780459133964
1111110 0.12929141207919803 0.83048115844546
1111111 0.5897755102473976 0.27963355151207003
1111112 0.5904616333493046 0.40153903659635237
1111120 0.33058638833079046 0.35604380769624133
1111121 0.3765585629880803 0.4343782527497029
1111122 0.9315106999161253 0.6665925299921375
1111200 0.041471903880208605 0.332898117815117
1111201 0.9933108400960834 0.8357869564734796
1111202 0.13310099390214525 0.8994082816187429
1111210 0.11555711192027496 0.36544801007103433
1111211 0.2989290271951266 0.03664828087546179
1111212 0.7216590022142709 0.9436523545740146
1111220 0.36429200003721585 0.1064195767971946
1111221 0.72665086440031 0.7199772604819406
1111222 0.5833879333325266 0.38036884756766587
1112000 0.6885229576074292 0.9028278211791038
1112001 0.4170802042247622 0.7285493277007069
1112002 0.19683116369071385 0.3287343850926765
1112010 0.9071530404256489 0.29333962470906627
1112011 0.19972990315281036 0.8772421105810557
1112012 0.48819937354177134 0.11752626030661806
1112020 0.11681090107407477 0.3348953730313663
1112021 0.7325504405606444 0.9315835504409524
1112022 0.04741135129030749 0.7082884578936488
1112100 0.8674848684427567 0.16931681356913741
1112101 0.4075878580523744 0.14382268761082628
1112102 0.7037889078955628 0.7973455998479209
1112110 0.3131718874294309 0.305158234072177
1112111 0.4282219203439962 0.01048655334524784
1112112 0.3878478388309322 0.1929854296916137
1112120 0.922403526489977 0.29433644965857264
1112121 0.15786420182301553 0.8673785023001572
1112122 0.3480912673609923 0.3141455442683607
1112200 0.5906832724784753 0.9132226103147927
1112201 0.08639515146506127 0.38694020694455566
1112202 0.5642443302657082 0.41924652444378685
1112210 0.044263993847363015 0.7622264665829195
1112211 0.3732175550889282 0.8194596265217056
1112212 0.6932124114448949 0.0011411008112872656
1112220 0.4748071595132769 0.7164836090097033
1112221 0.9509949004278629 0.9845188981562956
1112222 0.5526630286814547 0.7478664596833597
1120000 0.7846664598512774 0.8764079936620962
1120001 0.47532089548731726 0.6465884338033149
1120002 0.01705108184354076 0.19371538516958786
1120010 0.940342125674931 0.2861004134170432
1120011 0.9969641381587218 0.43672373268691544
1120012 0.9444951588291561 0.8110175235005889
1120020 0.8796249128705154 0.767183722876162
1120021 0.01442350949681026 0.460526699141674
1120022 0.7822699761291755 0.15723628460054428
1120100 0.002185175036697573 0.6476611895082808
1120101 0.2208156737552497 0.38896029859004333
1120102 0.5623002250554412 0.5662528081773115
1120110 0.8600790299264759 0.2192072233376252
1120111 0.9335534828449427 0.1296702182551489
1120112 0.7104670329287638 0.3125697272433229
1120120 0.26289924884607996 0.5078396276334568
1120121 0.2815638983627401 0.4167361266929266
1120122 0.017566838473849544 0.9842326995734314
1120200 0.8222104324671672 0.06299686164903451
1120201 0.7191873041889457 0.18708255300384657
1120202 0.9075650765258175 0.4059519479232442
1120210 0.9960239410910419 0.2523316482229253
1120211 0.014048986318525913 0.11805431113584541
1120212 0.7690387887404813 0.05900945404695768
1120220 0.21352948111990055 0.5055132334725627
1120221 0.3710391074339141 0.29279664619183343
1120222 0.683651416150527 0.5275647402992956
1121000 0.7544330093149518 0.64409307738305
1121001 0.9128807136511589 0.2752684284542334
1121002 0.16986396975572604 0.5887881783495683
1121010 0.6253692042959706 0.5631316110598878
1121011 0.45444355386768076 0.10452604891672257
1121012 0.5832409880425713 0.8473507349584093
1121020 0.05160355887854606 0.8791657377167766
1121021 0.41307857507435897 0.8294471053816915
1121022 0.29558499039558583 0.04654664837390898
1121100 0.3114310248004629 0.3208228584615508
1121101 0.8501983739619502 0.18697876208917463
1121102 0.20211982190890598 0.7562817177805798
1121110 0.1426794161399697 0.18581117597322594
1121111 0.5522289195787153 0.8090748185842657
1121112 0.4750742495095547 0.016053498423568402
1121120 0.19172160575612462 0.12245125734083506
1121121 0.13599369162184338 0.36229833713954007
1121122 0.9498768270437433 0.7040070133098699
1121200 0.7675568165756912 0.24980950676065172
1121201 0.30773470288567784 0.12350509379825925
1121202 0.8832773304296163 0.11020941259825456
1121210 0.4521241306086272 0.12751476527039562
1121211 0.805311331550473 0.054460852079646016
1121212 0.2507215416444102 0.3100192121942681
1121220 0.4350027640951777 0.7773816591418745
1121221 0.5361589885407037 0.03281721745187138
1121222 0.5359322838660503 0.09983865620151555
1122000 0.9461697046882795 0.15264287896908968
1122001 0.18929234760164626 0.42168904222263637
1122002 0.9406007670266823 0.2012081548334098
1122010 0.1988009788770706 0.8504194040277581
1122011 0.1527670477356411 0.44301248907793067
1122012 0.9052823963198766 0.2195454629215079
1122020 0.7558897645480099 0.35816609049794534
1122021 0.6314778591421846 0.03761057051226446
1122022 0.4769501940729396 0.07433348459283573
1122100 0.5959522377341943 0.08185270884349882
1122101 0.704843489969052 0.9916740837448699
1122102 0.2550092241162073 0.5572776492409726
1122110 0.7563314153400954 0.654987783813907
1122111 0.005910030648147213 0.7148829646530995
1122112 0.6584865556176608 0.4198224117732
1122120 0.5840793153795562 0.6330341913027199
1122121 0.9446965108830366 0.9447435103713271
1122122 0.8688483574265935 0.4516593762139367
1122200 0.9585432880276478 0.2556705182082927
1122201 0.11603391730511692 0.5636123582874746
1122202 0.13820948314928028 0.2966579992422659
1122210 0.36316486438564355 0.7646844455433663
1122211 0.9886657893232571 0.8041003080788217
1122212 0.08547318952085914 0.8922989383037094
1122220 0.04194350805749192 0.25891592060070356
1122221 0.34403076576378533 0.4648060722243177
1122222 0.975014870198854 0.19660437035931455
